%!PS-Adobe-2.0 EPSF-2.0
%%BoundingBox:  0 0 567 333
%%Title: ./sigVsTemp1Correl.eps: Signal vs Temp1 Canvas (TProfile)
%%Creator: ROOT Version 5.34/39
%%CreationDate: Thu Feb 21 19:53:09 2019
%%EndComments
%%BeginProlog
80 dict begin
/s {stroke} def /l {lineto} def /m {moveto} def /t {translate} def
/r {rotate} def /rl {roll}  def /R {repeat} def
/d {rlineto} def /rm {rmoveto} def /gr {grestore} def /f {eofill} def
/c {setrgbcolor} def /black {0 setgray} def /sd {setdash} def
/cl {closepath} def /sf {scalefont setfont} def /lw {setlinewidth} def
/box {m dup 0 exch d exch 0 d 0 exch neg d cl} def
/NC{systemdict begin initclip end}def/C{NC box clip newpath}def
/bl {box s} def /bf {gsave box gsave f grestore 1 lw [] 0 sd s grestore} def /Y { 0 exch d} def /X { 0 d} def 
/K {{pop pop 0 moveto} exch kshow} bind def
/ita {/ang 15 def gsave [1 0 ang dup sin exch cos div 1 0 0] concat} def 
/mp {newpath /y exch def /x exch def} def
/side {[w .77 mul w .23 mul] .385 w mul sd w 0 l currentpoint t -144 r} def
/mr {mp x y w2 0 360 arc} def /m24 {mr s} def /m20 {mr f} def
/mb {mp x y w2 add m w2 neg 0 d 0 w neg d w 0 d 0 w d cl} def
/mt {mp x y w2 add m w2 neg w neg d w 0 d cl} def
/m21 {mb f} def /m25 {mb s} def /m22 {mt f} def /m26{mt s} def
/m23 {mp x y w2 sub m w2 w d w neg 0 d cl f} def
/m27 {mp x y w2 add m w3 neg w2 neg d w3 w2 neg d w3 w2 d cl s} def
/m28 {mp x w2 sub y w2 sub w3 add m w3 0 d  0 w3 neg d w3 0 d 0 w3 d w3 0 d  0 w3 d w3 neg 0 d 0 w3 d w3 neg 0 d 0 w3 neg d w3 neg 0 d cl s } def
/m29 {mp gsave x w2 sub y w2 add w3 sub m currentpoint t 4 {side} repeat cl fill gr} def
/m30 {mp gsave x w2 sub y w2 add w3 sub m currentpoint t 4 {side} repeat cl s gr} def
/m31 {mp x y w2 sub m 0 w d x w2 sub y m w 0 d x w2 sub y w2 add m w w neg d x w2 sub y w2 sub m w w d s} def
/m32 {mp x y w2 sub m w2 w d w neg 0 d cl s} def
/m33 {mp x y w2 add m w3 neg w2 neg d w3 w2 neg d w3 w2 d cl f} def
/m34 {mp x w2 sub y w2 sub w3 add m w3 0 d  0 w3 neg d w3 0 d 0 w3 d w3 0 d  0 w3 d w3 neg 0 d 0 w3 d w3 neg 0 d 0 w3 neg d w3 neg 0 d cl f } def
/m2 {mp x y w2 sub m 0 w d x w2 sub y m w 0 d s} def
/m5 {mp x w2 sub y w2 sub m w w d x w2 sub y w2 add m w w neg d s} def
/reEncode {exch findfont dup length dict begin {1 index /FID eq  {pop pop} {def} ifelse } forall /Encoding exch def currentdict end dup /FontName get exch definefont pop } def [/Times-Bold /Times-Italic /Times-BoldItalic /Helvetica /Helvetica-Oblique
 /Helvetica-Bold /Helvetica-BoldOblique /Courier /Courier-Oblique /Courier-Bold /Courier-BoldOblique /Times-Roman /AvantGarde-Book /AvantGarde-BookOblique /AvantGarde-Demi /AvantGarde-DemiOblique /Bookman-Demi /Bookman-DemiItalic /Bookman-Light
 /Bookman-LightItalic /Helvetica-Narrow /Helvetica-Narrow-Bold /Helvetica-Narrow-BoldOblique /Helvetica-Narrow-Oblique /NewCenturySchlbk-Roman /NewCenturySchlbk-Bold /NewCenturySchlbk-BoldItalic /NewCenturySchlbk-Italic /Palatino-Bold
 /Palatino-BoldItalic /Palatino-Italic /Palatino-Roman ] {ISOLatin1Encoding reEncode } forall
%%EndProlog
%%BeginSetup
%%EndSetup
newpath  gsave  .25 .25 scale  gsave  0 0 t black[  ] 0 sd 3 lw 1 1 1 c 2268 1334 0 0 bf black 1 1 1 c 1814 1067 227 133 bf black 1814 1067 227 133 bl 1 1 1 c 1814 1067 227 133 bf black 1814 1067 227 133 bl 1 1 1 c 0.386667 0 1 c 32 23 1532 180 bf 31
 23 1723 180 bf 32 23 1850 180 bf 32 23 1500 203 bf 32 23 1850 203 bf 32 23 1468 226 bf 32 23 1500 226 bf 32 24 1500 249 bf 32 24 1595 249 bf 32 24 1786 249 bf 32 24 1818 249 bf 32 23 1468 273 bf 32 23 1500 273 bf 32 23 1532 273 bf 31 23 1564 273 bf
 32 23 1786 273 bf 32 23 1818 273 bf 32 23 1850 273 bf 32 23 1086 296 bf 32 23 1468 296 bf 32 23 1500 296 bf 32 23 1532 296 bf 32 23 1595 296 bf 32 23 1754 296 bf 32 23 1786 296 bf 32 23 1818 296 bf 32 23 1850 296 bf 32 23 1882 296 bf 32 23 1468 319
 bf 32 23 1500 319 bf 32 23 1532 319 bf 32 23 1595 319 bf 32 23 1627 319 bf 32 23 1691 319 bf 31 23 1723 319 bf 32 23 1754 319 bf 32 23 1786 319 bf 0.2 0 1 c 32 23 1818 319 bf 0.386667 0 1 c 32 23 1850 319 bf 32 23 1882 319 bf 32 23 1468 342 bf 32 23
 1532 342 bf 31 23 1564 342 bf 32 23 1595 342 bf 32 23 1627 342 bf 32 23 1691 342 bf 31 23 1723 342 bf 32 23 1754 342 bf 32 23 1786 342 bf 0 0.0800001 1 c 32 23 1818 342 bf 0.2 0 1 c 32 23 1850 342 bf 0.386667 0 1 c 32 23 1882 342 bf 32 24 1468 365
 bf 32 24 1500 365 bf 32 24 1532 365 bf 31 24 1564 365 bf 32 24 1595 365 bf 32 24 1627 365 bf 32 24 1659 365 bf 32 24 1691 365 bf 31 24 1723 365 bf 32 24 1754 365 bf 0.2 0 1 c 32 24 1786 365 bf 0 0.266667 1 c 32 24 1818 365 bf 0 0.0800001 1 c 32 24
 1850 365 bf 0.386667 0 1 c 32 24 1882 365 bf 32 23 1054 389 bf 32 23 1086 389 bf 32 23 1213 389 bf 32 23 1436 389 bf 32 23 1468 389 bf 32 23 1500 389 bf 32 23 1532 389 bf 31 23 1564 389 bf 32 23 1595 389 bf 32 23 1627 389 bf 32 23 1659 389 bf 32 23
 1691 389 bf 31 23 1723 389 bf 32 23 1754 389 bf 0 0.0800001 1 c 32 23 1786 389 bf 0 0.733333 1 c 32 23 1818 389 bf 0 1 0.986667 c 32 23 1850 389 bf 0.2 0 1 c 32 23 1882 389 bf 0.386667 0 1 c 32 23 1054 412 bf 32 23 1086 412 bf 32 23 1245 412 bf 31
 23 1373 412 bf 32 23 1404 412 bf 32 23 1436 412 bf 32 23 1468 412 bf 32 23 1500 412 bf 32 23 1532 412 bf 31 23 1564 412 bf 32 23 1595 412 bf 32 23 1627 412 bf 32 23 1659 412 bf 32 23 1691 412 bf 31 23 1723 412 bf 0.2 0 1 c 32 23 1754 412 bf 0
 0.266667 1 c 32 23 1786 412 bf 0 1 0.8 c 32 23 1818 412 bf 32 23 1850 412 bf 0.2 0 1 c 32 23 1882 412 bf 0.386667 0 1 c 32 23 1054 435 bf 32 23 1086 435 bf 32 23 1118 435 bf 31 23 1182 435 bf 32 23 1309 435 bf 32 23 1404 435 bf 32 23 1436 435 bf 32
 23 1468 435 bf 32 23 1500 435 bf 32 23 1532 435 bf 31 23 1564 435 bf 32 23 1595 435 bf 32 23 1627 435 bf 32 23 1659 435 bf 32 23 1691 435 bf 31 23 1723 435 bf 0.2 0 1 c 32 23 1754 435 bf 0 0.266667 1 c 32 23 1786 435 bf 0 1 0.52 c 32 23 1818 435 bf
 0 1 0.333333 c 32 23 1850 435 bf 0.2 0 1 c 32 23 1882 435 bf 0.386667 0 1 c 32 23 513 458 bf 32 23 1054 458 bf 32 23 1086 458 bf 32 23 1118 458 bf 31 23 1182 458 bf 32 23 1245 458 bf 32 23 1309 458 bf 32 23 1436 458 bf 32 23 1468 458 bf 32 23 1500
 458 bf 32 23 1532 458 bf 31 23 1564 458 bf 32 23 1595 458 bf 32 23 1627 458 bf 32 23 1659 458 bf 32 23 1691 458 bf 31 23 1723 458 bf 0.2 0 1 c 32 23 1754 458 bf 0 0.266667 1 c 32 23 1786 458 bf 0 1 0.8 c 32 23 1818 458 bf 0 1 0.0533333 c 32 23 1850
 458 bf 0 0.0800001 1 c 32 23 1882 458 bf 0.386667 0 1 c 32 24 1086 481 bf 32 24 1118 481 bf 31 24 1182 481 bf 32 24 1213 481 bf 32 24 1277 481 bf 31 24 1373 481 bf 32 24 1468 481 bf 32 24 1500 481 bf 32 24 1532 481 bf 31 24 1564 481 bf 32 24 1595
 481 bf 0.2 0 1 c 32 24 1627 481 bf 0.386667 0 1 c 32 24 1659 481 bf 0.2 0 1 c 32 24 1691 481 bf 31 24 1723 481 bf 32 24 1754 481 bf 0 0.546666 1 c 32 24 1786 481 bf 0 1 0.8 c 32 24 1818 481 bf 0 1 0.0533333 c 32 24 1850 481 bf 0 0.0800001 1 c 32 24
 1882 481 bf 0.386667 0 1 c 32 23 545 505 bf 32 23 1054 505 bf 32 23 1086 505 bf 32 23 1118 505 bf 32 23 1150 505 bf 31 23 1182 505 bf 32 23 1213 505 bf 32 23 1245 505 bf 32 23 1309 505 bf 32 23 1341 505 bf 31 23 1373 505 bf 32 23 1404 505 bf 32 23
 1436 505 bf 32 23 1468 505 bf 32 23 1500 505 bf 32 23 1532 505 bf 31 23 1564 505 bf 32 23 1595 505 bf 0.2 0 1 c 32 23 1627 505 bf 0.386667 0 1 c 32 23 1659 505 bf 0.2 0 1 c 32 23 1691 505 bf 31 23 1723 505 bf 0 0.0800001 1 c 32 23 1754 505 bf 0
 0.266667 1 c 32 23 1786 505 bf 0 0.733333 1 c 32 23 1818 505 bf 0 1 0.52 c 32 23 1850 505 bf 0.2 0 1 c 32 23 1882 505 bf 0.386667 0 1 c 32 23 577 528 bf 32 23 1054 528 bf 32 23 1086 528 bf 32 23 1118 528 bf 32 23 1213 528 bf 32 23 1277 528 bf 32 23
 1341 528 bf 31 23 1373 528 bf 32 23 1404 528 bf 32 23 1436 528 bf 32 23 1468 528 bf 32 23 1532 528 bf 31 23 1564 528 bf 32 23 1595 528 bf 0.2 0 1 c 32 23 1627 528 bf 0.386667 0 1 c 32 23 1659 528 bf 32 23 1691 528 bf 0.2 0 1 c 31 23 1723 528 bf 0
 0.0800001 1 c 32 23 1754 528 bf 0 0.546666 1 c 32 23 1786 528 bf 32 23 1818 528 bf 0 1 0.8 c 32 23 1850 528 bf 0.2 0 1 c 32 23 1882 528 bf 0.386667 0 1 c 32 23 545 551 bf 32 23 704 551 bf 32 23 863 551 bf 32 23 1086 551 bf 32 23 1118 551 bf 32 23
 1150 551 bf 32 23 1213 551 bf 32 23 1277 551 bf 32 23 1309 551 bf 32 23 1341 551 bf 31 23 1373 551 bf 32 23 1404 551 bf 32 23 1468 551 bf 32 23 1500 551 bf 32 23 1532 551 bf 31 23 1564 551 bf 32 23 1595 551 bf 32 23 1627 551 bf 32 23 1659 551 bf 32
 23 1691 551 bf 0.2 0 1 c 31 23 1723 551 bf 0 0.0800001 1 c 32 23 1754 551 bf 0 0.546666 1 c 32 23 1786 551 bf 0 0.266667 1 c 32 23 1818 551 bf 0 0.733333 1 c 32 23 1850 551 bf 0.2 0 1 c 32 23 1882 551 bf 0.386667 0 1 c 32 23 418 574 bf 31 23 450 574
 bf 32 23 545 574 bf 32 23 609 574 bf 32 23 704 574 bf 32 23 831 574 bf 32 23 863 574 bf 32 23 895 574 bf 32 23 927 574 bf 32 23 1022 574 bf 32 23 1118 574 bf 32 23 1150 574 bf 32 23 1213 574 bf 32 23 1277 574 bf 32 23 1341 574 bf 31 23 1373 574 bf
 32 23 1404 574 bf 32 23 1436 574 bf 32 23 1468 574 bf 32 23 1500 574 bf 32 23 1532 574 bf 31 23 1564 574 bf 32 23 1595 574 bf 32 23 1627 574 bf 32 23 1659 574 bf 32 23 1691 574 bf 0.2 0 1 c 31 23 1723 574 bf 0 0.266667 1 c 32 23 1754 574 bf 32 23
 1786 574 bf 32 23 1818 574 bf 0 0.546666 1 c 32 23 1850 574 bf 0.2 0 1 c 32 23 1882 574 bf 0.386667 0 1 c 32 24 481 597 bf 32 24 513 597 bf 32 24 609 597 bf 32 24 704 597 bf 32 24 831 597 bf 32 24 863 597 bf 32 24 895 597 bf 32 24 927 597 bf 32 24
 959 597 bf 32 24 1054 597 bf 32 24 1086 597 bf 32 24 1118 597 bf 32 24 1150 597 bf 32 24 1213 597 bf 32 24 1245 597 bf 32 24 1277 597 bf 32 24 1341 597 bf 31 24 1373 597 bf 32 24 1404 597 bf 32 24 1436 597 bf 32 24 1468 597 bf 32 24 1500 597 bf 32
 24 1532 597 bf 31 24 1564 597 bf 32 24 1595 597 bf 32 24 1627 597 bf 32 24 1659 597 bf 0.2 0 1 c 32 24 1691 597 bf 31 24 1723 597 bf 0 0.266667 1 c 32 24 1754 597 bf 0 0.733333 1 c 32 24 1786 597 bf 32 24 1818 597 bf 0 0.546666 1 c 32 24 1850 597 bf
 0 0.0800001 1 c 32 24 1882 597 bf 0.386667 0 1 c 31 24 1914 597 bf 32 23 322 621 bf 32 23 354 621 bf 32 23 386 621 bf 32 23 418 621 bf 31 23 450 621 bf 32 23 481 621 bf 32 23 545 621 bf 32 23 577 621 bf 31 23 641 621 bf 32 23 672 621 bf 32 23 704
 621 bf 32 23 736 621 bf 32 23 768 621 bf 31 23 800 621 bf 32 23 863 621 bf 32 23 895 621 bf 32 23 927 621 bf 32 23 959 621 bf 31 23 991 621 bf 32 23 1022 621 bf 32 23 1086 621 bf 32 23 1118 621 bf 32 23 1150 621 bf 31 23 1182 621 bf 32 23 1213 621
 bf 32 23 1245 621 bf 32 23 1277 621 bf 32 23 1309 621 bf 32 23 1341 621 bf 31 23 1373 621 bf 32 23 1404 621 bf 32 23 1436 621 bf 32 23 1468 621 bf 32 23 1500 621 bf 32 23 1532 621 bf 0.2 0 1 c 31 23 1564 621 bf 32 23 1595 621 bf 0.386667 0 1 c 32 23
 1627 621 bf 0.2 0 1 c 32 23 1659 621 bf 32 23 1691 621 bf 0 0.266667 1 c 31 23 1723 621 bf 32 23 1754 621 bf 0 1 0.986667 c 32 23 1786 621 bf 0 1 0.8 c 32 23 1818 621 bf 0 1 0.986667 c 32 23 1850 621 bf 0 0.266667 1 c 32 23 1882 621 bf 0.386667 0 1
 c 31 23 1914 621 bf 32 23 354 644 bf 32 23 386 644 bf 32 23 418 644 bf 32 23 481 644 bf 32 23 513 644 bf 32 23 545 644 bf 32 23 609 644 bf 32 23 672 644 bf 32 23 704 644 bf 32 23 736 644 bf 32 23 768 644 bf 31 23 800 644 bf 32 23 831 644 bf 32 23
 863 644 bf 32 23 895 644 bf 32 23 927 644 bf 32 23 959 644 bf 31 23 991 644 bf 32 23 1022 644 bf 32 23 1054 644 bf 32 23 1086 644 bf 32 23 1118 644 bf 32 23 1150 644 bf 31 23 1182 644 bf 32 23 1213 644 bf 32 23 1245 644 bf 32 23 1277 644 bf 32 23
 1309 644 bf 32 23 1341 644 bf 31 23 1373 644 bf 32 23 1404 644 bf 32 23 1436 644 bf 32 23 1468 644 bf 32 23 1500 644 bf 0.2 0 1 c 32 23 1532 644 bf 31 23 1564 644 bf 32 23 1595 644 bf 0.386667 0 1 c 32 23 1627 644 bf 0.2 0 1 c 32 23 1659 644 bf 0
 0.0800001 1 c 32 23 1691 644 bf 31 23 1723 644 bf 0 0.546666 1 c 32 23 1754 644 bf 0 1 0.986667 c 32 23 1786 644 bf 0 1 0.52 c 32 23 1818 644 bf 0 1 0.8 c 32 23 1850 644 bf 0 0.266667 1 c 32 23 1882 644 bf 0.386667 0 1 c 32 23 322 667 bf 32 23 418
 667 bf 32 23 481 667 bf 32 23 513 667 bf 32 23 545 667 bf 32 23 577 667 bf 32 23 672 667 bf 32 23 704 667 bf 32 23 736 667 bf 32 23 768 667 bf 31 23 800 667 bf 32 23 831 667 bf 32 23 863 667 bf 32 23 895 667 bf 32 23 927 667 bf 32 23 959 667 bf 31
 23 991 667 bf 32 23 1022 667 bf 32 23 1054 667 bf 32 23 1086 667 bf 32 23 1118 667 bf 32 23 1150 667 bf 31 23 1182 667 bf 32 23 1213 667 bf 32 23 1245 667 bf 32 23 1277 667 bf 32 23 1309 667 bf 32 23 1341 667 bf 31 23 1373 667 bf 32 23 1404 667 bf
 32 23 1436 667 bf 0.2 0 1 c 32 23 1468 667 bf 0.386667 0 1 c 32 23 1500 667 bf 0.2 0 1 c 32 23 1532 667 bf 0 0.0800001 1 c 31 23 1564 667 bf 0.2 0 1 c 32 23 1595 667 bf 32 23 1627 667 bf 0 0.0800001 1 c 32 23 1659 667 bf 32 23 1691 667 bf 0 0.266667
 1 c 31 23 1723 667 bf 0 0.546666 1 c 32 23 1754 667 bf 0 1 0.986667 c 32 23 1786 667 bf 0.133333 1 0 c 32 23 1818 667 bf 0 1 0.52 c 32 23 1850 667 bf 0 0.546666 1 c 32 23 1882 667 bf 0.386667 0 1 c 31 23 1914 667 bf 32 23 290 690 bf 32 23 418 690 bf
 31 23 450 690 bf 32 23 481 690 bf 32 23 513 690 bf 32 23 545 690 bf 32 23 609 690 bf 31 23 641 690 bf 32 23 672 690 bf 32 23 704 690 bf 32 23 736 690 bf 32 23 768 690 bf 31 23 800 690 bf 32 23 831 690 bf 32 23 863 690 bf 32 23 895 690 bf 32 23 927
 690 bf 32 23 959 690 bf 31 23 991 690 bf 32 23 1022 690 bf 32 23 1054 690 bf 32 23 1086 690 bf 32 23 1118 690 bf 32 23 1150 690 bf 31 23 1182 690 bf 32 23 1213 690 bf 32 23 1245 690 bf 32 23 1277 690 bf 32 23 1309 690 bf 32 23 1341 690 bf 31 23 1373
 690 bf 32 23 1404 690 bf 32 23 1436 690 bf 0.2 0 1 c 32 23 1468 690 bf 32 23 1500 690 bf 0 0.0800001 1 c 32 23 1532 690 bf 31 23 1564 690 bf 0.2 0 1 c 32 23 1595 690 bf 32 23 1627 690 bf 0 0.0800001 1 c 32 23 1659 690 bf 0 0.266667 1 c 32 23 1691
 690 bf 0 0.546666 1 c 31 23 1723 690 bf 32 23 1754 690 bf 0 1 0.52 c 32 23 1786 690 bf 0.133333 1 0 c 32 23 1818 690 bf 0 1 0.333333 c 32 23 1850 690 bf 0 0.266667 1 c 32 23 1882 690 bf 0.386667 0 1 c 31 23 1914 690 bf 32 24 322 713 bf 32 24 418 713
 bf 31 24 450 713 bf 32 24 481 713 bf 32 24 513 713 bf 32 24 577 713 bf 31 24 641 713 bf 32 24 672 713 bf 32 24 704 713 bf 32 24 736 713 bf 32 24 768 713 bf 31 24 800 713 bf 32 24 831 713 bf 32 24 863 713 bf 32 24 895 713 bf 32 24 927 713 bf 32 24
 959 713 bf 31 24 991 713 bf 32 24 1022 713 bf 32 24 1054 713 bf 32 24 1086 713 bf 32 24 1118 713 bf 32 24 1150 713 bf 31 24 1182 713 bf 32 24 1213 713 bf 32 24 1245 713 bf 32 24 1277 713 bf 32 24 1309 713 bf 32 24 1341 713 bf 31 24 1373 713 bf 32 24
 1404 713 bf 32 24 1436 713 bf 32 24 1468 713 bf 32 24 1500 713 bf 0 0.0800001 1 c 32 24 1532 713 bf 0.2 0 1 c 31 24 1564 713 bf 32 24 1595 713 bf 32 24 1627 713 bf 0 0.0800001 1 c 32 24 1659 713 bf 0 0.546666 1 c 32 24 1691 713 bf 31 24 1723 713 bf
 32 24 1754 713 bf 0 1 0.52 c 32 24 1786 713 bf 1 0.933333 0 c 32 24 1818 713 bf 0 1 0.52 c 32 24 1850 713 bf 0 0.266667 1 c 32 24 1882 713 bf 0.386667 0 1 c 32 23 322 737 bf 32 23 418 737 bf 32 23 481 737 bf 32 23 513 737 bf 32 23 609 737 bf 31 23
 641 737 bf 32 23 704 737 bf 32 23 736 737 bf 32 23 768 737 bf 31 23 800 737 bf 32 23 831 737 bf 32 23 863 737 bf 32 23 895 737 bf 32 23 927 737 bf 32 23 959 737 bf 31 23 991 737 bf 32 23 1022 737 bf 32 23 1054 737 bf 32 23 1086 737 bf 32 23 1118 737
 bf 32 23 1150 737 bf 31 23 1182 737 bf 32 23 1213 737 bf 32 23 1245 737 bf 32 23 1277 737 bf 32 23 1309 737 bf 32 23 1341 737 bf 31 23 1373 737 bf 32 23 1404 737 bf 32 23 1436 737 bf 32 23 1468 737 bf 0.2 0 1 c 32 23 1500 737 bf 32 23 1532 737 bf 0
 0.0800001 1 c 31 23 1564 737 bf 0.2 0 1 c 32 23 1595 737 bf 32 23 1627 737 bf 0 0.0800001 1 c 32 23 1659 737 bf 0 0.266667 1 c 32 23 1691 737 bf 0 0.546666 1 c 31 23 1723 737 bf 0 0.733333 1 c 32 23 1754 737 bf 0 1 0.333333 c 32 23 1786 737 bf 1
 0.933333 0 c 32 23 1818 737 bf 0 1 0.52 c 32 23 1850 737 bf 0.2 0 1 c 32 23 1882 737 bf 0.386667 0 1 c 31 23 1914 737 bf 31 23 259 760 bf 32 23 322 760 bf 31 23 450 760 bf 32 23 545 760 bf 31 23 641 760 bf 32 23 672 760 bf 32 23 736 760 bf 32 23 768
 760 bf 31 23 800 760 bf 32 23 831 760 bf 32 23 863 760 bf 32 23 895 760 bf 32 23 927 760 bf 32 23 959 760 bf 31 23 991 760 bf 32 23 1022 760 bf 32 23 1054 760 bf 32 23 1086 760 bf 32 23 1118 760 bf 32 23 1150 760 bf 31 23 1182 760 bf 32 23 1213 760
 bf 32 23 1245 760 bf 32 23 1277 760 bf 32 23 1309 760 bf 32 23 1341 760 bf 31 23 1373 760 bf 32 23 1404 760 bf 32 23 1436 760 bf 32 23 1468 760 bf 32 23 1500 760 bf 0.2 0 1 c 32 23 1532 760 bf 31 23 1564 760 bf 0.386667 0 1 c 32 23 1595 760 bf 32 23
 1627 760 bf 0.2 0 1 c 32 23 1659 760 bf 0 0.0800001 1 c 32 23 1691 760 bf 0 0.266667 1 c 31 23 1723 760 bf 0 0.546666 1 c 32 23 1754 760 bf 0.133333 1 0 c 32 23 1786 760 bf 1 0.186667 0 c 32 23 1818 760 bf 0 1 0.52 c 32 23 1850 760 bf 0.2 0 1 c 32
 23 1882 760 bf 0.386667 0 1 c 31 23 259 783 bf 31 23 641 783 bf 32 23 672 783 bf 32 23 704 783 bf 32 23 736 783 bf 32 23 768 783 bf 31 23 800 783 bf 32 23 831 783 bf 32 23 895 783 bf 32 23 927 783 bf 32 23 959 783 bf 31 23 991 783 bf 32 23 1022 783
 bf 32 23 1054 783 bf 32 23 1086 783 bf 32 23 1118 783 bf 32 23 1150 783 bf 31 23 1182 783 bf 32 23 1213 783 bf 32 23 1245 783 bf 32 23 1309 783 bf 32 23 1341 783 bf 31 23 1373 783 bf 32 23 1404 783 bf 32 23 1436 783 bf 32 23 1468 783 bf 32 23 1500
 783 bf 32 23 1532 783 bf 31 23 1564 783 bf 32 23 1595 783 bf 32 23 1627 783 bf 32 23 1659 783 bf 0 0.0800001 1 c 32 23 1691 783 bf 0 0.546666 1 c 31 23 1723 783 bf 0 0.733333 1 c 32 23 1754 783 bf 0 1 0.333333 c 32 23 1786 783 bf 1 0 0 c 32 23 1818
 783 bf 0 1 0.333333 c 32 23 1850 783 bf 0.2 0 1 c 32 23 1882 783 bf 0.386667 0 1 c 32 23 290 806 bf 32 23 322 806 bf 32 23 704 806 bf 32 23 736 806 bf 31 23 800 806 bf 32 23 895 806 bf 32 23 927 806 bf 31 23 991 806 bf 32 23 1022 806 bf 32 23 1054
 806 bf 32 23 1086 806 bf 32 23 1118 806 bf 32 23 1150 806 bf 31 23 1182 806 bf 32 23 1213 806 bf 32 23 1245 806 bf 32 23 1309 806 bf 32 23 1404 806 bf 32 23 1468 806 bf 32 23 1500 806 bf 32 23 1532 806 bf 31 23 1564 806 bf 32 23 1595 806 bf 32 23
 1627 806 bf 32 23 1659 806 bf 0.2 0 1 c 32 23 1691 806 bf 0 0.0800001 1 c 31 23 1723 806 bf 0 0.546666 1 c 32 23 1754 806 bf 0 1 0.333333 c 32 23 1786 806 bf 1 0.186667 0 c 32 23 1818 806 bf 0 1 0.52 c 32 23 1850 806 bf 0.2 0 1 c 32 23 1882 806 bf
 0.386667 0 1 c 32 24 768 829 bf 32 24 863 829 bf 32 24 895 829 bf 32 24 1054 829 bf 32 24 1086 829 bf 32 24 1118 829 bf 31 24 1182 829 bf 32 24 1213 829 bf 32 24 1245 829 bf 32 24 1277 829 bf 32 24 1404 829 bf 32 24 1436 829 bf 32 24 1468 829 bf 32
 24 1500 829 bf 32 24 1532 829 bf 31 24 1564 829 bf 32 24 1595 829 bf 32 24 1627 829 bf 32 24 1659 829 bf 0.2 0 1 c 32 24 1691 829 bf 31 24 1723 829 bf 0 0.266667 1 c 32 24 1754 829 bf 0 1 0.8 c 32 24 1786 829 bf 1 0.466667 0 c 32 24 1818 829 bf 0 1
 0.52 c 32 24 1850 829 bf 0.386667 0 1 c 32 24 1882 829 bf 31 23 259 853 bf 32 23 736 853 bf 32 23 768 853 bf 32 23 927 853 bf 31 23 991 853 bf 32 23 1054 853 bf 32 23 1086 853 bf 32 23 1118 853 bf 32 23 1213 853 bf 32 23 1277 853 bf 32 23 1341 853
 bf 32 23 1468 853 bf 32 23 1500 853 bf 31 23 1564 853 bf 32 23 1595 853 bf 32 23 1627 853 bf 32 23 1659 853 bf 32 23 1691 853 bf 0.2 0 1 c 31 23 1723 853 bf 0 0.0800001 1 c 32 23 1754 853 bf 0 0.733333 1 c 32 23 1786 853 bf 0.413333 1 0 c 32 23 1818
 853 bf 0 0.733333 1 c 32 23 1850 853 bf 0.386667 0 1 c 32 23 1882 853 bf 32 23 322 876 bf 32 23 1022 876 bf 32 23 1213 876 bf 32 23 1341 876 bf 32 23 1500 876 bf 32 23 1532 876 bf 32 23 1595 876 bf 32 23 1627 876 bf 32 23 1659 876 bf 32 23 1691 876
 bf 0.2 0 1 c 31 23 1723 876 bf 32 23 1754 876 bf 0 0.266667 1 c 32 23 1786 876 bf 0 1 0.52 c 32 23 1818 876 bf 0 0.266667 1 c 32 23 1850 876 bf 0.386667 0 1 c 32 23 1882 876 bf 32 23 1118 899 bf 32 23 1532 899 bf 31 23 1564 899 bf 32 23 1627 899 bf
 32 23 1659 899 bf 32 23 1691 899 bf 31 23 1723 899 bf 32 23 1754 899 bf 0 0.0800001 1 c 32 23 1786 899 bf 0 0.733333 1 c 32 23 1818 899 bf 0 0.0800001 1 c 32 23 1850 899 bf 0.386667 0 1 c 32 23 1882 899 bf 32 23 1532 922 bf 32 23 1659 922 bf 32 23
 1691 922 bf 31 23 1723 922 bf 32 23 1754 922 bf 0.2 0 1 c 32 23 1786 922 bf 0 0.0800001 1 c 32 23 1818 922 bf 0.2 0 1 c 32 23 1850 922 bf 0.386667 0 1 c 32 23 1882 922 bf 31 24 1564 945 bf 32 24 1659 945 bf 32 24 1691 945 bf 31 24 1723 945 bf 32 24
 1754 945 bf 32 24 1786 945 bf 32 24 1818 945 bf 32 24 1850 945 bf 31 23 1723 969 bf 32 23 1754 969 bf 32 23 1786 969 bf 32 23 1818 969 bf 32 23 1850 969 bf 32 23 1754 992 bf 32 23 1786 992 bf 32 23 1818 992 bf 32 23 1850 992 bf 31 23 1564 1015 bf 32
 23 1786 1015 bf 32 23 1818 1015 bf 31 23 1564 1038 bf 31 23 1723 1038 bf 32 23 1786 1038 bf 32 23 1818 1038 bf 32 23 1786 1061 bf 32 24 1786 1084 bf 1 1 1 c black 227 133 m 1814 X s
 gsave  2268 1334 0 0 C 1543.34 47.3004 t 0 r /Helvetica findfont 43.2461 sf 0 0 m (Temperature \(E:TTTGHT\)) show NC gr  496 165 m -32 Y s 559 149 m -16 Y s 623 149 m -16 Y s 687 149 m -16 Y s 750 149 m -16 Y s 814 165 m -32 Y s 878 149 m -16 Y s
 941 149 m -16 Y s 1005 149 m -16 Y s 1068 149 m -16 Y s 1132 165 m -32 Y s 1196 149 m -16 Y s 1259 149 m -16 Y s 1323 149 m -16 Y s 1387 149 m -16 Y s 1450 165 m -32 Y s 1514 149 m -16 Y s 1577 149 m -16 Y s 1641 149 m -16 Y s 1705 149 m -16 Y s
 1768 165 m -32 Y s 496 165 m -32 Y s 432 149 m -16 Y s 368 149 m -16 Y s 305 149 m -16 Y s 241 149 m -16 Y s 1768 165 m -32 Y s 1832 149 m -16 Y s 1896 149 m -16 Y s 1959 149 m -16 Y s 2023 149 m -16 Y s
 gsave  2268 1334 0 0 C 470.301 90.5465 t 0 r /Helvetica findfont 43.2461 sf 0 0 m (76) show NC gr 
 gsave  2268 1334 0 0 C 789.241 90.5465 t 0 r /Helvetica findfont 43.2461 sf 0 0 m (77) show NC gr 
 gsave  2268 1334 0 0 C 1106.83 90.5465 t 0 r /Helvetica findfont 43.2461 sf 0 0 m (78) show NC gr 
 gsave  2268 1334 0 0 C 1425.77 90.5465 t 0 r /Helvetica findfont 43.2461 sf 0 0 m (79) show NC gr 
 gsave  2268 1334 0 0 C 1743.36 90.5465 t 0 r /Helvetica findfont 43.2461 sf 0 0 m (80) show NC gr  227 133 m 1067 Y s
 gsave  2268 1334 0 0 C 110.818 966.28 t 90 r /Helvetica findfont 43.2461 sf 0 0 m (Signal / PoT) show NC gr  281 221 m -54 X s 254 244 m -27 X s 254 267 m -27 X s 254 291 m -27 X s 254 314 m -27 X s 281 337 m -54 X s 254 361 m -27 X s 254 384 m -27
 X s 254 407 m -27 X s 254 430 m -27 X s 281 454 m -54 X s 254 477 m -27 X s 254 500 m -27 X s 254 524 m -27 X s 254 547 m -27 X s 281 570 m -54 X s 254 594 m -27 X s 254 617 m -27 X s 254 640 m -27 X s 254 663 m -27 X s 281 687 m -54 X s 254 710 m
 -27 X s 254 733 m -27 X s 254 757 m -27 X s 254 780 m -27 X s 281 803 m -54 X s 254 826 m -27 X s 254 850 m -27 X s 254 873 m -27 X s 254 896 m -27 X s 281 920 m -54 X s 254 943 m -27 X s 254 966 m -27 X s 254 989 m -27 X s 254 1013 m -27 X s 281
 1036 m -54 X s 254 1059 m -27 X s 254 1083 m -27 X s 254 1106 m -27 X s 254 1129 m -27 X s 281 1152 m -54 X s 281 221 m -54 X s 254 198 m -27 X s 254 174 m -27 X s 254 151 m -27 X s 281 1152 m -54 X s 254 1176 m -27 X s 254 1199 m -27 X s
 gsave  2268 1334 0 0 C 120.278 205.419 t 0 r /Helvetica findfont 43.2461 sf 0 0 m (7200) show NC gr 
 gsave  2268 1334 0 0 C 120.278 321.643 t 0 r /Helvetica findfont 43.2461 sf 0 0 m (7250) show NC gr 
 gsave  2268 1334 0 0 C 120.278 437.867 t 0 r /Helvetica findfont 43.2461 sf 0 0 m (7300) show NC gr 
 gsave  2268 1334 0 0 C 120.278 554.09 t 0 r /Helvetica findfont 43.2461 sf 0 0 m (7350) show NC gr 
 gsave  2268 1334 0 0 C 120.278 671.666 t 0 r /Helvetica findfont 43.2461 sf 0 0 m (7400) show NC gr 
 gsave  2268 1334 0 0 C 120.278 787.89 t 0 r /Helvetica findfont 43.2461 sf 0 0 m (7450) show NC gr 
 gsave  2268 1334 0 0 C 120.278 904.113 t 0 r /Helvetica findfont 43.2461 sf 0 0 m (7500) show NC gr 
 gsave  2268 1334 0 0 C 120.278 1020.34 t 0 r /Helvetica findfont 43.2461 sf 0 0 m (7550) show NC gr 
 gsave  2268 1334 0 0 C 120.278 1136.56 t 0 r /Helvetica findfont 43.2461 sf 0 0 m (7600) show NC gr  1 1 1 c 454 321 584 193 bf black 584 193 m 454 X s 1038 193 m 321 Y s 1038 514 m -454 X s 584 514 m -321 Y s 1 1 1 c black
 gsave  2268 1334 0 0 C 604.094 477.058 t 0 r /Helvetica findfont 39.1918 sf 0 0 m (signalVsTimePlotProfile) show NC gr  584 460 m 454 X s
 gsave  2268 1334 0 0 C 605.445 416.244 t 0 r /Helvetica findfont 45.949 sf 0 0 m (Entries ) show NC gr 
 gsave  2268 1334 0 0 C 875.733 416.244 t 0 r /Helvetica findfont 45.949 sf 0 0 m ( 27659) show NC gr 
 gsave  2268 1334 0 0 C 605.445 363.537 t 0 r /Helvetica findfont 45.949 sf 0 0 m (Mean x ) show NC gr 
 gsave  2268 1334 0 0 C 875.733 363.537 t 0 r /Helvetica findfont 45.949 sf 0 0 m (  79.97) show NC gr 
 gsave  2268 1334 0 0 C 605.445 314.886 t 0 r /Helvetica findfont 45.949 sf 0 0 m (Mean y ) show NC gr 
 gsave  2268 1334 0 0 C 875.733 309.48 t 0 r /Helvetica findfont 45.949 sf 0 0 m (   7394) show NC gr 
 gsave  2268 1334 0 0 C 605.445 256.774 t 0 r /Helvetica findfont 45.949 sf 0 0 m (RMS x ) show NC gr 
 gsave  2268 1334 0 0 C 862.219 256.774 t 0 r /Helvetica findfont 45.949 sf 0 0 m ( 0.5804) show NC gr 
 gsave  2268 1334 0 0 C 605.445 206.77 t 0 r /Helvetica findfont 45.949 sf 0 0 m (RMS y ) show NC gr 
 gsave  2268 1334 0 0 C 875.733 202.716 t 0 r /Helvetica findfont 45.949 sf 0 0 m (  60.86) show NC gr  0.386667 0 1 c 102 54 2052 133 bf 0.2 0 1 c 102 53 2052 187 bf 0 0.0800001 1 c 102 53 2052 240 bf 0 0.266667 1 c 102 54 2052 293 bf 0 0.546666 1 c
 102 53 2052 347 bf 0 0.733333 1 c 102 54 2052 400 bf 0 1 0.986667 c 102 53 2052 454 bf 0 1 0.8 c 102 53 2052 507 bf 0 1 0.52 c 102 54 2052 560 bf 0 1 0.333333 c 102 53 2052 614 bf 0 1 0.0533333 c 102 53 2052 667 bf 0.133333 1 0 c 102 54 2052 720 bf
 0.413333 1 0 c 102 53 2052 774 bf 0.6 1 0 c 102 53 2052 827 bf 0.88 1 0 c 102 54 2052 880 bf 1 0.933333 0 c 102 53 2052 934 bf 1 0.653333 0 c 102 53 2052 987 bf 1 0.466667 0 c 102 54 2052 1040 bf 1 0.186667 0 c 102 53 2052 1094 bf 1 0 0 c 102 53
 2052 1147 bf black 2154 133 m 1067 Y s 2100 133 m 54 X s 2100 312 m 54 X s 2100 490 m 54 X s 2100 669 m 54 X s 2100 847 m 54 X s 2100 1026 m 54 X s 2100 1026 m 54 X s
 gsave  2268 1334 0 0 C 2165.01 117.575 t 0 r /Helvetica findfont 43.2461 sf 0 0 m (0) show NC gr 
 gsave  2268 1334 0 0 C 2165.01 295.965 t 0 r /Helvetica findfont 43.2461 sf 0 0 m (100) show NC gr 
 gsave  2268 1334 0 0 C 2165.01 474.355 t 0 r /Helvetica findfont 43.2461 sf 0 0 m (200) show NC gr 
 gsave  2268 1334 0 0 C 2165.01 652.746 t 0 r /Helvetica findfont 43.2461 sf 0 0 m (300) show NC gr 
 gsave  2268 1334 0 0 C 2165.01 831.136 t 0 r /Helvetica findfont 43.2461 sf 0 0 m (400) show NC gr 
 gsave  2268 1334 0 0 C 2165.01 1009.53 t 0 r /Helvetica findfont 43.2461 sf 0 0 m (500) show NC gr  1 1 1 c 454 321 584 193 bf black 584 193 m 454 X s 1038 193 m 321 Y s 1038 514 m -454 X s 584 514 m -321 Y s 1 1 1 c black
 gsave  2268 1334 0 0 C 604.094 477.058 t 0 r /Helvetica findfont 39.1918 sf 0 0 m (signalVsTimePlotProfile) show NC gr  584 460 m 454 X s
 gsave  2268 1334 0 0 C 605.445 416.244 t 0 r /Helvetica findfont 45.949 sf 0 0 m (Entries ) show NC gr 
 gsave  2268 1334 0 0 C 875.733 416.244 t 0 r /Helvetica findfont 45.949 sf 0 0 m ( 27659) show NC gr 
 gsave  2268 1334 0 0 C 605.445 363.537 t 0 r /Helvetica findfont 45.949 sf 0 0 m (Mean x ) show NC gr 
 gsave  2268 1334 0 0 C 875.733 363.537 t 0 r /Helvetica findfont 45.949 sf 0 0 m (  79.97) show NC gr 
 gsave  2268 1334 0 0 C 605.445 314.886 t 0 r /Helvetica findfont 45.949 sf 0 0 m (Mean y ) show NC gr 
 gsave  2268 1334 0 0 C 875.733 309.48 t 0 r /Helvetica findfont 45.949 sf 0 0 m (   7394) show NC gr 
 gsave  2268 1334 0 0 C 605.445 256.774 t 0 r /Helvetica findfont 45.949 sf 0 0 m (RMS x ) show NC gr 
 gsave  2268 1334 0 0 C 862.219 256.774 t 0 r /Helvetica findfont 45.949 sf 0 0 m ( 0.5804) show NC gr 
 gsave  2268 1334 0 0 C 605.445 206.77 t 0 r /Helvetica findfont 45.949 sf 0 0 m (RMS y ) show NC gr 
 gsave  2268 1334 0 0 C 875.733 202.716 t 0 r /Helvetica findfont 45.949 sf 0 0 m (  60.86) show NC gr  1 1 1 c black
 gsave  2268 1334 0 0 C 700.046 1270.35 t 0 r /Helvetica findfont 63.5177 sf 0 0 m (Total Signal vs PoT \(Fall 2018\)) show NC gr 
 gr  gr showpage
end
%%EOF
