%!PS-Adobe-2.0 EPSF-2.0
%%BoundingBox:  0 0 567 293
%%Title: /home/nicholas/work/d41/numi_analysis/aps_april_plots/poly_sig_nov_15th_full.eps: c4
%%Creator: ROOT Version 5.34/39
%%CreationDate: Sun Apr 14 23:52:11 2019
%%EndComments
%%BeginProlog
80 dict begin
/s {stroke} def /l {lineto} def /m {moveto} def /t {translate} def
/r {rotate} def /rl {roll}  def /R {repeat} def
/d {rlineto} def /rm {rmoveto} def /gr {grestore} def /f {eofill} def
/c {setrgbcolor} def /black {0 setgray} def /sd {setdash} def
/cl {closepath} def /sf {scalefont setfont} def /lw {setlinewidth} def
/box {m dup 0 exch d exch 0 d 0 exch neg d cl} def
/NC{systemdict begin initclip end}def/C{NC box clip newpath}def
/bl {box s} def /bf {gsave box gsave f grestore 1 lw [] 0 sd s grestore} def /Y { 0 exch d} def /X { 0 d} def 
/K {{pop pop 0 moveto} exch kshow} bind def
/ita {/ang 15 def gsave [1 0 ang dup sin exch cos div 1 0 0] concat} def 
/mp {newpath /y exch def /x exch def} def
/side {[w .77 mul w .23 mul] .385 w mul sd w 0 l currentpoint t -144 r} def
/mr {mp x y w2 0 360 arc} def /m24 {mr s} def /m20 {mr f} def
/mb {mp x y w2 add m w2 neg 0 d 0 w neg d w 0 d 0 w d cl} def
/mt {mp x y w2 add m w2 neg w neg d w 0 d cl} def
/m21 {mb f} def /m25 {mb s} def /m22 {mt f} def /m26{mt s} def
/m23 {mp x y w2 sub m w2 w d w neg 0 d cl f} def
/m27 {mp x y w2 add m w3 neg w2 neg d w3 w2 neg d w3 w2 d cl s} def
/m28 {mp x w2 sub y w2 sub w3 add m w3 0 d  0 w3 neg d w3 0 d 0 w3 d w3 0 d  0 w3 d w3 neg 0 d 0 w3 d w3 neg 0 d 0 w3 neg d w3 neg 0 d cl s } def
/m29 {mp gsave x w2 sub y w2 add w3 sub m currentpoint t 4 {side} repeat cl fill gr} def
/m30 {mp gsave x w2 sub y w2 add w3 sub m currentpoint t 4 {side} repeat cl s gr} def
/m31 {mp x y w2 sub m 0 w d x w2 sub y m w 0 d x w2 sub y w2 add m w w neg d x w2 sub y w2 sub m w w d s} def
/m32 {mp x y w2 sub m w2 w d w neg 0 d cl s} def
/m33 {mp x y w2 add m w3 neg w2 neg d w3 w2 neg d w3 w2 d cl f} def
/m34 {mp x w2 sub y w2 sub w3 add m w3 0 d  0 w3 neg d w3 0 d 0 w3 d w3 0 d  0 w3 d w3 neg 0 d 0 w3 d w3 neg 0 d 0 w3 neg d w3 neg 0 d cl f } def
/m2 {mp x y w2 sub m 0 w d x w2 sub y m w 0 d s} def
/m5 {mp x w2 sub y w2 sub m w w d x w2 sub y w2 add m w w neg d s} def
/reEncode {exch findfont dup length dict begin {1 index /FID eq  {pop pop} {def} ifelse } forall /Encoding exch def currentdict end dup /FontName get exch definefont pop } def [/Times-Bold /Times-Italic /Times-BoldItalic /Helvetica /Helvetica-Oblique
 /Helvetica-Bold /Helvetica-BoldOblique /Courier /Courier-Oblique /Courier-Bold /Courier-BoldOblique /Times-Roman /AvantGarde-Book /AvantGarde-BookOblique /AvantGarde-Demi /AvantGarde-DemiOblique /Bookman-Demi /Bookman-DemiItalic /Bookman-Light
 /Bookman-LightItalic /Helvetica-Narrow /Helvetica-Narrow-Bold /Helvetica-Narrow-BoldOblique /Helvetica-Narrow-Oblique /NewCenturySchlbk-Roman /NewCenturySchlbk-Bold /NewCenturySchlbk-BoldItalic /NewCenturySchlbk-Italic /Palatino-Bold
 /Palatino-BoldItalic /Palatino-Italic /Palatino-Roman ] {ISOLatin1Encoding reEncode } forall
%%EndProlog
%%BeginSetup
%%EndSetup
newpath  gsave  .25 .25 scale  gsave  0 0 t black[  ] 0 sd 3 lw 1 1 1 c 2268 1171 0 0 bf black 1 1 1 c 1814 936 227 117 bf black 1814 936 227 117 bl 1 1 1 c 1814 936 227 117 bf black 1814 936 227 117 bl 0 0 0.6 c 1 1 1 c black 0 0 0.6 c 227 171 m 3 Y
 -11 Y 10 Y -5 Y 9 Y 1 X -5 Y 5 Y -7 Y 1 Y -2 Y 11 Y -8 Y 6 Y -3 Y 2 Y -4 Y 6 Y -6 Y 2 Y 1 X -2 Y 5 Y -3 Y 2 Y -16 Y 20 Y -15 Y 8 Y -5 Y 10 Y -11 Y 4 Y -3 Y 4 Y -3 Y 10 Y 1 X -9 Y 8 Y -12 Y 10 Y -7 Y 6 Y -1 Y 4 Y -13 Y 11 Y -12 Y 9 Y 1 X 6 Y -14 Y 14
 Y -16 Y 12 Y -2 Y 1 Y -1 Y 2 Y -9 Y 14 Y -13 Y 4 Y 1 X -3 Y 7 Y -1 Y 1 Y -4 Y 4 Y -2 Y 6 Y -9 Y 3 Y -4 Y 6 Y -7 Y 1 X 10 Y -9 Y 6 Y -4 Y 5 Y -3 Y 4 Y -6 Y 6 Y -7 Y 9 Y -7 Y 1 Y 1 X -2 Y 4 Y -5 Y 3 Y -4 Y 3 Y -3 Y 6 Y -5 Y 9 Y -12 Y 8 Y -13 Y 13 Y 1
 X -7 Y 6 Y -4 Y 11 Y -10 Y 7 Y -6 Y 7 Y -8 Y 2 Y -2 Y 1 Y -2 Y 9 Y -10 Y 3 Y -3 Y 1 X -2 Y 8 Y -8 Y 13 Y -9 Y 3 Y -6 Y 7 Y -4 Y 6 Y -12 Y 10 Y 1 X -12 Y 12 Y -2 Y 2 Y -5 Y 9 Y -10 Y 8 Y -9 Y 9 Y -10 Y 6 Y -6 Y 1 X 12 Y -14 Y 13 Y -10 Y 7 Y -5 Y 5 Y
 -14 Y 14 Y -5 Y 9 Y -8 Y 3 Y 1 X 2 Y -1 Y 1 Y -7 Y 5 Y -8 Y 8 Y -3 Y 2 Y -12 Y 16 Y -5 Y 1 X 3 Y -12 Y 11 Y -6 Y 10 Y -9 Y 10 Y -10 Y 6 Y -8 Y 6 Y 1 X -3 Y 9 Y -6 Y 4 Y -3 Y 2 Y -8 Y 7 Y -9 Y 9 Y -10 Y 10 Y -2 Y 1 X 3 Y -5 Y 4 Y -4 Y 1 Y -1 Y 8 Y
 -12 Y 8 Y -4 Y 5 Y -7 Y 8 Y -2 Y 1 X -4 Y 4 Y -5 Y 2 Y -9 Y 10 Y -5 Y 7 Y -1 Y 2 Y -8 Y 8 Y -8 Y 7 Y 1 X 6 Y -10 Y 5 Y -4 Y 7 Y -5 Y 7 Y -14 Y 12 Y -4 Y 2 Y 1 X -10 Y 8 Y -3 Y 3 Y -9 Y 10 Y -4 Y 6 Y -14 Y 15 Y -10 Y 6 Y -7 Y 14 Y -7 Y 1 X -4 Y 6 Y
 -7 Y 5 Y -6 Y 8 Y -5 Y 5 Y -2 Y 4 Y -8 Y 8 Y -12 Y 10 Y 1 X -5 Y 4 Y -1 Y 3 Y -7 Y 4 Y -5 Y 2 Y -5 Y 10 Y -13 Y 11 Y -6 Y 9 Y -3 Y 1 X 3 Y -11 Y 8 Y -4 Y 9 Y -9 Y 4 Y -4 Y 9 Y -10 Y 5 Y -1 Y 1 X 1 Y -5 Y 6 Y -9 Y 8 Y -8 Y 7 Y -4 Y 9 Y -8 Y 7 Y -4 Y
 4 Y 1 X -10 Y 6 Y -4 Y 5 Y -2 Y 6 Y -8 Y 5 Y -7 Y 7 Y -10 Y 1 X 9 Y -5 Y 5 Y -6 Y 5 Y -3 Y 5 Y -6 Y 9 Y -12 Y 12 Y -8 Y 12 Y -12 Y 3 Y 1 X 3 Y -3 Y 5 Y -5 Y 7 Y -14 Y 15 Y -9 Y 12 Y -16 Y 5 Y -4 Y 5 Y -7 Y 10 Y -3 Y 1 X -8 Y 4 Y -3 Y 10 Y -8 Y 6 Y
 -2 Y 1 Y -8 Y 3 Y 1 X 6 Y -9 Y 12 Y -12 Y 12 Y -14 Y 13 Y -7 Y 4 Y -6 Y 8 Y 1 X 10 Y -15 Y 3 Y -4 Y 4 Y -7 Y 5 Y -7 Y 16 Y -12 Y 4 Y -2 Y 3 Y -4 Y 5 Y 1 X 1 Y -3 Y 8 Y -6 Y 5 Y -6 Y 3 Y -7 Y 8 Y -9 Y 7 Y -3 Y 9 Y 1 X -14 Y 7 Y -4 Y 4 Y -4 Y 7 Y -9 Y
 4 Y -7 Y 4 Y -1 Y 3 Y 1 X 7 Y -11 Y 2 Y -6 Y 10 Y -10 Y 10 Y -8 Y 4 Y -1 Y 9 Y -13 Y 10 Y 1 X -3 Y 1 Y -3 Y 2 Y -3 Y 2 Y -1 Y 3 Y -3 Y 4 Y -5 Y 5 Y -1 Y 2 Y -8 Y 1 X 12 Y -6 Y 3 Y -11 Y 10 Y -9 Y 5 Y -8 Y 7 Y -1 Y 5 Y -8 Y 7 Y -4 Y 1 X 11 Y -7 Y 2 Y
 -7 Y 7 Y -3 Y 6 Y -7 Y 2 Y -4 Y 6 Y -5 Y 7 Y -5 Y 2 Y 1 X 2 Y -10 Y 9 Y -5 Y 9 Y -7 Y 4 Y -6 Y 3 Y -8 Y 6 Y -3 Y 9 Y 1 X -10 Y 7 Y -7 Y 18 Y -16 Y 5 Y -7 Y 9 Y -8 Y 8 Y -1 Y 2 Y 1 X -14 Y 11 Y -8 Y 5 Y -1 Y 4 Y -5 Y 2 Y -3 Y 5 Y -5 Y 5 Y -5 Y 6 Y -1
 Y 4 Y 1 X -8 Y 7 Y -11 Y 12 Y -10 Y 7 Y -3 Y 8 Y -5 Y 3 Y -6 Y 3 Y -4 Y 1 X 8 Y -5 Y 1 Y -4 Y 6 Y -5 Y 9 Y -10 Y 10 Y -8 Y 3 Y -9 Y 5 Y -1 Y 1 X 3 Y -7 Y 5 Y -1 Y 4 Y -8 Y 10 Y -8 Y 10 Y -10 Y 6 Y -1 Y 1 Y -2 Y 2 Y -6 Y 1 X 3 Y -2 Y 11 Y -15 Y 9 Y
 -3 Y 5 Y -10 Y 8 Y -7 Y 7 Y -8 Y 1 X 12 Y -4 Y 8 Y -12 Y 7 Y -5 Y 4 Y -7 Y 3 Y -6 Y 7 Y -7 Y 7 Y -2 Y 3 Y 1 X -8 Y 11 Y -7 Y 8 Y -12 Y 8 Y -12 Y 12 Y -4 Y 4 Y -7 Y 10 Y -9 Y 1 X 10 Y -6 Y 4 Y -6 Y 1 Y -3 Y 2 Y -3 Y 8 Y -2 Y 4 Y -10 Y 5 Y -1 Y 1 X -1
 Y 11 Y -15 Y 7 Y -3 Y 3 Y -4 Y 4 Y -6 Y 7 Y -4 Y 4 Y -5 Y 2 Y 1 X 3 Y -4 Y 1 Y -4 Y 3 Y -4 Y 4 Y -3 Y 7 Y -4 Y 4 Y -4 Y 5 Y -3 Y 6 Y -8 Y 8 Y 1 X -4 Y 1 Y -4 Y 3 Y -10 Y 11 Y -1 Y 5 Y -6 Y 5 Y -6 Y 6 Y -8 Y 7 Y -5 Y 1 X 10 Y -14 Y 8 Y -4 Y 1 Y -3 Y
 5 Y -2 Y 6 Y -9 Y 3 Y -2 Y 1 X 9 Y -9 Y 2 Y -5 Y 9 Y -10 Y 12 Y -10 Y 10 Y -13 Y 8 Y -3 Y 1 X -1 Y 4 Y -12 Y 14 Y -2 Y 3 Y -10 Y 12 Y -12 Y 8 Y -5 Y 1 Y -5 Y 7 Y 1 X 1 Y -4 Y 4 Y -2 Y 6 Y -12 Y 11 Y -5 Y 1 Y -4 Y 8 Y -12 Y 9 Y -1 Y 1 X 3 Y -9 Y 8 Y
 -2 Y 4 Y -6 Y 3 Y -7 Y 10 Y -14 Y 1 X 7 Y -3 Y 3 Y -4 Y 9 Y -12 Y 19 Y -12 Y 5 Y -6 Y 1 X 9 Y -7 Y 4 Y -5 Y 9 Y -13 Y 10 Y -12 Y 12 Y -6 Y 5 Y -6 Y 5 Y -6 Y 7 Y 1 X -11 Y 14 Y -16 Y 16 Y -10 Y 9 Y -9 Y 6 Y -8 Y 13 Y -10 Y 8 Y 1 X -11 Y 9 Y -8 Y 7 Y
 -4 Y 5 Y -6 Y 3 Y -2 Y 7 Y -7 Y 7 Y -9 Y 2 Y -4 Y 1 X 4 Y -6 Y 12 Y -8 Y 4 Y -3 Y 2 Y -3 Y 3 Y -1 Y 7 Y -15 Y 16 Y -2 Y 1 X -7 Y 5 Y -5 Y 4 Y -7 Y 6 Y -6 Y 6 Y -6 Y 9 Y -10 Y 1 Y 1 X 8 Y -3 Y 1 Y -1 Y 5 Y -7 Y 8 Y -6 Y 3 Y -8 Y 10 Y -3 Y 2 Y -3 Y 1
 X -1 Y 4 Y -6 Y 5 Y -16 Y 21 Y -5 Y 6 Y -11 Y 2 Y -4 Y 6 Y -6 Y 1 X -1 Y 8 Y -8 Y 10 Y -7 Y 2 Y -1 Y 10 Y -11 Y 8 Y -15 Y 2 Y 1 X 5 Y -3 Y 10 Y -5 Y 3 Y -8 Y 7 Y -3 Y 6 Y -6 Y 2 Y -2 Y 4 Y -9 Y 6 Y -4 Y 1 X 10 Y -11 Y 8 Y -8 Y 7 Y -7 Y 9 Y -9 Y 11 Y
 -8 Y 5 Y -4 Y 2 Y -6 Y 2 Y 1 X 9 Y -7 Y 5 Y -1 Y 4 Y -12 Y 9 Y -3 Y 2 Y -6 Y 5 Y -4 Y 5 Y -9 Y 5 Y 1 X 4 Y -6 Y 8 Y -7 Y 9 Y -10 Y 7 Y -5 Y 4 Y -9 Y 7 Y -3 Y 5 Y -3 Y 1 X 3 Y -4 Y 5 Y -6 Y 5 Y -6 Y 3 Y -6 Y 13 Y -10 Y 3 Y -5 Y 7 Y -5 Y 8 Y -7 Y 1 X
 -1 Y 7 Y -6 Y 5 Y -8 Y 7 Y -10 Y 14 Y -7 Y 7 Y -7 Y 1 Y -6 Y 5 Y 1 X -2 Y 6 Y -10 Y 6 Y -1 Y 12 Y -11 Y 2 Y -6 Y 5 Y -4 Y 3 Y -2 Y 5 Y -7 Y 7 Y 1 X -11 Y 7 Y -1 Y 5 Y -2 Y 5 Y -8 Y 11 Y -9 Y 4 Y -7 Y 11 Y -8 Y 8 Y -8 Y 1 X 7 Y -10 Y 4 Y -1 Y 4 Y -6
 Y 10 Y -4 Y 1 Y -1 Y 1 Y -8 Y 1 X 7 Y -4 Y 7 Y -6 Y 3 Y -4 Y 2 Y -3 Y 4 Y -3 Y 1 Y -5 Y 4 Y 1 X -4 Y 7 Y -4 Y 6 Y -9 Y 9 Y -9 Y 8 Y -8 Y 6 Y 1 X -7 Y 9 Y -5 Y 4 Y -1 Y 2 Y -6 Y 9 Y -10 Y 3 Y -2 Y 6 Y 1 X -12 Y 12 Y -9 Y 9 Y -6 Y 8 Y -6 Y 5 Y -5 Y 1
 X 4 Y -9 Y 9 Y -2 Y 6 Y -12 Y 6 Y -5 Y 7 Y -6 Y 9 Y -8 Y 3 Y -2 Y 7 Y 1 X -7 Y 2 Y -3 Y 6 Y -4 Y 7 Y -12 Y 13 Y -9 Y 4 Y -4 Y 2 Y -4 Y 5 Y -3 Y 1 X 3 Y -7 Y 11 Y -6 Y 3 Y -8 Y 9 Y -7 Y 6 Y -4 Y 1 X 5 Y -9 Y 8 Y -6 Y 6 Y -8 Y 7 Y -4 Y 1 Y -2 Y 6 Y 1
 X -9 Y 10 Y -9 Y 12 Y -15 Y 15 Y -12 Y 12 Y -6 Y 1 Y -2 Y 1 Y -4 Y 1 X 4 Y -4 Y 1 Y -3 Y 11 Y -6 Y 3 Y -5 Y 6 Y -8 Y 1 X -1 Y 8 Y -5 Y 5 Y -3 Y 3 Y -4 Y 4 Y -5 Y 6 Y -4 Y 4 Y 1 X -3 Y 2 Y -3 Y 3 Y -7 Y 7 Y -8 Y 8 Y -8 Y 8 Y -8 Y 7 Y -3 Y 1 X 1 Y -3
 Y 6 Y -7 Y 11 Y -5 Y 1 Y -8 Y 9 Y -5 Y 5 Y -8 Y 11 Y -11 Y 9 Y 1 X -3 Y 9 Y -13 Y 6 Y -8 Y 9 Y -6 Y 2 Y -7 Y 11 Y -6 Y 2 Y -2 Y 10 Y -9 Y 4 Y -6 Y 4 Y 1 X -5 Y 6 Y -6 Y 3 Y -4 Y 9 Y -10 Y 10 Y -2 Y 2 Y -13 Y 11 Y -6 Y 8 Y -1 Y 1 X -7 Y 7 Y -5 Y 3 Y
 -6 Y 9 Y -12 Y 4 Y -3 Y 10 Y -4 Y 2 Y -4 Y 6 Y -6 Y 1 X 5 Y -10 Y 9 Y -5 Y 6 Y -11 Y 7 Y -6 Y 6 Y -3 Y 7 Y -3 Y 1 X 4 Y -11 Y 10 Y -12 Y 9 Y -8 Y 11 Y -8 Y 9 Y -9 Y 8 Y -6 Y 1 X 6 Y -2 Y 8 Y -6 Y 4 Y -7 Y 6 Y -8 Y 5 Y -5 Y 4 Y -7 Y 8 Y 1 X 5 Y -9 Y
 7 Y -6 Y 3 Y -7 Y 6 Y -2 Y 3 Y -6 Y 10 Y -9 Y 4 Y 1 X -5 Y 1 Y -3 Y 8 Y -6 Y 6 Y -3 Y 4 Y -4 Y 3 Y -1 Y 5 Y -10 Y 8 Y -3 Y 1 X -5 Y 4 Y -8 Y 11 Y -10 Y 10 Y -9 Y 3 Y -3 Y 9 Y 1 X -5 Y 4 Y -8 Y 5 Y -6 Y 7 Y -3 Y 3 Y -6 Y 4 Y -3 Y 6 Y 1 X -8 Y 10 Y -4
 Y 2 Y -8 Y 9 Y -1 Y 3 Y -9 Y 9 Y -5 Y 3 Y 1 X -9 Y 5 Y -3 Y 7 Y -9 Y 9 Y -11 Y 10 Y -5 Y 4 Y -2 Y 5 Y 1 X -7 Y 7 Y -8 Y 5 Y -6 Y 7 Y -9 Y 8 Y -6 Y 9 Y 1 X -11 Y 11 Y -5 Y 3 Y -1 Y 2 Y -8 Y 7 Y -8 Y 8 Y -4 Y 6 Y -2 Y 1 Y 1 X -8 Y 7 Y -5 Y 9 Y -9 Y 5
 Y -3 Y 4 Y -6 Y 4 Y -3 Y 5 Y 1 X -8 Y 6 Y -4 Y 8 Y -15 Y 12 Y -7 Y 5 Y -2 Y 7 Y -4 Y 1 X 1 Y -3 Y 4 Y -5 Y 6 Y -9 Y 12 Y -14 Y 10 Y -7 Y 5 Y 1 X -4 Y 2 Y -4 Y 8 Y -1 Y 1 Y -6 Y 6 Y -5 Y 9 Y -12 Y 5 Y -5 Y 7 Y 1 X -7 Y 9 Y -11 Y 10 Y -8 Y 14 Y -18 Y
 15 Y -5 Y 6 Y -10 Y 1 X 6 Y -1 Y 5 Y -11 Y 9 Y -6 Y 4 Y -10 Y 16 Y -14 Y 8 Y -1 Y 2 Y -10 Y 1 X 13 Y -11 Y 11 Y -5 Y 1 Y -12 Y 15 Y -8 Y 9 Y -8 Y 2 Y 1 X -4 Y 6 Y -4 Y 7 Y -11 Y 6 Y -8 Y 8 Y -9 Y 14 Y -10 Y 7 Y 1 X -8 Y 11 Y -15 Y 11 Y -13 Y 18 Y -8
 Y 4 Y -8 Y 12 Y 1 X -10 Y 4 Y -4 Y 4 Y -5 Y 13 Y -12 Y 6 Y -4 Y 1 Y -1 Y 4 Y -5 Y 1 X 5 Y -7 Y 7 Y -4 Y 8 Y -14 Y 10 Y -6 Y 8 Y -6 Y 3 Y -9 Y 7 Y -7 Y 1 X 11 Y -11 Y 14 Y -10 Y 2 Y -1 Y 4 Y -2 Y 5 Y -8 Y 4 Y -5 Y 10 Y -7 Y 8 Y -8 Y 2 Y 1 X -4 Y 10 Y
 -5 Y 4 Y -9 Y 2 Y -1 Y 1 Y -6 Y 11 Y -6 Y 9 Y -7 Y 3 Y -4 Y 2 Y 1 X -2 Y 8 Y -12 Y 11 Y -10 Y 3 Y -4 Y 9 Y -7 Y 7 Y -11 Y 14 Y 1 X -11 Y 3 Y -4 Y 5 Y -5 Y 11 Y -13 Y 15 Y -12 Y 9 Y -4 Y 1 X 2 Y -6 Y 10 Y -8 Y 1 Y -1 Y 1 Y -5 Y 8 Y -11 Y 11 Y -4 Y 4
 Y 1 X -4 Y 5 Y -6 Y 5 Y -5 Y 4 Y -7 Y 9 Y -14 Y 11 Y -3 Y 6 Y -5 Y 2 Y -6 Y 1 X 12 Y -15 Y 10 Y -6 Y 7 Y -14 Y 14 Y -8 Y 4 Y -10 Y 9 Y 1 X -3 Y 5 Y -4 Y 7 Y -6 Y 2 Y -2 Y 5 Y -6 Y 4 Y -7 Y 4 Y -6 Y 10 Y -5 Y 10 Y 1 X -11 Y 7 Y -7 Y 12 Y -14 Y 7 Y -1
 Y 9 Y -11 Y 8 Y -6 Y 1 X -4 Y 8 Y -8 Y 8 Y -4 Y 1 Y -5 Y 9 Y -6 Y 6 Y -5 Y 7 Y -8 Y 1 X -2 Y 9 Y -5 Y 3 Y -2 Y 10 Y -10 Y 2 Y -7 Y 5 Y -2 Y 2 Y -5 Y 1 X 6 Y -7 Y 10 Y -7 Y 5 Y -6 Y 12 Y -8 Y 2 Y -5 Y 1 Y 1 X 2 Y -4 Y 10 Y -8 Y 7 Y -8 Y 8 Y -7 Y 4 Y
 -4 Y 4 Y 1 X 2 Y -7 Y 7 Y -6 Y 6 Y -6 Y 4 Y -8 Y 10 Y -10 Y 6 Y 1 X 2 Y -4 Y 4 Y -3 Y 1 Y -2 Y 8 Y -12 Y 7 Y -9 Y 10 Y -8 Y 4 Y -2 Y 1 X -2 Y 8 Y -4 Y 3 Y -4 Y 5 Y -8 Y 9 Y -4 Y 7 Y -10 Y 5 Y -6 Y 8 Y -7 Y 1 X 9 Y -11 Y 11 Y -7 Y 5 Y -12 Y 11 Y -4 Y
 5 Y -4 Y 4 Y -3 Y 1 X 4 Y -9 Y 5 Y -13 Y 11 Y -1 Y 4 Y -8 Y 13 Y -12 Y 7 Y -4 Y 5 Y 1 X -5 Y 7 Y -10 Y 7 Y -6 Y 3 Y -8 Y 16 Y -15 Y 8 Y -4 Y 10 Y -10 Y 10 Y -3 Y 1 X -3 Y 3 Y -1 Y 5 Y -2 Y 2 Y -6 Y 4 Y -5 Y 3 Y -8 Y 5 Y -4 Y 5 Y -5 Y 1 X 9 Y -6 Y 8
 Y -11 Y 6 Y -8 Y 6 Y -5 Y 12 Y -15 Y 11 Y -1 Y 1 X 4 Y -7 Y 4 Y -4 Y 4 Y -5 Y 6 Y -7 Y 7 Y -6 Y 1 Y -4 Y 3 Y -6 Y 1 X 7 Y -3 Y 6 Y -7 Y 9 Y -9 Y 4 Y -2 Y 9 Y -11 Y 4 Y 1 X 1 Y -4 Y 6 Y -2 Y 7 Y -12 Y 8 Y -4 Y 8 Y -9 Y 1 X 5 Y -8 Y 8 Y -6 Y 6 Y -4 Y
 5 Y -4 Y 4 Y -9 Y 9 Y -7 Y 8 Y -7 Y 1 Y 1 X -4 Y 15 Y -15 Y 8 Y -2 Y 2 Y -13 Y 13 Y -11 Y 15 Y -8 Y 3 Y -6 Y 7 Y 1 X -4 Y 3 Y -3 Y 8 Y -12 Y 8 Y -5 Y 4 Y -11 Y 12 Y -8 Y 12 Y 1 X -13 Y 9 Y -3 Y 3 Y -4 Y 7 Y -11 Y 11 Y -12 Y 8 Y -5 Y 5 Y 1 X -3 Y 4 Y
 -9 Y 5 Y -4 Y 6 Y -2 Y 2 Y -4 Y 1 Y -1 Y 6 Y 1 X -8 Y 8 Y -5 Y 4 Y -7 Y 4 Y -2 Y 12 Y -11 Y 10 Y -12 Y 1 X 2 Y -1 Y 5 Y -5 Y 10 Y -10 Y 4 Y -10 Y 10 Y -3 Y 5 Y -3 Y 7 Y -12 Y 1 X 4 Y -1 Y 3 Y -3 Y 4 Y -3 Y 8 Y -10 Y 5 Y -5 Y 5 Y -5 Y 8 Y -4 Y 1 X 2
 Y -1 Y 5 Y -12 Y 7 Y -8 Y 1 Y -1 Y 7 Y -6 Y 7 Y -6 Y 1 X 7 Y -6 Y 4 Y -2 Y 5 Y -6 Y 3 Y -10 Y 12 Y -4 Y 8 Y -11 Y 7 Y -8 Y 1 X 12 Y -12 Y 11 Y -6 Y 7 Y -11 Y 3 Y -5 Y 5 Y -6 Y 7 Y -2 Y 5 Y 1 X -6 Y 7 Y -9 Y 4 Y -5 Y 6 Y -5 Y 9 Y -9 Y 10 Y -8 Y 6 Y 1
 X -9 Y 10 Y -9 Y 10 Y -5 Y 4 Y -6 Y 5 Y -4 Y 4 Y -4 Y 1 Y 1 X 1 Y -5 Y 8 Y -2 Y 1 Y -5 Y 2 Y -1 Y 2 Y -2 Y 1 Y -5 Y 16 Y -14 Y 5 Y 1 X -8 Y 9 Y -7 Y 7 Y -4 Y 3 Y -9 Y 10 Y -6 Y 3 Y -5 Y 6 Y 1 X -2 Y 4 Y -6 Y 2 Y -4 Y 11 Y -4 Y 1 Y -8 Y 9 Y -5 Y 4 Y
 -9 Y 3 Y 1 X -1 Y 7 Y -4 Y 1 Y -2 Y 6 Y -6 Y 3 Y -2 Y 3 Y -8 Y 1 X 13 Y -12 Y 9 Y -11 Y 6 Y -1 Y 3 Y -3 Y 7 Y -5 Y 9 Y 1 X -11 Y 4 Y -2 Y 7 Y -14 Y 10 Y -11 Y 15 Y -7 Y 3 Y -2 Y 2 Y -9 Y 5 Y 1 X 9 Y -16 Y 15 Y -10 Y 6 Y -3 Y 1 Y -2 Y 3 Y -6 Y 2 Y -2
 Y 8 Y -16 Y 13 Y 1 X -5 Y 8 Y -5 Y 5 Y -9 Y 9 Y -5 Y 3 Y -2 Y 1 Y 1 X -6 Y 8 Y -4 Y 6 Y -4 Y 5 Y -6 Y 7 Y -9 Y 3 Y -3 Y 7 Y -1 Y 1 X -10 Y 9 Y -5 Y 7 Y -10 Y 12 Y -7 Y 6 Y -5 Y 5 Y -9 Y 6 Y 1 X -1 Y 9 Y -11 Y 7 Y -7 Y 3 Y -8 Y 5 Y -3 Y 2 Y -2 Y 4 Y
 -9 Y 11 Y -7 Y 3 Y 1 X -8 Y 16 Y -4 Y 5 Y -5 Y 1 Y -5 Y 5 Y -4 Y 3 Y -6 Y 2 Y -4 Y 1 X 3 Y -4 Y 11 Y -5 Y 7 Y -6 Y 7 Y -8 Y 9 Y 1 X -4 Y 1 Y -8 Y 2 Y -3 Y 3 Y -3 Y 6 Y -8 Y 2 Y -3 Y 11 Y -10 Y 12 Y -9 Y 3 Y 1 X -3 Y 13 Y -20 Y 14 Y -6 Y 5 Y -5 Y 4 Y
 -4 Y 7 Y -7 Y 4 Y 1 X -7 Y 11 Y -7 Y 5 Y -5 Y 1 Y -3 Y 7 Y -7 Y 2 Y -1 Y 4 Y -6 Y 1 X 6 Y -2 Y 3 Y -10 Y 9 Y -5 Y 2 Y -1 Y 4 Y -4 Y 5 Y -8 Y 9 Y -5 Y 5 Y 1 X -7 Y 6 Y -5 Y 5 Y -7 Y 2 Y -1 Y 6 Y -3 Y 5 Y -10 Y 2 Y -2 Y 7 Y 1 X 1 Y -5 Y 6 Y -9 Y 11 Y
 -16 Y 12 Y -7 Y 8 Y -2 Y 1 Y -3 Y 8 Y -10 Y 6 Y -10 Y 1 X 12 Y -10 Y 11 Y -4 Y 2 Y -7 Y 10 Y -16 Y 13 Y -7 Y 5 Y -6 Y 6 Y -11 Y 1 X 18 Y -9 Y 2 Y -5 Y 8 Y -5 Y 3 Y -2 Y 4 Y -14 Y 13 Y -6 Y 4 Y -4 Y 10 Y -12 Y 1 X 5 Y -3 Y 4 Y -6 Y 6 Y -7 Y 5 Y -6 Y
 6 Y -4 Y 3 Y -5 Y 12 Y -5 Y 1 X -3 Y 7 Y -12 Y 7 Y -2 Y 8 Y -12 Y 5 Y -5 Y 9 Y -8 Y 1 X 7 Y -4 Y 1 Y -2 Y 5 Y -5 Y 2 Y -7 Y 12 Y -7 Y 1 X 4 Y -5 Y 7 Y -7 Y 5 Y -5 Y 12 Y -12 Y 12 Y -12 Y 6 Y -2 Y 2 Y 1 X 8 Y -8 Y 2 Y -10 Y 4 Y -1 Y 3 Y -6 Y 10 Y -6
 Y 1 Y -2 Y 3 Y -2 Y 5 Y 1 X -9 Y 8 Y -2 Y 2 Y -5 Y 1 Y -2 Y 5 Y -5 Y 6 Y -10 Y 14 Y 1 X -4 Y 5 Y -13 Y 5 Y -4 Y 6 Y -4 Y 9 Y -6 Y 1 Y -1 Y 1 X -2 Y 3 Y -2 Y 4 Y -8 Y 9 Y -4 Y 3 Y -8 Y 12 Y -13 Y 14 Y -15 Y 5 Y 1 X 3 Y -7 Y 12 Y -15 Y 7 Y -4 Y 8 Y -7
 Y 9 Y -10 Y 8 Y -8 Y 5 Y 1 X 3 Y -8 Y 7 Y -1 Y 4 Y -7 Y 8 Y -5 Y 6 Y -6 Y 3 Y 1 X -13 Y 14 Y -2 Y 1 Y -6 Y 9 Y -8 Y 8 Y -4 Y 3 Y -7 Y 4 Y -4 Y 4 Y -3 Y 2 Y 1 X -11 Y 9 Y -3 Y 1 Y -5 Y 7 Y -4 Y 6 Y -2 Y 6 Y -11 Y 9 Y -9 Y 1 X 12 Y -8 Y 8 Y -12 Y 5 Y
 -5 Y 8 Y -3 Y 6 Y -8 Y 2 Y -4 Y 3 Y -2 Y 3 Y 1 X 3 Y -6 Y 10 Y -6 Y 5 Y -7 Y 3 Y -6 Y 5 Y -6 Y 10 Y -7 Y 1 X 5 Y -3 Y 3 Y -4 Y 7 Y -6 Y 5 Y -10 Y 9 Y -5 Y 4 Y -6 Y 6 Y -2 Y 1 X -4 Y 8 Y -10 Y 11 Y -7 Y 7 Y -6 Y 4 Y -9 Y 8 Y -8 Y 12 Y -14 Y 1 X 6 Y
 -6 Y 9 Y -10 Y 14 Y -7 Y 9 Y -7 Y 3 Y -8 Y 7 Y -4 Y 1 X -6 Y 12 Y -11 Y 11 Y -3 Y 4 Y -11 Y 13 Y -9 Y 8 Y -7 Y 4 Y 1 X -2 Y 4 Y -7 Y 7 Y -8 Y 10 Y -16 Y 5 Y -2 Y 8 Y -2 Y 5 Y -15 Y 8 Y 1 X -1 Y 4 Y -7 Y 8 Y -5 Y 9 Y -13 Y 7 Y -1 Y 1 X 3 Y -6 Y 6 Y
 -3 Y 3 Y -9 Y 7 Y -7 Y 9 Y -4 Y 4 Y -1 Y 4 Y 1 X -6 Y 4 Y -7 Y 2 Y -4 Y 4 Y -1 Y 7 Y -6 Y 6 Y -10 Y 6 Y -6 Y 4 Y -1 Y 3 Y -4 Y 3 Y 1 X 11 Y -16 Y 11 Y -7 Y 6 Y -5 Y 10 Y -12 Y 5 Y -7 Y 3 Y -1 Y 1 X 6 Y -8 Y 3 Y -2 Y 4 Y -5 Y 11 Y -10 Y 6 Y -5 Y 6 Y
 -7 Y 1 X 14 Y -8 Y 1 Y -5 Y 6 Y -2 Y 1 Y -4 Y 9 Y -18 Y 10 Y -6 Y 8 Y -4 Y 1 Y 1 X 3 Y -4 Y 4 Y -3 Y 1 Y -2 Y 7 Y -2 Y 3 Y -9 Y 7 Y -4 Y 3 Y -2 Y 1 Y -5 Y 6 Y -1 Y 1 X -8 Y 6 Y -2 Y 3 Y -4 Y 5 Y -9 Y 9 Y -4 Y 8 Y -13 Y 5 Y -1 Y 1 X -3 Y 3 Y -3 Y 5 Y
 -5 Y 7 Y -7 Y 3 Y -5 Y 11 Y -4 Y 4 Y -6 Y 9 Y -14 Y 1 X 14 Y -8 Y 4 Y -3 Y 3 Y -7 Y 4 Y -4 Y 7 Y -4 Y 6 Y -3 Y 6 Y -7 Y 3 Y 1 X 1 Y -10 Y 8 Y -3 Y 3 Y -8 Y 10 Y -8 Y 10 Y -11 Y 7 Y 1 X -3 Y 3 Y -6 Y 12 Y -8 Y 2 Y -7 Y 15 Y -14 Y 7 Y -10 Y 13 Y -9 Y
 2 Y 1 X -6 Y 10 Y -5 Y 4 Y -2 Y 4 Y -5 Y 7 Y -9 Y 7 Y -6 Y 9 Y 1 X -11 Y 7 Y -5 Y 5 Y -2 Y 5 Y -9 Y 2 Y -5 Y 12 Y -5 Y 1 X -6 Y 8 Y -5 Y 1 Y -1 Y 5 Y -5 Y 2 Y -3 Y 7 Y -10 Y 4 Y 1 X 5 Y -7 Y 10 Y -11 Y 7 Y -1 Y 4 Y -9 Y 6 Y -12 Y 15 Y -11 Y 1 Y 1 X
 11 Y -8 Y 10 Y -14 Y 12 Y -10 Y 10 Y -5 Y 5 Y -8 Y 2 Y 1 X 4 Y -6 Y 1 Y -1 Y 7 Y -2 Y 1 Y -8 Y 6 Y -6 Y 2 Y -4 Y 11 Y -6 Y 1 X 1 Y -8 Y 8 Y -6 Y 8 Y -4 Y 7 Y -7 Y 2 Y -3 Y 7 Y -7 Y 3 Y 1 X -2 Y 4 Y -7 Y 11 Y -6 Y 6 Y -8 Y 4 Y -3 Y 6 Y -7 Y 1 X 4 Y
 -2 Y 6 Y -9 Y 9 Y -5 Y 5 Y -10 Y 8 Y -5 Y 1 X -7 Y 6 Y -4 Y 10 Y -7 Y 3 Y -2 Y 8 Y -8 Y 4 Y -7 Y 5 Y 1 X 4 Y -10 Y 9 Y -9 Y 11 Y -11 Y 8 Y -9 Y 8 Y -6 Y 9 Y -4 Y 2 Y 1 X -6 Y 3 Y -3 Y 3 Y -2 Y 3 Y -2 Y 4 Y -7 Y 7 Y -1 Y 1 Y -5 Y 3 Y -10 Y 7 Y 1 X 3
 Y -9 Y 6 Y -3 Y 8 Y -4 Y 1 Y -5 Y 11 Y -7 Y 5 Y -8 Y 3 Y 1 X 3 Y -5 Y 7 Y -4 Y 4 Y -5 Y 3 Y -3 Y 2 Y -4 Y 6 Y -8 Y 4 Y -1 Y 7 Y 1 X -12 Y 10 Y -11 Y 11 Y -6 Y 5 Y -4 Y 8 Y -7 Y 5 Y -4 Y 2 Y 1 X 1 Y -8 Y 8 Y -5 Y 5 Y -1 Y 1 Y -4 Y 5 Y -11 Y 14 Y -9 Y
 4 Y 1 X -1 Y 1 Y -6 Y 12 Y -11 Y 1 Y -3 Y 8 Y -5 Y 9 Y -12 Y 8 Y -1 Y 4 Y -3 Y 1 X 2 Y -4 Y 4 Y -5 Y 3 Y -10 Y 8 Y -3 Y 9 Y -10 Y 12 Y -10 Y 1 X 5 Y -7 Y 9 Y -9 Y 13 Y -7 Y 1 Y -1 Y 1 Y -6 Y 5 Y -13 Y 11 Y 1 X -4 Y 6 Y -12 Y 9 Y -6 Y 7 Y -3 Y 5 Y -4
 Y 4 Y -3 Y 4 Y -5 Y 1 X -7 Y 11 Y -8 Y 6 Y -5 Y 7 Y -7 Y 4 Y -8 Y 11 Y -8 Y 6 Y -4 Y 1 X 1 Y -1 Y 6 Y -6 Y 3 Y -9 Y 12 Y -1 Y 2 Y -5 Y 5 Y -7 Y 3 Y -5 Y 3 Y -3 Y 1 X 5 Y -1 Y 5 Y -5 Y 4 Y -6 Y 2 Y -4 Y 5 Y -1 Y 7 Y -3 Y 1 Y 1 X -1 Y 2 Y -8 Y 3 Y -8
 Y 7 Y -1 Y 7 Y -2 Y 1 Y -10 Y 5 Y 1 X -1 Y 9 Y -8 Y 1 Y -5 Y 8 Y -8 Y 8 Y -4 Y 11 Y -19 Y 11 Y -5 Y 6 Y -8 Y 4 Y 1 X -4 Y 10 Y -6 Y 2 Y -2 Y 11 Y -9 Y 7 Y -10 Y 4 Y -3 Y 5 Y -2 Y 1 X 1 Y -6 Y 8 Y -6 Y 4 Y -8 Y 11 Y -10 Y 7 Y -8 Y 8 Y -2 Y 2 Y -4 Y 1
 X 7 Y -9 Y 4 Y -4 Y 8 Y -11 Y 9 Y -10 Y 8 Y -5 Y 4 Y 1 X 8 Y -8 Y 4 Y -4 Y 5 Y -5 Y 7 Y -8 Y 4 Y -7 Y 7 Y 1 X -4 Y 2 Y -5 Y 8 Y -10 Y 9 Y -6 Y 4 Y -4 Y 2 Y 1 X 4 Y -6 Y 4 Y -7 Y 7 Y -5 Y 4 Y -2 Y 1 Y -4 Y 10 Y -6 Y 5 Y -7 Y 1 X 3 Y -1 Y 9 Y -14 Y 10
 Y -6 Y 9 Y -6 Y 6 Y -8 Y 12 Y -11 Y 1 X 1 Y -2 Y 4 Y -4 Y 8 Y -10 Y 6 Y -6 Y 6 Y -7 Y 3 Y -3 Y 7 Y -8 Y 4 Y 1 X -4 Y 7 Y -7 Y 9 Y -9 Y 14 Y -14 Y 7 Y -3 Y 6 Y -9 Y 6 Y -4 Y 1 X -2 Y 7 Y -7 Y 9 Y -6 Y 4 Y -3 Y 3 Y -6 Y 9 Y -9 Y 7 Y 1 X 1 Y -6 Y 4 Y
 -6 Y 9 Y -9 Y 4 Y -6 Y 12 Y -10 Y 11 Y -9 Y 1 X 4 Y -6 Y 9 Y -5 Y 5 Y -9 Y 6 Y -3 Y 3 Y -1 Y 4 Y -8 Y 7 Y -1 Y 1 X -9 Y 8 Y -8 Y 8 Y -8 Y 11 Y -4 Y 4 Y -3 Y 4 Y -15 Y 1 X 12 Y -11 Y 9 Y -9 Y 11 Y -4 Y 4 Y -2 Y 2 Y -2 Y 2 Y -3 Y 7 Y 1 X -6 Y 1 Y -9 Y
 6 Y -4 Y 9 Y -11 Y 5 Y -1 Y 3 Y -1 Y 4 Y -3 Y 1 X 2 Y -4 Y 8 Y -3 Y 3 Y -8 Y 4 Y -6 Y 10 Y -12 Y 9 Y -5 Y 7 Y 1 X -10 Y 4 Y -5 Y 14 Y -12 Y 6 Y -10 Y 13 Y -6 Y 2 Y -4 Y 5 Y 1 X -4 Y 5 Y -7 Y 5 Y -7 Y 12 Y -6 Y 3 Y -10 Y 9 Y -10 Y 7 Y 1 X 7 Y -9 Y 12
 Y -15 Y 9 Y -5 Y 4 Y -4 Y 6 Y -13 Y 9 Y -2 Y 1 X 4 Y -6 Y 3 Y -7 Y 10 Y -5 Y 8 Y -8 Y 3 Y 1 X -2 Y 2 Y -6 Y 8 Y -5 Y 3 Y -1 Y 2 Y -1 Y 3 Y -7 Y 4 Y -2 Y 1 X 11 Y -10 Y 4 Y -11 Y 10 Y -4 Y 4 Y -4 Y 4 Y -3 Y 2 Y 1 X -6 Y 9 Y -13 Y 15 Y -7 Y 9 Y -6 Y 4
 Y -7 Y 5 Y -4 Y 1 X -1 Y 5 Y -6 Y 3 Y -3 Y 3 Y -1 Y 10 Y -13 Y 2 Y -3 Y 9 Y -1 Y 4 Y 1 X -9 Y 3 Y -3 Y 6 Y -9 Y 9 Y -4 Y 1 Y -6 Y 10 Y -2 Y 1 X 2 Y -9 Y 6 Y -8 Y 9 Y -3 Y 1 Y -1 Y 2 Y -8 Y 7 Y -5 Y 1 X 6 Y -5 Y 6 Y -1 Y 2 Y -5 Y 10 Y -13 Y 8 Y -8 Y
 8 Y -10 Y 11 Y -3 Y 1 X -5 Y 10 Y -15 Y 13 Y -12 Y 8 Y -7 Y 7 Y -8 Y 6 Y -3 Y 5 Y -3 Y 3 Y 1 X -5 Y 5 Y -4 Y 5 Y -6 Y 6 Y -6 Y 6 Y -11 Y 14 Y -7 Y 3 Y -2 Y 4 Y 1 X 1 Y -1 Y 2 Y -3 Y 2 Y -5 Y 1 Y -6 Y 10 Y -6 Y 6 Y -13 Y 8 Y -1 Y 4 Y 1 X -9 Y 4 Y -4
 Y 4 Y -6 Y 8 Y -6 Y 4 Y -4 Y 8 Y -4 Y 5 Y -9 Y 1 X 8 Y -8 Y 9 Y -9 Y 9 Y -4 Y 4 Y -3 Y 2 Y -3 Y 1 Y -6 Y 4 Y 1 X 3 Y -11 Y 8 Y -1 Y 3 Y -5 Y 5 Y -3 Y 6 Y -4 Y 2 Y -1 Y 3 Y -4 Y 5 Y -5 Y 1 X 5 Y -4 Y 4 Y -3 Y 1 Y -9 Y 7 Y -1 Y 10 Y -14 Y 6 Y -6 Y 8 Y
 -7 Y 4 Y 1 X -6 Y 3 Y -1 Y 6 Y -10 Y 9 Y -6 Y 4 Y -3 Y 6 Y -4 Y 5 Y -10 Y 9 Y -1 Y 1 X 1 Y -4 Y 6 Y -8 Y 3 Y -1 Y 12 Y -12 Y 4 Y 1 X 4 Y -9 Y 11 Y -8 Y 7 Y -13 Y 7 Y -3 Y 7 Y -8 Y 7 Y -10 Y 7 Y 1 X 1 Y -4 Y 7 Y -6 Y 1 Y -1 Y 9 Y -18 Y 16 Y -7 Y 3 Y
 -4 Y 3 Y -8 Y 9 Y 1 X -6 Y 7 Y -4 Y 2 Y -5 Y 9 Y -18 Y 9 Y -2 Y 7 Y -5 Y 10 Y -9 Y 5 Y -7 Y 6 Y 1 X -2 Y 4 Y -7 Y 6 Y -5 Y 5 Y -9 Y 12 Y -7 Y 5 Y -9 Y 13 Y 1 X -10 Y 7 Y -6 Y 3 Y -11 Y 7 Y -3 Y 12 Y -13 Y 8 Y 1 X -6 Y 7 Y -10 Y 10 Y -4 Y 4 Y -8 Y 11
 Y -13 Y 3 Y 1 X -3 Y 10 Y -8 Y 13 Y -8 Y 5 Y -8 Y 6 Y -9 Y 10 Y -5 Y 1 X 1 Y -4 Y 9 Y -6 Y 5 Y -7 Y 6 Y -7 Y 6 Y -11 Y 7 Y 1 X 4 Y -4 Y 4 Y -7 Y 5 Y -7 Y 6 Y -2 Y 8 Y -1 Y 1 Y -10 Y 9 Y -2 Y 1 X -6 Y 7 Y -1 Y 3 Y -7 Y 9 Y -8 Y 8 Y -9 Y 6 Y -5 Y 7 Y
 -10 Y 1 X 5 Y -6 Y 9 Y -8 Y 8 Y -7 Y 5 Y -11 Y 12 Y -8 Y 8 Y -2 Y 2 Y -8 Y 6 Y 1 X -2 Y 3 Y -5 Y 6 Y -5 Y 7 Y -4 Y 4 Y -6 Y 3 Y -5 Y 2 Y -3 Y 7 Y -4 Y 1 X 4 Y -3 Y 7 Y -8 Y 7 Y -7 Y 4 Y -5 Y 3 Y -6 Y 6 Y 1 X -2 Y 5 Y -10 Y 6 Y -5 Y 6 Y -8 Y 13 Y -8
 Y 1 Y -2 Y 3 Y 1 X -3 Y 6 Y -4 Y 4 Y -8 Y 4 Y -3 Y 5 Y -4 Y 7 Y -7 Y 5 Y -1 Y 8 Y 1 X -10 Y 10 Y -12 Y 6 Y -2 Y 9 Y -7 Y 1 Y -10 Y 9 Y -3 Y 8 Y -13 Y 8 Y -6 Y 2 Y 1 X 4 Y -4 Y 9 Y -8 Y 3 Y -6 Y 9 Y -9 Y 2 Y -9 Y 13 Y -8 Y 1 Y 1 X -1 Y 4 Y -1 Y 9 Y
 -8 Y 4 Y -4 Y 8 Y -9 Y 3 Y -10 Y 8 Y -2 Y 6 Y 1 X -8 Y 10 Y -5 Y 8 Y -6 Y 5 Y -2 Y 2 Y -10 Y 6 Y -8 Y 4 Y 1 X 5 Y -4 Y 7 Y -9 Y 4 Y -3 Y 8 Y -9 Y 4 Y -3 Y 2 Y -4 Y 9 Y -10 Y 3 Y 1 X -5 Y 12 Y -9 Y 11 Y -13 Y 10 Y -4 Y 4 Y -7 Y 7 Y -2 Y 1 X -4 Y 10 Y
 -7 Y 3 Y -2 Y 1 Y -6 Y 5 Y -10 Y 9 Y -3 Y 2 Y -2 Y 1 X 8 Y -8 Y 5 Y -7 Y 10 Y -6 Y 2 Y -4 Y 8 Y -6 Y 3 Y -8 Y 4 Y -5 Y 8 Y 1 X -5 Y 3 Y -6 Y 12 Y -10 Y 5 Y -3 Y 3 Y -4 Y 5 Y -4 Y 8 Y -2 Y 1 X -9 Y 7 Y -1 Y 5 Y -8 Y 7 Y -10 Y 8 Y -5 Y 4 Y -10 Y 13 Y
 -5 Y 1 X 1 Y -7 Y 1 Y -3 Y 5 Y -3 Y 8 Y -8 Y 5 Y -3 Y 1 Y -3 Y 5 Y -8 Y 11 Y -7 Y 1 X 3 Y -4 Y 9 Y -11 Y 13 Y -10 Y 6 Y -2 Y 3 Y -4 Y 6 Y -9 Y 9 Y 1 X -11 Y 10 Y -3 Y 3 Y -4 Y 3 Y -6 Y 7 Y -9 Y 14 Y -11 Y 1 X -3 Y 4 Y -9 Y 16 Y -7 Y 1 Y -5 Y 3 Y -4
 Y 9 Y -5 Y 3 Y -2 Y 8 Y -6 Y 7 Y 1 X -15 Y 13 Y -8 Y 5 Y -5 Y 7 Y -8 Y 9 Y -5 Y 3 Y -7 Y 5 Y -3 Y 2 Y 1 X 6 Y -5 Y 4 Y -11 Y 7 Y -3 Y 6 Y -5 Y 2 Y -4 Y 3 Y -2 Y 5 Y -9 Y 14 Y -14 Y 1 X 15 Y -12 Y 5 Y -8 Y 12 Y -10 Y 5 Y -7 Y 11 Y -10 Y 6 Y -3 Y 4 Y
 -8 Y 1 X 8 Y -6 Y 2 Y -1 Y 6 Y -2 Y 2 Y -5 Y 3 Y -4 Y 1 Y 1 X 5 Y -8 Y 3 Y -5 Y 10 Y -5 Y 8 Y -8 Y 10 Y -17 Y 18 Y -13 Y 6 Y 1 X -6 Y 2 Y -6 Y 14 Y -9 Y 7 Y -2 Y 1 Y -1 Y 3 Y -14 Y 6 Y 1 X -1 Y 6 Y -8 Y 14 Y -11 Y 3 Y -2 Y 6 Y -8 Y 14 Y -15 Y 8 Y -8
 Y 8 Y -2 Y 5 Y 1 X -5 Y 5 Y -8 Y 7 Y -6 Y 4 Y -6 Y 5 Y -5 Y 4 Y 1 X 5 Y -8 Y 6 Y -5 Y 5 Y -1 Y 1 Y -6 Y 4 Y -6 Y 5 Y -3 Y 6 Y -10 Y 4 Y -2 Y 1 X 9 Y -5 Y 7 Y -8 Y 7 Y -13 Y 12 Y -11 Y 8 Y -15 Y 15 Y -8 Y 10 Y 1 X -8 Y 8 Y -14 Y 9 Y -5 Y 8 Y -9 Y 7 Y
 -2 Y 1 Y -1 Y 8 Y -6 Y 1 X -7 Y 10 Y -8 Y 10 Y -8 Y 9 Y -11 Y 10 Y -4 Y 5 Y -8 Y 1 X -2 Y 5 Y -4 Y 5 Y -1 Y 1 Y -8 Y 8 Y -8 Y 10 Y -10 Y 10 Y -2 Y 1 X -4 Y 10 Y -6 Y 1 Y -2 Y 5 Y -15 Y 9 Y -2 Y 6 Y -10 Y 8 Y -7 Y 1 Y 1 X 8 Y -7 Y 9 Y -8 Y 4 Y -4 Y 9
 Y -10 Y 6 Y -7 Y 8 Y -4 Y 1 X -2 Y 6 Y -10 Y 8 Y -7 Y 11 Y -11 Y 1 X -1 Y 4 Y -3 Y 11 Y -7 Y 5 Y -3 Y 5 Y -8 Y 4 Y -5 Y 3 Y 1 X 4 Y -2 Y 4 Y -2 Y 5 Y -8 Y 2 Y -6 Y 9 Y -7 Y 5 Y -7 Y 5 Y 1 X -7 Y 7 Y -4 Y 1 Y -3 Y 2 Y -5 Y 7 Y -4 Y 6 Y -4 Y 2 Y -4 Y
 10 Y -7 Y 1 X 4 Y -3 Y 6 Y -8 Y 7 Y -7 Y 4 Y -9 Y 8 Y -4 Y 3 Y -5 Y 1 X 9 Y -9 Y 10 Y -7 Y 12 Y -12 Y 4 Y -2 Y 3 Y -9 Y 7 Y 1 X 1 Y -1 Y 3 Y -5 Y 1 Y -4 Y 8 Y -7 Y 1 Y -5 Y 9 Y -1 Y 1 Y -2 Y 1 X -6 Y 11 Y -6 Y 4 Y -8 Y 9 Y -6 Y 7 Y -6 Y 4 Y -6 Y 8 Y
 1 X -1 Y 1 Y -7 Y 3 Y -6 Y 8 Y -5 Y 4 Y -6 Y 10 Y -8 Y 3 Y -7 Y 1 X 3 Y -3 Y 14 Y -12 Y 4 Y -2 Y 3 Y -5 Y 5 Y -3 Y 2 Y -3 Y 6 Y 1 X -9 Y 11 Y -11 Y 8 Y -12 Y 16 Y -5 Y 2 Y -5 Y 8 Y -2 Y 2 Y 1 X -10 Y 10 Y -11 Y 4 Y -4 Y 11 Y -9 Y 5 Y -4 Y 10 Y -4 Y
 2 Y -5 Y 1 X -1 Y 9 Y -15 Y 3 Y -4 Y 9 Y -10 Y 12 Y -10 Y 11 Y 1 X -9 Y 7 Y -6 Y 4 Y -3 Y 4 Y -4 Y 4 Y -5 Y 5 Y -4 Y 5 Y -5 Y 4 Y -4 Y 1 X 9 Y -9 Y 7 Y -9 Y 9 Y -13 Y 10 Y -3 Y 3 Y -11 Y 12 Y 1 X -8 Y 5 Y -6 Y 9 Y -4 Y 9 Y -17 Y 8 Y -2 Y 5 Y -4 Y 2
 Y 1 X 4 Y -4 Y 6 Y -6 Y 3 Y -5 Y 4 Y -3 Y 1 Y -2 Y 4 Y -4 Y 1 X -2 Y 5 Y -9 Y 7 Y -8 Y 11 Y -10 Y 8 Y -6 Y 13 Y -13 Y 10 Y -8 Y 1 X 6 Y -5 Y 4 Y -3 Y 4 Y -6 Y 10 Y -8 Y 4 Y -4 Y 6 Y -10 Y 15 Y -12 Y 5 Y 1 X -8 Y 13 Y -9 Y 4 Y -3 Y 6 Y -8 Y 2 Y -5 Y
 8 Y -2 Y 5 Y -8 Y 1 X -1 Y 6 Y -7 Y 8 Y -5 Y 4 Y -5 Y 4 Y -10 Y 11 Y -4 Y 1 X 7 Y -8 Y 4 Y -12 Y 12 Y -7 Y 13 Y -10 Y 5 Y -4 Y 3 Y -3 Y 1 X 1 Y -6 Y 11 Y -6 Y 4 Y -5 Y 4 Y -5 Y 1 Y -3 Y 9 Y -2 Y 3 Y -7 Y 1 X -3 Y 7 Y -6 Y 8 Y -11 Y 13 Y -7 Y 12 Y
 -16 Y 8 Y -3 Y 6 Y -9 Y 11 Y 1 X -9 Y 4 Y -7 Y 5 Y -4 Y 3 Y -1 Y 3 Y -6 Y 7 Y -6 Y 9 Y 1 X -11 Y 9 Y -7 Y 6 Y -8 Y 9 Y -5 Y 8 Y -8 Y 1 Y -3 Y 8 Y 1 X -11 Y 6 Y -3 Y 2 Y -4 Y 5 Y -2 Y 6 Y -1 Y 8 Y -10 Y 1 Y -7 Y 6 Y 1 X 3 Y -3 Y 4 Y -2 Y 2 Y -10 Y 11
 Y -6 Y 7 Y -7 Y 3 Y -2 Y 4 Y 1 X -13 Y 4 Y -4 Y 7 Y -3 Y 5 Y -6 Y 10 Y -10 Y 13 Y -13 Y 7 Y 1 X -3 Y 8 Y -7 Y 3 Y -6 Y 6 Y -4 Y 4 Y -7 Y 11 Y -12 Y 10 Y -1 Y 1 X -7 Y 9 Y -7 Y 6 Y -6 Y 6 Y -7 Y 5 Y -8 Y 7 Y -7 Y 6 Y -4 Y 2 Y 1 X 10 Y -11 Y 6 Y -2 Y
 5 Y -12 Y 7 Y -4 Y 6 Y -5 Y 4 Y -3 Y 7 Y -12 Y 8 Y 1 X -6 Y 10 Y -9 Y 5 Y -3 Y 6 Y -11 Y 13 Y -12 Y 9 Y -9 Y 7 Y -1 Y 1 X 1 Y -3 Y 1 Y -10 Y 11 Y -7 Y 10 Y -6 Y 2 Y -3 Y 4 Y -3 Y 1 Y 1 X -8 Y 17 Y -13 Y 9 Y -16 Y 10 Y -3 Y 11 Y -4 Y 5 Y -13 Y 4 Y 1
 X 6 Y -6 Y 4 Y -8 Y 10 Y -11 Y 9 Y -8 Y 13 Y -11 Y 8 Y 1 X -6 Y 4 Y -10 Y 10 Y -6 Y 6 Y -8 Y 12 Y -10 Y 13 Y -11 Y 9 Y 1 X -12 Y 9 Y -8 Y 5 Y -9 Y 12 Y -10 Y 11 Y -7 Y 8 Y -12 Y 12 Y 1 X -15 Y 7 Y -7 Y 7 Y -8 Y 7 Y -4 Y 9 Y -4 Y 4 Y -4 Y 2 Y 1 X -8
 Y 15 Y -11 Y 9 Y -9 Y 5 Y -7 Y 6 Y -3 Y 1 Y -1 Y 3 Y -1 Y 3 Y -6 Y 1 X 10 Y -6 Y 4 Y -4 Y 9 Y -6 Y 8 Y -15 Y 10 Y -7 Y 1 X 3 Y -4 Y 3 Y -2 Y 9 Y -10 Y 1 Y -5 Y 6 Y -4 Y 9 Y -8 Y 4 Y -7 Y 9 Y 1 X -2 Y 1 Y -1 Y 3 Y -4 Y 6 Y -8 Y 5 Y -7 Y 10 Y -8 Y 3 Y
 -2 Y 3 Y -1 Y 1 X 3 Y -7 Y 4 Y -2 Y 5 Y -10 Y 5 Y -5 Y 9 Y -5 Y 12 Y -12 Y 4 Y 1 X -4 Y 4 Y -14 Y 14 Y -6 Y 1 Y -1 Y 12 Y -14 Y 8 Y -7 Y 3 Y -8 Y 14 Y -4 Y 2 Y -1 Y 1 X -4 Y 9 Y -13 Y 8 Y -3 Y 7 Y -8 Y 5 Y -3 Y 6 Y -11 Y 9 Y -6 Y 9 Y -3 Y 1 X -7 Y 3
 Y -4 Y 4 Y -1 Y 3 Y -3 Y 3 Y -4 Y 9 Y -11 Y 9 Y -8 Y 1 X 7 Y -9 Y 5 Y -3 Y 5 Y -3 Y 5 Y -9 Y 8 Y -4 Y 6 Y -2 Y 1 X -1 Y 2 Y -8 Y 9 Y -7 Y 1 Y -2 Y 10 Y -2 Y 3 Y -9 Y 7 Y -11 Y 9 Y 1 X -8 Y 4 Y -2 Y 7 Y -8 Y 6 Y -7 Y 5 Y -2 Y 1 Y -1 Y 4 Y -8 Y 1 X 7
 Y -6 Y 3 Y -1 Y 9 Y -7 Y 2 Y -8 Y 10 Y -5 Y 8 Y -8 Y 4 Y -2 Y 2 Y 1 X -5 Y 6 Y -8 Y 1 Y -2 Y 10 Y -6 Y 3 Y -7 Y 8 Y -4 Y 1 X 8 Y -4 Y 2 Y -8 Y 7 Y -11 Y 14 Y -12 Y 7 Y -6 Y 4 Y 1 X 1 Y -3 Y 4 Y -5 Y 4 Y -6 Y 8 Y -11 Y 10 Y -5 Y 7 Y -9 Y 1 X 9 Y -9 Y
 8 Y -4 Y 2 Y -4 Y 5 Y -6 Y 5 Y -2 Y 4 Y -8 Y 7 Y -6 Y 1 X 1 Y -3 Y 9 Y -6 Y 7 Y -6 Y 6 Y -6 Y 5 Y -7 Y 2 Y -1 Y 5 Y -2 Y 5 Y -11 Y 1 X 12 Y -6 Y 5 Y -9 Y 8 Y -9 Y 7 Y -5 Y 3 Y -3 Y 6 Y -4 Y 6 Y 1 X -4 Y 4 Y -6 Y 4 Y -3 Y 4 Y -5 Y 1 Y -4 Y 10 Y -9 Y
 8 Y -5 Y 1 X 4 Y -9 Y 9 Y -7 Y 5 Y -6 Y 12 Y -13 Y 2 Y -1 Y 3 Y -3 Y 7 Y -10 Y 7 Y 1 X 5 Y -8 Y 3 Y -2 Y 8 Y -11 Y 3 Y -3 Y 12 Y -11 Y 6 Y -8 Y 9 Y 1 X -4 Y 4 Y -4 Y 1 Y -5 Y 8 Y -6 Y 5 Y -7 Y 8 Y -4 Y 7 Y -3 Y 4 Y 1 X -8 Y 4 Y -3 Y 6 Y -6 Y 3 Y -12
 Y 14 Y -6 Y 7 Y -7 Y 11 Y -14 Y 5 Y -3 Y 1 X 1 Y -6 Y 9 Y -5 Y 8 Y -7 Y 2 Y -2 Y 5 Y -7 Y 5 Y 1 X -9 Y 11 Y -7 Y 9 Y -7 Y 5 Y -4 Y 1 Y -1 Y 1 Y -7 Y 6 Y -5 Y 12 Y -4 Y 1 X -3 Y 7 Y -7 Y 2 Y -9 Y 9 Y -5 Y 7 Y -12 Y 12 Y -3 Y 5 Y -10 Y 1 X 6 Y -2 Y 1
 Y -2 Y 9 Y -8 Y 4 Y -4 Y 3 Y -7 Y 4 Y -2 Y 7 Y -7 Y 1 X 3 Y -1 Y 7 Y -8 Y 5 Y -12 Y 15 Y -8 Y 9 Y -12 Y 10 Y -7 Y 3 Y -6 Y 1 X 8 Y -3 Y 4 Y -6 Y 6 Y -5 Y 1 Y -3 Y 8 Y -8 Y 9 Y -9 Y 1 X 6 Y -3 Y 9 Y -8 Y 2 Y -10 Y 10 Y -4 Y 8 Y -10 Y 7 Y -8 Y 2 Y 1 X
 6 Y -9 Y 10 Y -7 Y 8 Y -5 Y 3 Y -6 Y 6 Y -5 Y 6 Y -2 Y 1 X -4 Y 3 Y -2 Y 4 Y -8 Y 7 Y -8 Y 6 Y -5 Y 3 Y -4 Y 6 Y -3 Y 1 X -3 Y 8 Y -1 Y 5 Y -11 Y 1 Y -5 Y 7 Y -2 Y 1 Y -4 Y 7 Y -7 Y 11 Y -2 Y 1 X -6 Y 6 Y -3 Y 2 Y -4 Y 2 Y -5 Y 10 Y -6 Y 4 Y -5 Y 6
 Y -9 Y 8 Y -7 Y 2 Y -2 Y 1 X 11 Y -8 Y 3 Y -8 Y 5 Y -5 Y 5 Y -4 Y 7 Y -11 Y 8 Y -4 Y 14 Y -6 Y 1 X -9 Y 5 Y -1 Y 4 Y -4 Y 10 Y -9 Y 6 Y -1 Y 3 Y -9 Y 3 Y -3 Y 7 Y -6 Y 1 Y 1 X -3 Y 4 Y -4 Y 6 Y -4 Y 7 Y -7 Y 3 Y -3 Y 5 Y -5 Y 8 Y -3 Y 1 X -9 Y 12 Y
 -13 Y 14 Y -15 Y 8 Y -6 Y 11 Y -3 Y 1 Y 1 X -9 Y 5 Y -1 Y 3 Y -6 Y 7 Y -8 Y 5 Y -4 Y 6 Y -5 Y 1 X 5 Y -11 Y 12 Y -8 Y 14 Y -10 Y 6 Y -8 Y 8 Y -3 Y 8 Y -15 Y 1 X 3 Y -3 Y 10 Y -10 Y 8 Y -4 Y 5 Y -4 Y 2 Y -10 Y 14 Y -8 Y 2 Y 1 X 3 Y -4 Y 1 Y -3 Y 7 Y
 -4 Y 5 Y -6 Y 6 Y -10 Y 11 Y -8 Y 1 X 8 Y -6 Y 3 Y -8 Y 6 Y -4 Y 8 Y -2 Y 3 Y -6 Y 5 Y -6 Y 5 Y 1 X -7 Y 3 Y -6 Y 10 Y -5 Y 4 Y -2 Y 1 Y -3 Y 1 Y -2 Y 8 Y -9 Y 5 Y -3 Y 1 X 4 Y -8 Y 12 Y -8 Y 4 Y -5 Y 7 Y -10 Y 4 Y -5 Y 11 Y -6 Y 1 X 2 Y -2 Y 5 Y -9
 Y 13 Y -9 Y 7 Y -7 Y 7 Y -8 Y 9 Y 1 X -8 Y 4 Y -3 Y 9 Y -12 Y 3 Y -9 Y 12 Y -4 Y 8 Y -6 Y 4 Y -5 Y 1 Y 1 X -3 Y 4 Y -7 Y 8 Y -8 Y 3 Y -3 Y 8 Y -10 Y 7 Y -5 Y 5 Y -10 Y 14 Y 1 X -9 Y 12 Y -8 Y 8 Y -9 Y 7 Y -8 Y 7 Y -6 Y 5 Y 1 X -6 Y 2 Y -4 Y 5 Y -9 Y
 8 Y -2 Y 1 Y -5 Y 7 Y -4 Y 7 Y -7 Y 6 Y -1 Y 1 X 2 Y -6 Y 6 Y -3 Y 2 Y -9 Y 10 Y -7 Y 6 Y -3 Y 4 Y -4 Y 1 X -4 Y 7 Y -4 Y 8 Y -7 Y 7 Y -5 Y 2 Y -5 Y 6 Y -3 Y 2 Y -3 Y 3 Y -6 Y 7 Y 1 X -11 Y 14 Y -12 Y 4 Y -1 Y 5 Y -4 Y 6 Y -6 Y 8 Y -12 Y 12 Y -7 Y 1
 X 6 Y -10 Y 11 Y -9 Y 4 Y -7 Y 13 Y -9 Y 5 Y -7 Y 8 Y -10 Y 2 Y 1 X 6 Y -7 Y 7 Y -5 Y 4 Y -7 Y 12 Y -8 Y 7 Y -5 Y 5 Y -13 Y 10 Y -5 Y 1 X 10 Y -16 Y 15 Y -8 Y 4 Y -8 Y 9 Y -5 Y 4 Y -3 Y 8 Y -9 Y 1 X 9 Y -9 Y 4 Y -4 Y 2 Y -2 Y 6 Y -4 Y 6 Y -8 Y 10 Y
 -8 Y 1 X -2 Y 6 Y -6 Y 5 Y -4 Y 7 Y -6 Y 1 Y -5 Y 3 Y -7 Y 13 Y -4 Y 1 Y -4 Y 1 X 14 Y -14 Y 5 Y -11 Y 10 Y -4 Y 11 Y -8 Y 5 Y -8 Y 4 Y -7 Y 7 Y 1 X -4 Y 4 Y -6 Y 6 Y -5 Y 5 Y -2 Y 5 Y -7 Y 1 Y -1 Y 4 Y -4 Y 2 Y 1 X -2 Y 4 Y -4 Y 4 Y -6 Y 3 Y -1 Y 4
 Y -6 Y 4 Y -2 Y 4 Y -3 Y 6 Y 1 X 1 Y -6 Y 5 Y -8 Y 5 Y -5 Y 2 Y -3 Y 7 Y -6 Y 9 Y -11 Y 4 Y -1 Y 4 Y 1 X 3 Y -12 Y 11 Y -2 Y 1 Y -5 Y 6 Y -9 Y 4 Y -1 Y 8 Y -4 Y 1 Y -12 Y 10 Y 1 X -7 Y 8 Y -4 Y 8 Y -8 Y 2 Y -5 Y 14 Y -13 Y 7 Y -7 Y 6 Y -7 Y 3 Y -2 Y
 1 X 6 Y -6 Y 8 Y -6 Y 4 Y -5 Y 8 Y -9 Y 11 Y -9 Y 1 Y -5 Y 8 Y 1 X -8 Y 11 Y -8 Y 2 Y -7 Y 13 Y -6 Y 2 Y -7 Y 4 Y -5 Y 7 Y -4 Y 4 Y -8 Y 10 Y 1 X -3 Y 5 Y -5 Y 3 Y -6 Y 4 Y -5 Y 13 Y -20 Y 18 Y -12 Y 9 Y -9 Y 8 Y 1 X -9 Y 5 Y -5 Y 8 Y -7 Y 6 Y -1 Y
 3 Y -4 Y 4 Y -8 Y 9 Y -11 Y 8 Y -1 Y 1 X 5 Y -2 Y 4 Y -4 Y 3 Y -3 Y 3 Y -3 Y 3 Y -5 Y 3 Y -9 Y 7 Y -8 Y 1 X 5 Y -2 Y 6 Y -4 Y 4 Y -6 Y 13 Y -16 Y 17 Y -12 Y 4 Y -7 Y 1 X 8 Y -1 Y 4 Y -8 Y 4 Y -8 Y 9 Y -11 Y 12 Y -6 Y 8 Y -8 Y 1 X 8 Y -10 Y 11 Y -8 Y
 3 Y -8 Y 6 Y -4 Y 9 Y -2 Y 1 X -4 Y 5 Y -6 Y 6 Y -10 Y 7 Y -2 Y 6 Y -8 Y 9 Y -10 Y 8 Y -8 Y 4 Y -5 Y 4 Y -5 Y 6 Y 1 X 1 Y -5 Y 11 Y -10 Y 5 Y -2 Y 7 Y -10 Y 6 Y -11 Y 12 Y -6 Y 8 Y 1 X -9 Y 5 Y -2 Y 2 Y -6 Y 5 Y -2 Y 1 Y -3 Y 4 Y -3 Y 1 Y 1 X 4 Y -4
 Y 3 Y -4 Y 10 Y -12 Y 10 Y -4 Y 2 Y -11 Y 8 Y 1 X 1 Y -4 Y 4 Y -4 Y 6 Y -7 Y 5 Y -8 Y 8 Y -5 Y 3 Y -2 Y 1 X -3 Y 7 Y -8 Y 10 Y -9 Y 5 Y -3 Y 6 Y -2 Y 5 Y -3 Y 3 Y -9 Y 4 Y -3 Y 1 X 4 Y -4 Y 7 Y -8 Y 3 Y -4 Y 3 Y -2 Y 5 Y -6 Y 8 Y -12 Y 11 Y -9 Y 4 Y
 1 X 11 Y -11 Y 1 Y -1 Y 4 Y -8 Y 4 Y -6 Y 14 Y -8 Y 5 Y -5 Y 7 Y -3 Y 1 Y -6 Y 1 Y 1 X 4 Y -2 Y 2 Y -11 Y 5 Y -2 Y 10 Y -8 Y 7 Y -4 Y 7 Y -9 Y 2 Y -6 Y 1 X 13 Y -12 Y 8 Y -4 Y 1 Y -2 Y 4 Y -7 Y 4 Y -7 Y 14 Y -11 Y 10 Y -7 Y 3 Y 1 X -6 Y 8 Y -2 Y 5 Y
 -7 Y 4 Y -4 Y 5 Y -13 Y 12 Y -5 Y 4 Y -10 Y 14 Y 1 X -7 Y 4 Y -8 Y 9 Y -6 Y 7 Y -6 Y 5 Y -6 Y 2 Y -1 Y 5 Y 1 X -10 Y 13 Y -12 Y 8 Y -8 Y 5 Y -1 Y 2 Y -2 Y 10 Y -14 Y 8 Y -8 Y 5 Y -2 Y 1 X 10 Y -14 Y 5 Y -4 Y 8 Y -4 Y 9 Y -10 Y 9 Y -8 Y 7 Y 1 X -6 Y
 6 Y -10 Y 14 Y -16 Y 8 Y -3 Y 7 Y -7 Y 4 Y -2 Y 8 Y -14 Y 15 Y 1 X -12 Y 5 Y -4 Y 6 Y -6 Y 5 Y -5 Y 4 Y -5 Y 1 Y -2 Y 7 Y 1 X -5 Y 4 Y -4 Y 5 Y -3 Y 2 Y -5 Y 5 Y -5 Y 4 Y -3 Y 4 Y -7 Y 1 X 8 Y -10 Y 13 Y -8 Y 4 Y -8 Y 16 Y -10 Y 5 Y -9 Y 7 Y 1 X -14
 Y 11 Y -2 Y 1 Y -2 Y 2 Y -5 Y 9 Y -5 Y 5 Y -12 Y 9 Y 1 X -2 Y 9 Y -6 Y 4 Y -8 Y 2 Y -3 Y 5 Y -3 Y 1 Y -4 Y 5 Y -4 Y 10 Y -8 Y 1 X 7 Y -13 Y 5 Y -4 Y 9 Y -1 Y 1 Y -4 Y 3 Y -1 Y 2 Y -1 Y 1 Y -6 Y 1 X 2 Y -3 Y 2 Y -2 Y 6 Y -6 Y 4 Y -1 Y 3 Y -4 Y 5 Y -9
 Y 7 Y -7 Y 9 Y 1 X 4 Y -10 Y 10 Y -12 Y 7 Y -11 Y 12 Y -8 Y 10 Y -6 Y 4 Y -8 Y 11 Y -4 Y 10 Y 1 X -14 Y 5 Y -6 Y 7 Y -10 Y 9 Y -3 Y 3 Y -8 Y 8 Y -2 Y 4 Y -6 Y 8 Y -10 Y 1 X 5 Y -7 Y 6 Y -5 Y 5 Y -4 Y 9 Y -1 Y 2 Y -9 Y 5 Y -8 Y 1 X 9 Y -5 Y 8 Y -11 Y
 15 Y -12 Y 7 Y -7 Y 2 Y -6 Y 12 Y -8 Y 7 Y 1 X -9 Y 6 Y -8 Y 8 Y -2 Y 7 Y -16 Y 12 Y -5 Y 6 Y -4 Y 5 Y -6 Y 1 X -1 Y 1 Y -5 Y 9 Y -5 Y 8 Y -8 Y 7 Y -8 Y 6 Y -5 Y 11 Y 1 X -11 Y 2 Y -7 Y 14 Y -12 Y 7 Y -7 Y 10 Y -7 Y 5 Y 1 X 3 Y -4 Y 4 Y -9 Y 10 Y -7
 Y 2 Y -4 Y 8 Y -7 Y 2 Y -2 Y 1 X -3 Y 6 Y -4 Y 3 Y -4 Y 6 Y -4 Y 3 Y -4 Y 1 Y -2 Y 1 X 9 Y -12 Y 6 Y -1 Y 1 Y -5 Y 13 Y -10 Y 9 Y -6 Y 9 Y -12 Y 4 Y -7 Y 1 X 4 Y -1 Y 3 Y -6 Y 5 Y -5 Y 7 Y -6 Y 5 Y -4 Y 3 Y -2 Y 2 Y 1 X -1 Y 3 Y -6 Y 10 Y -8 Y 9 Y
 -16 Y 12 Y -8 Y 8 Y -2 Y 1 Y -4 Y 2 Y 1 X -2 Y 5 Y -10 Y 14 Y -11 Y 3 Y -7 Y 11 Y -10 Y 9 Y -4 Y 5 Y -13 Y 10 Y -1 Y 1 X -9 Y 7 Y -5 Y 11 Y -13 Y 12 Y -5 Y 5 Y -8 Y 4 Y 1 X 4 Y -4 Y 7 Y -8 Y 2 Y -4 Y 11 Y -5 Y 4 Y -13 Y 8 Y -3 Y 1 Y -2 Y 1 X -1 Y 10
 Y -17 Y 18 Y -14 Y 10 Y -8 Y 7 Y -4 Y 6 Y -13 Y 8 Y 1 X 6 Y -5 Y 4 Y -8 Y 2 Y -1 Y 9 Y -6 Y 3 Y -1 Y 1 X -3 Y 2 Y -6 Y 8 Y -6 Y 7 Y -2 Y 9 Y -10 Y 6 Y -7 Y 4 Y -3 Y 5 Y -9 Y 1 X -3 Y 6 Y -4 Y 10 Y -8 Y 5 Y -4 Y 1 Y -3 Y 4 Y -5 Y 5 Y -8 Y 7 Y -3 Y 1
 X 4 Y -4 Y 8 Y -7 Y 10 Y -11 Y 5 Y -4 Y 4 Y -9 Y 14 Y -13 Y 8 Y -6 Y 5 Y 1 X -4 Y 6 Y -5 Y 5 Y -5 Y 5 Y -7 Y 7 Y -6 Y 4 Y -3 Y 5 Y -4 Y 6 Y 1 X -7 Y 5 Y -13 Y 11 Y -10 Y 9 Y -1 Y 8 Y -6 Y 7 Y -4 Y 3 Y -12 Y 15 Y 1 X -19 Y 9 Y -2 Y 4 Y -2 Y 7 Y -10 Y
 8 Y -8 Y 6 Y -6 Y 6 Y -6 Y 6 Y 1 X -7 Y 7 Y -3 Y 3 Y -5 Y 3 Y -5 Y 3 Y -7 Y 10 Y -2 Y 3 Y -3 Y 1 X -3 Y 6 Y -5 Y 4 Y -10 Y 7 Y -2 Y 6 Y -7 Y 3 Y -4 Y 10 Y -3 Y 5 Y -10 Y 1 X 10 Y -10 Y 8 Y -7 Y 4 Y -8 Y 9 Y -10 Y 11 Y -13 Y 15 Y -7 Y 6 Y -7 Y 1 X -2
 Y 10 Y -10 Y 8 Y -7 Y 6 Y -13 Y 13 Y -8 Y 8 Y -4 Y 2 Y 1 X 2 Y -8 Y 4 Y -4 Y 7 Y -7 Y 3 Y -1 Y 3 Y -5 Y 8 Y -3 Y 1 Y -2 Y 5 Y -4 Y 1 X -1 Y 4 Y -7 Y 3 Y -5 Y 6 Y -4 Y 9 Y -4 Y 1 Y -3 Y 1 Y -8 Y 1 X 9 Y -7 Y 4 Y -1 Y 7 Y -10 Y 13 Y -11 Y 7 Y -4 Y 8 Y
 -8 Y 9 Y -9 Y 7 Y 1 X -8 Y 5 Y -6 Y 4 Y -6 Y 7 Y -7 Y 11 Y -5 Y 1 Y -5 Y 1 Y 1 X 1 Y -2 Y 5 Y -8 Y 5 Y -5 Y 9 Y -6 Y 9 Y -7 Y 11 Y -9 Y 5 Y -9 Y 1 X 6 Y -4 Y 5 Y -8 Y 10 Y -10 Y 7 Y -8 Y 10 Y -2 Y 1 Y 1 X -3 Y 4 Y -12 Y 13 Y -7 Y 6 Y -5 Y 7 Y -8 Y 3
 Y -5 Y 6 Y -1 Y 1 Y -5 Y 1 X 4 Y -2 Y 1 Y -5 Y 7 Y -4 Y 6 Y -2 Y 2 Y -10 Y 5 Y -3 Y 14 Y 1 X -16 Y 4 Y -1 Y 7 Y -7 Y 5 Y -5 Y 6 Y -5 Y 10 Y -10 Y 5 Y -9 Y 1 X 8 Y -7 Y 8 Y -7 Y 6 Y -4 Y 4 Y -6 Y 6 Y -11 Y 9 Y 1 X 2 Y -4 Y 4 Y -4 Y 3 Y -3 Y 2 Y -7 Y
 10 Y -10 Y 8 Y 1 X 2 Y -2 Y 3 Y -4 Y 3 Y -5 Y 6 Y -4 Y 3 Y -9 Y 7 Y -7 Y 8 Y -8 Y 1 X -2 Y 12 Y -10 Y 8 Y -6 Y 9 Y -8 Y 7 Y -7 Y 7 Y -6 Y 11 Y -11 Y 3 Y 1 X -6 Y 5 Y -6 Y 7 Y -2 Y 3 Y -8 Y 9 Y -5 Y 3 Y -8 Y 8 Y -4 Y 4 Y -5 Y 9 Y 1 X -13 Y 8 Y -5 Y 9
 Y -6 Y 5 Y -6 Y 5 Y -6 Y 4 Y -5 Y 10 Y -5 Y 1 X -4 Y 11 Y -10 Y 5 Y -8 Y 13 Y -16 Y 6 Y -5 Y 6 Y -4 Y 4 Y -4 Y 2 Y -1 Y 1 X 5 Y -6 Y 2 Y -3 Y 11 Y -9 Y 6 Y -2 Y 3 Y -4 Y 7 Y -7 Y 4 Y 1 X -4 Y 8 Y -15 Y 13 Y -6 Y 4 Y -7 Y 3 Y -8 Y 14 Y -12 Y 10 Y -4
 Y 1 X -2 Y 7 Y -8 Y 4 Y -2 Y 9 Y -14 Y 10 Y -7 Y 7 Y -7 Y 7 Y -4 Y 1 X 4 Y -8 Y 9 Y -9 Y 6 Y -6 Y 11 Y -11 Y 12 Y 1 X -10 Y 3 Y -1 Y 10 Y -7 Y 2 Y -9 Y 6 Y -3 Y 4 Y -4 Y 5 Y -12 Y 8 Y 1 X -9 Y 17 Y -12 Y 11 Y -7 Y 1 Y -3 Y 10 Y -11 Y 6 Y -7 Y 1 X 7
 Y -1 Y 5 Y -10 Y 10 Y -9 Y 6 Y -2 Y 5 Y -8 Y 3 Y -4 Y 1 X 9 Y -13 Y 7 Y -1 Y 5 Y -5 Y 7 Y -9 Y 9 Y -7 Y 4 Y -8 Y 5 Y 1 X 8 Y -18 Y 13 Y -6 Y 2 Y -1 Y 5 Y -5 Y 5 Y -10 Y 10 Y -4 Y 4 Y 1 X -6 Y 4 Y -2 Y 8 Y -3 Y 10 Y -19 Y 10 Y -8 Y 3 Y -3 Y 1 Y -3 Y
 10 Y -2 Y 1 X -6 Y 9 Y -9 Y 8 Y -10 Y 6 Y -2 Y 2 Y -6 Y 7 Y -5 Y 7 Y -3 Y 1 X 2 Y -8 Y 11 Y -6 Y 5 Y -8 Y 11 Y -7 Y 2 Y -9 Y 11 Y -10 Y 6 Y 1 X 1 Y -4 Y 2 Y -1 Y 8 Y -8 Y 7 Y -7 Y 5 Y -6 Y 6 Y -6 Y 9 Y -4 Y 4 Y -4 Y 1 X -4 Y 5 Y -9 Y 4 Y -4 Y 7 Y -7
 Y 12 Y -11 Y 1 X 8 Y -5 Y 4 Y -5 Y 9 Y -10 Y 6 Y -1 Y 4 Y 1 X -8 Y 5 Y -3 Y 3 Y -5 Y 5 Y -7 Y 4 Y -4 Y 11 Y -12 Y 8 Y 1 X -3 Y 7 Y -8 Y 1 Y -8 Y 12 Y -6 Y 10 Y -8 Y 3 Y -8 Y 9 Y -3 Y 4 Y -2 Y 1 X -8 Y 6 Y -4 Y 6 Y -5 Y 5 Y -11 Y 11 Y -7 Y 10 Y -10 Y
 11 Y -7 Y 2 Y 1 X 9 Y -16 Y 13 Y -14 Y 9 Y -3 Y 4 Y -11 Y 9 Y -5 Y 1 Y -3 Y 8 Y -5 Y 6 Y -6 Y 1 X 5 Y -8 Y 12 Y -10 Y 6 Y -5 Y 6 Y -7 Y 8 Y -7 Y 9 Y -11 Y 6 Y -3 Y 1 X 7 Y -9 Y 7 Y -5 Y 8 Y -3 Y 1 Y -4 Y 1 Y -3 Y 1 X -3 Y 14 Y -7 Y 7 Y -10 Y 3 Y -4
 Y 7 Y -6 Y 2 Y -6 Y 10 Y -11 Y 8 Y 1 X -5 Y 3 Y -2 Y 4 Y -5 Y 3 Y -1 Y 4 Y -6 Y 6 Y -2 Y 5 Y -9 Y 4 Y -5 Y 13 Y -10 Y 1 X 5 Y -6 Y 6 Y -6 Y 1 Y -1 Y 3 Y -5 Y 6 Y -8 Y 9 Y -8 Y 11 Y -5 Y 1 X 4 Y -3 Y 8 Y -12 Y 1 Y -1 Y 7 Y -4 Y 3 Y -9 Y 9 Y -8 Y 6 Y
 -5 Y 1 X 3 Y -7 Y 13 Y -13 Y 9 Y -5 Y 7 Y -7 Y 1 X 6 Y -5 Y 2 Y -4 Y 5 Y -7 Y 4 Y -7 Y 12 Y -10 Y 6 Y -3 Y 6 Y -4 Y 6 Y -10 Y 1 X 12 Y -4 Y 5 Y -9 Y 7 Y -6 Y 3 Y -6 Y 6 Y -1 Y 1 Y -8 Y 1 X 2 Y -1 Y 8 Y -10 Y 5 Y -3 Y 9 Y -6 Y 9 Y -9 Y 4 Y -8 Y 8 Y 1
 X -2 Y 2 Y -10 Y 14 Y -7 Y 2 Y -4 Y 4 Y -2 Y 3 Y -2 Y 2 Y -2 Y 3 Y -6 Y 1 X -2 Y 3 Y -2 Y 5 Y -4 Y 1 Y -7 Y 16 Y -9 Y 5 Y -2 Y 1 Y -4 Y 6 Y 1 X -11 Y 9 Y -6 Y 6 Y -5 Y 2 Y -3 Y 7 Y -8 Y 7 Y -3 Y 3 Y 1 X 7 Y -8 Y 5 Y -3 Y 5 Y -12 Y 7 Y -7 Y 7 Y -6 Y
 9 Y -6 Y 4 Y -6 Y 1 X 13 Y -12 Y 9 Y -11 Y 9 Y -8 Y 11 Y -9 Y 9 Y -8 Y 1 X -4 Y 9 Y -3 Y 2 Y -14 Y 11 Y -8 Y 10 Y -9 Y 6 Y -9 Y 10 Y -7 Y 7 Y -3 Y 3 Y -4 Y 1 X -2 Y 3 Y -1 Y 7 Y -10 Y 3 Y -1 Y 2 Y -5 Y 15 Y -13 Y 8 Y -4 Y 6 Y -8 Y 1 X 5 Y -4 Y 6 Y
 -10 Y 11 Y -3 Y 4 Y -7 Y 1 Y -3 Y 8 Y -6 Y 5 Y 1 X -7 Y 12 Y -12 Y 4 Y -12 Y 13 Y -5 Y 5 Y -5 Y 7 Y -9 Y 10 Y 1 X -5 Y 3 Y -6 Y 9 Y -13 Y 16 Y -8 Y 4 Y -12 Y 12 Y -10 Y 7 Y 1 X -2 Y 1 Y -1 Y 3 Y -10 Y 10 Y -7 Y 1 Y -4 Y 5 Y -2 Y 16 Y -22 Y 10 Y 1 X
 -3 Y 7 Y -8 Y 93 Y -5 Y 1 Y -7 Y 4 Y -41 Y 1 X -13 Y 1 Y -15 Y 11 Y -6 Y 5 Y -13 Y 5 Y -12 Y 11 Y -21 Y 7 Y 1 X -9 Y 10 Y -3 Y 6 Y -2 Y 2 Y -11 Y 254 Y 1 X -206 Y 2 Y -11 Y 9 Y 1 X -37 Y 3 Y -8 Y 13 Y -6 Y 7 Y -9 Y 5 Y -14 Y 7 Y 1 X 274 Y -205 Y 1 X
 -23 Y 4 Y -8 Y 4 Y -10 Y 2 Y -16 Y 3 Y -23 Y 2 Y -1 Y 7 Y 1 X -4 Y 2 Y -11 Y 436 Y -167 Y 1 X -259 Y 1 X 6 Y -8 Y 6 Y -2 Y 12 Y -7 Y 4 Y -4 Y 4 Y -16 Y 308 Y 1 X 235 Y -450 Y 1 X -3 Y 2 Y -87 Y 16 Y -3 Y 10 Y -18 Y 1 X -13 Y 583 Y -390 Y 1 X -89 Y 9
 Y -9 Y 1 Y -93 Y 17 Y 1 X 8 Y -10 Y 5 Y -25 Y 573 Y -120 Y 1 X -360 Y 11 Y -47 Y 1 X -43 Y 3 Y -9 Y 23 Y -9 Y 1 Y -18 Y 145 Y 1 X 414 Y -454 Y 1 X -7 Y 1 Y -4 Y 1 Y -85 Y 2 Y -1 Y 8 Y -9 Y 14 Y -10 Y 1 X 1 Y -19 Y 578 Y -319 Y 1 X -159 Y 6 Y -89 Y 1
 Y -3 Y 1 X 3 Y -7 Y 17 Y -20 Y 2 Y -12 Y 643 Y 1 X -538 Y 8 Y 1 X -103 Y 24 Y -7 Y 5 Y -9 Y 5 Y -19 Y 7 Y 1 X 616 Y -477 Y 1 X -42 Y 2 Y -102 Y 23 Y -5 Y 1 X -16 Y 686 Y -294 Y 1 X -292 Y 1 Y -82 Y 1 X 2 Y -9 Y 1 Y -2 Y 14 Y -27 Y 505 Y 1 X 134 Y
 -535 Y 1 X 4 Y -105 Y 19 Y -21 Y 1 X 6 Y -4 Y 607 Y -437 Y 1 X -80 Y 11 Y -91 Y 1 Y -6 Y 7 Y 1 X 8 Y -20 Y 1 Y -2 Y 610 Y -119 Y 1 X -393 Y 7 Y -40 Y 2 Y -20 Y 1 X -36 Y 4 Y -12 Y 17 Y -7 Y 12 Y -28 Y 107 Y 1 X 517 Y -502 Y 1 X -17 Y 4 Y -20 Y 4 Y
 -81 Y 4 Y -9 Y 21 Y -12 Y 11 Y 1 X -23 Y 670 Y -402 Y 1 X -169 Y 1 Y -5 Y 5 Y -83 Y 4 Y -23 Y 1 X 21 Y -6 Y 11 Y -26 Y 646 Y -5 Y 1 X -525 Y 4 Y -30 Y 1 X 11 Y -95 Y 16 Y -4 Y 8 Y -16 Y 7 Y -7 Y 4 Y -4 Y 1 X 595 Y -473 Y 1 X -40 Y 7 Y -89 Y 11 Y -3
 Y 12 Y -14 Y 1 X -8 Y 2 Y -8 Y 644 Y -288 Y 1 X -261 Y 10 Y -86 Y 1 X 1 Y -16 Y 20 Y -16 Y 11 Y -10 Y 3 Y -20 Y 8 Y -3 Y 506 Y 1 X 132 Y -537 Y 9 Y -11 Y 1 X -88 Y 14 Y -16 Y 1 X -15 Y 656 Y -448 Y 1 X -93 Y 5 Y -101 Y 10 Y 1 X -8 Y 1 Y -11 Y 10 Y
 -9 Y 649 Y -168 Y 1 X -435 Y 1 X -39 Y 12 Y -10 Y 4 Y -20 Y 169 Y 1 X 492 Y -559 Y 1 X -16 Y 7 Y -70 Y 1 Y -4 Y 3 Y -7 Y 1 X -9 Y 1 Y -5 Y 622 Y -384 Y 1 X -148 Y 1 Y -4 Y 2 Y -55 Y 3 Y -20 Y 4 Y 1 X 8 Y -20 Y 4 Y -17 Y 9 Y -8 Y 669 Y -30 Y 1 X -527
 Y 1 Y -10 Y 2 Y -19 Y 1 X -52 Y 1 Y -9 Y 2 Y -4 Y 1 Y -21 Y 12 Y 1 X 645 Y -517 Y 1 X -58 Y 8 Y -69 Y 7 Y -15 Y 7 Y 1 X -24 Y 637 Y -305 Y 1 X -231 Y 2 Y -72 Y 1 X -13 Y 6 Y -8 Y 8 Y -24 Y 638 Y 1 X -541 Y 10 Y 1 X -75 Y 6 Y -15 Y 5 Y -25 Y 7 Y -8 Y
 1 X 626 Y -448 Y 1 X -79 Y 3 Y -78 Y 5 Y -4 Y 5 Y 1 X 1 Y -12 Y 3 Y -22 Y 635 Y -212 Y 1 X -380 Y 1 X -15 Y 5 Y -13 Y 11 Y -6 Y 5 Y -6 Y 1 Y -22 Y 3 Y -7 Y 270 Y 1 X 370 Y -527 Y 1 X -16 Y 3 Y -76 Y 10 Y -10 Y 4 Y -21 Y 11 Y -8 Y 1 X -11 Y 635 Y
 -403 Y 1 X -131 Y 5 Y -82 Y 14 Y -6 Y 1 X -10 Y 10 Y -32 Y 629 Y -63 Y 1 X -498 Y 1 X -38 Y 10 Y -6 Y 3 Y -10 Y 5 Y -3 Y 6 Y -34 Y 8 Y -4 Y 28 Y 1 X 612 Y -511 Y 1 X -28 Y 1 Y -80 Y 9 Y -7 Y 3 Y -13 Y 1 X 6 Y -27 Y 761 Y -376 Y 1 X -273 Y 3 Y -76 Y
 1 X -11 Y 17 Y -24 Y 6 Y -2 Y 3 Y -23 Y 674 Y 1 X 17 Y -580 Y 3 Y 1 X -82 Y 6 Y -19 Y 10 Y -14 Y 16 Y -30 Y 1 X 667 Y -497 Y 1 X -58 Y 2 Y -13 Y 3 Y -85 Y 10 Y -6 Y 1 Y 1 X 5 Y -6 Y 1 Y -19 Y 655 Y -206 Y 1 X -351 Y 3 Y -63 Y 1 X -10 Y 4 Y -12 Y 3 Y
 -25 Y 383 Y 1 X 258 Y -544 Y 1 X -2 Y 4 Y -74 Y 9 Y -16 Y 10 Y -15 Y 4 Y -11 Y 1 X -1 Y 641 Y -430 Y 1 X -187 Y 3 Y -7 Y 2 Y 1 X 2 Y -26 Y 695 Y -101 Y 1 X -484 Y 8 Y -39 Y 1 X -61 Y 14 Y -37 Y 38 Y 1 X 688 Y -583 Y 1 X -39 Y 5 Y -79 Y 6 Y -11 Y 8 Y
 -7 Y 1 X -7 Y 8 Y -27 Y 674 Y -363 Y 1 X -209 Y 7 Y -77 Y 1 X -5 Y 5 Y -7 Y 1 Y -21 Y 664 Y 1 X -564 Y 9 Y 1 X -90 Y 22 Y -19 Y 7 Y -19 Y 9 Y -24 Y 1 X 668 Y -507 Y 1 X -48 Y 1 Y -87 Y 13 Y -9 Y 5 Y 1 X -9 Y 2 Y -24 Y 668 Y -246 Y 1 X -319 Y 6 Y -29
 Y 7 Y -46 Y 1 X -16 Y 6 Y -28 Y 7 Y -10 Y 603 Y 1 X 124 Y -615 Y 1 X -9 Y 2 Y -75 Y 2 Y -5 Y 3 Y -9 Y 4 Y -6 Y 3 Y -10 Y 1 X -10 Y 681 Y -463 Y 1 X -115 Y 5 Y -9 Y 3 Y -74 Y 2 Y 1 X 3 Y -13 Y 4 Y -22 Y 740 Y -131 Y 1 X -497 Y 3 Y -35 Y 1 X -57 Y 7 Y
 -3 Y 4 Y -29 Y 4 Y -4 Y 114 Y 1 X 584 Y -581 Y 1 X -26 Y 2 Y -72 Y 1 Y -3 Y 3 Y -6 Y 1 X -20 Y 739 Y -431 Y 1 X -203 Y 5 Y -7 Y 2 Y -76 Y 2 Y -2 Y 1 X -4 Y 12 Y -28 Y 678 Y -2 Y 1 X -580 Y 9 Y -5 Y 1 X -81 Y 11 Y -6 Y 10 Y -9 Y 3 Y -17 Y 8 Y -8 Y 11
 Y -27 Y 8 Y -4 Y 1 X 696 Y -533 Y 1 X -58 Y 7 Y -84 Y 5 Y -15 Y 15 Y -7 Y 1 X -14 Y 5 Y -14 Y 1 Y -1 Y 701 Y -305 Y 1 X -302 Y 12 Y -81 Y 1 X -7 Y 9 Y -5 Y 5 Y -3 Y 1 Y -16 Y 9 Y -28 Y 652 Y 1 X 57 Y -601 Y 1 X -77 Y 5 Y -4 Y 6 Y -10 Y 6 Y -23 Y 1 X
 -3 Y 694 Y -496 Y 1 X -102 Y 5 Y -86 Y 7 Y 1 X 6 Y -15 Y 7 Y -28 Y 12 Y -3 Y 658 Y -157 Y 1 X -396 Y 1 Y -11 Y 18 Y -14 Y 2 Y -39 Y 1 X -38 Y 3 Y -7 Y 1 Y -3 Y 2 Y -13 Y 3 Y -6 Y 2 Y -5 Y 105 Y 1 X 532 Y -534 Y 1 X -13 Y 9 Y -77 Y 7 Y -5 Y 6 Y -11 Y
 6 Y -16 Y 7 Y 1 X -21 Y 679 Y -387 Y 1 X -257 Y 2 Y -5 Y 1 X -4 Y 3 Y -12 Y 2 Y -7 Y 4 Y -20 Y 669 Y -8 Y 1 X -564 Y 2 Y -13 Y 1 X -56 Y 5 Y -4 Y 10 Y -20 Y 2 Y -10 Y 2 Y -7 Y 1 X 657 Y -524 Y 1 X -43 Y 6 Y -73 Y 2 Y -10 Y 11 Y -10 Y 1 X -17 Y 1 Y
 -1 Y 645 Y -289 Y 1 X -275 Y 21 Y -75 Y 1 X -8 Y 10 Y -6 Y 3 Y -16 Y 1 Y -14 Y 608 Y 1 X 45 Y -549 Y 3 Y -6 Y 1 X -8 Y 6 Y -75 Y 3 Y -4 Y 10 Y -12 Y 7 Y -4 Y 1 Y -11 Y 3 Y -6 Y 1 X -6 Y 665 Y -470 Y 1 X -99 Y 5 Y -84 Y 7 Y -6 Y 1 Y 1 X 1 Y -2 Y 5 Y
 -16 Y 4 Y -8 Y 3 Y -13 Y 672 Y -183 Y 1 X -387 Y 1 Y -4 Y 1 Y -36 Y 1 X -34 Y 4 Y -3 Y 8 Y -9 Y 1 Y -22 Y 155 Y 1 X 511 Y -566 Y 1 X -5 Y 8 Y -79 Y 1 Y -3 Y 10 Y -14 Y 8 Y -12 Y 4 Y -5 Y 1 X -14 Y 2 Y -4 Y 715 Y -439 Y 1 X -161 Y 1 Y -15 Y 6 Y -62 Y
 1 Y -18 Y 1 X 7 Y -14 Y 4 Y -25 Y 13 Y -14 Y 670 Y -52 Y 1 X -514 Y 11 Y -29 Y 1 X -49 Y 5 Y -9 Y 3 Y -8 Y 3 Y -16 Y 3 Y -13 Y 23 Y 1 X 651 Y -545 Y 1 X -31 Y 9 Y -13 Y 8 Y -75 Y 2 Y -13 Y 8 Y -11 Y 1 X -2 Y 6 Y -16 Y 695 Y -336 Y 1 X -255 Y 1 Y -76
 Y 1 X 7 Y -7 Y 3 Y -36 Y 648 Y 1 X 23 Y -561 Y 1 X -82 Y 7 Y -7 Y 6 Y -16 Y 1 Y -14 Y 1 X -2 Y 677 Y -490 Y 1 X -85 Y 8 Y -81 Y 6 Y -6 Y 4 Y -5 Y 1 X -14 Y 3 Y -20 Y 625 Y -197 Y 1 X -334 Y 9 Y -57 Y 1 X -23 Y 12 Y -12 Y 13 Y -13 Y 1 Y -18 Y 6 Y -9
 Y 359 Y 1 X 267 Y -521 Y 1 X -12 Y 7 Y -74 Y 3 Y -8 Y 1 Y -7 Y 11 Y -15 Y 1 X -15 Y 615 Y -384 Y 1 X -138 Y 5 Y -65 Y 1 Y -2 Y 1 X -5 Y 7 Y -17 Y 2 Y -21 Y 643 Y -69 Y 1 X -469 Y 3 Y -30 Y 1 X -48 Y 5 Y -9 Y 1 Y -21 Y 28 Y 1 X 604 Y -506 Y 1 X -32 Y
 8 Y -73 Y 5 Y -5 Y 8 Y -18 Y 11 Y -6 Y 1 X -19 Y 7 Y -3 Y 3 Y -7 Y 634 Y -322 Y 1 X -225 Y 3 Y -64 Y 1 X -1 Y 1 Y -2 Y 6 Y -11 Y 2 Y -21 Y 633 Y 1 X -541 Y 1 X -12 Y 4 Y -62 Y 1 Y -15 Y 12 Y -4 Y 6 Y -14 Y 10 Y -21 Y 1 X 645 Y -480 Y 1 X -70 Y 3 Y
 -74 Y 9 Y -12 Y 1 X -13 Y 11 Y -12 Y 2 Y -3 Y 390 Y -133 Y 1 X -211 Y 15 Y -40 Y 1 X -9 Y 10 Y -5 Y 4 Y -7 Y 1 Y -13 Y 2 Y -8 Y 10 Y -13 Y 11 Y -9 Y 166 Y 1 X 101 Y -233 Y 1 X 4 Y -2 Y 10 Y -16 Y 1 Y -27 Y 1 Y -11 Y 1 X 7 Y -1 Y 216 Y -142 Y 1 X -57
 Y 9 Y -13 Y 11 Y -5 Y 6 Y -15 Y 3 Y 1 X -16 Y 2 Y -12 Y 11 Y -8 Y 3 Y -3 Y 131 Y -18 Y 1 X -71 Y 3 Y -40 Y 12 Y -5 Y 4 Y -8 Y 8 Y -1 Y 1 X 13 Y -8 Y 1 Y -14 Y 1 Y -13 Y 8 Y -12 Y 15 Y -9 Y 28 Y 1 X 266 Y -231 Y 1 X -15 Y 2 Y -22 Y 1 Y -9 Y 15 Y -5 Y
 5 Y -17 Y 2 Y -18 Y 1 X -4 Y 3 Y -8 Y 492 Y -254 Y 1 X -161 Y 1 Y -26 Y 1 Y -19 Y 1 X -11 Y 7 Y -10 Y 6 Y -11 Y 2 Y -15 Y 11 Y -6 Y 667 Y 1 X -585 Y 1 X -52 Y 3 Y -10 Y 2 Y -3 Y 2 Y -4 Y 10 Y -16 Y 1 Y -19 Y 10 Y -9 Y 1 X 710 Y -528 Y 1 X -69 Y 5 Y
 -85 Y 4 Y -10 Y 11 Y 1 X -32 Y 700 Y -296 Y 1 X -301 Y 6 Y -83 Y 1 X -2 Y 9 Y -8 Y 10 Y -38 Y 572 Y 1 X 117 Y -575 Y 1 X 7 Y -91 Y 9 Y -7 Y 10 Y -6 Y 6 Y -6 Y 3 Y -23 Y 1 X -17 Y 8 Y -1 Y 698 Y -486 Y 1 X -98 Y 4 Y -2 Y 1 Y -84 Y 1 Y -6 Y 7 Y 1 X -5
 Y 7 Y -6 Y 2 Y -29 Y 712 Y -119 Y 1 X -486 Y 3 Y -4 Y 1 Y -35 Y 1 X -47 Y 5 Y -2 Y 6 Y -7 Y 4 Y -33 Y 6 Y -1 Y 70 Y 1 X 628 Y -573 Y 1 X -22 Y 1 Y -3 Y 9 Y -98 Y 15 Y -4 Y 11 Y -6 Y 1 Y -2 Y 1 Y -4 Y 1 X -24 Y 730 Y -405 Y 1 X -214 Y 2 Y -83 Y 1 X 8
 Y -33 Y 2 Y -8 Y 707 Y -8 Y 1 X -595 Y 8 Y 1 X -83 Y 5 Y -5 Y 2 Y -10 Y 11 Y -18 Y 1 Y -10 Y 1 X 679 Y -520 Y 1 X -54 Y 1 Y -11 Y 11 Y -76 Y 2 Y -6 Y 6 Y -6 Y 2 Y -9 Y 1 X 8 Y -18 Y 1 Y -9 Y 692 Y -284 Y 1 X -316 Y 15 Y -63 Y 1 X -22 Y 7 Y -8 Y 8 Y
 -14 Y 2 Y -12 Y 534 Y 1 X 133 Y -567 Y 1 X -7 Y 1 Y -80 Y 20 Y -30 Y 1 X 5 Y -9 Y 714 Y -499 Y 1 X -115 Y 12 Y -96 Y 14 Y -9 Y 1 X 6 Y -9 Y 2 Y -15 Y 651 Y -144 Y 1 X -415 Y 7 Y -52 Y 1 X -36 Y 4 Y -3 Y 13 Y -11 Y 2 Y -21 Y 239 Y 1 X 445 Y -570 Y 1
 X -16 Y 4 Y -90 Y 20 Y -12 Y 12 Y 1 X -30 Y 691 Y -392 Y 1 X -204 Y 6 Y -89 Y 6 Y 1 X 8 Y -7 Y 6 Y -19 Y 4 Y -12 Y 653 Y -16 Y 1 X -538 Y 6 Y -16 Y 5 Y 1 X -72 Y 6 Y -4 Y 7 Y -5 Y 2 Y -9 Y 3 Y -11 Y 1 Y -8 Y 1 X 656 Y -515 Y 1 X -49 Y 5 Y -65 Y 2 Y
 -11 Y 9 Y -18 Y 1 X 10 Y -20 Y 8 Y -11 Y 633 Y -271 Y 1 X -275 Y 9 Y -63 Y 1 X -14 Y 7 Y -6 Y 7 Y -18 Y 10 Y -23 Y 7 Y -7 Y 552 Y 1 X 94 Y -545 Y 1 X 4 Y -80 Y 3 Y -20 Y 1 Y 1 X -7 Y 701 Y -490 Y 1 X -186 Y 8 Y -11 Y 1 X 3 Y -4 Y 1 Y -23 Y 658 Y
 -154 Y 1 X -404 Y 10 Y -41 Y 1 X -47 Y 8 Y -27 Y 3 Y -4 Y 288 Y 1 X 426 Y -601 Y 1 X -12 Y 13 Y -94 Y 8 Y -5 Y 6 Y -6 Y 1 X -32 Y 733 Y -433 Y 1 X -260 Y 1 Y -5 Y 1 X 14 Y -14 Y 3 Y -30 Y 4 Y -2 Y 679 Y -37 Y 1 X -544 Y 3 Y -14 Y 1 X -33 Y 4 Y -26 Y
 2 Y -11 Y 7 Y -8 Y 7 Y -28 Y 4 Y 1 X 730 Y -583 Y 1 X -51 Y 12 Y -3 Y 1 Y -77 Y 8 Y -20 Y 2 Y 1 X -6 Y 3 Y -22 Y 668 Y -305 Y 1 X -272 Y 9 Y -63 Y 6 Y 1 X -14 Y 10 Y -12 Y 6 Y -6 Y 2 Y -11 Y 9 Y -25 Y 4 Y -4 Y 657 Y 1 X 36 Y -598 Y 1 Y 1 X -67 Y 6 Y
 -14 Y 8 Y -1 Y 1 Y -11 Y 9 Y -22 Y 2 Y 1 X -3 Y 716 Y -524 Y 1 X -95 Y 5 Y -73 Y 4 Y -7 Y 3 Y -6 Y 1 X 3 Y -5 Y 4 Y -28 Y 680 Y -186 Y 1 X -394 Y 2 Y -50 Y 1 X -22 Y 6 Y -6 Y 3 Y -4 Y 3 Y -19 Y 11 Y -32 Y 396 Y 1 X 325 Y -602 Y 1 X 2 Y -15 Y 5 Y -80
 Y 3 Y -10 Y 10 Y -4 Y 2 Y -8 Y 1 X -17 Y 686 Y -441 Y 1 X -143 Y 6 Y -84 Y 5 Y 1 X 5 Y -12 Y 2 Y -1 Y 2 Y -12 Y 1 Y -14 Y 684 Y -68 Y 1 X -523 Y 13 Y -23 Y 1 X -49 Y 7 Y -13 Y 5 Y -7 Y 5 Y -8 Y 5 Y -15 Y 3 Y -16 Y 4 Y 1 X 649 Y -521 Y 1 X -34 Y 7 Y
 -12 Y 6 Y -74 Y 8 Y -10 Y 3 Y 1 X -24 Y 680 Y -347 Y 1 X -236 Y 1 Y -2 Y 5 Y -70 Y 1 X -9 Y 9 Y -6 Y 1 Y -11 Y 4 Y -19 Y 643 Y 1 X -551 Y 8 Y 1 X -77 Y 9 Y -15 Y 7 Y -21 Y 3 Y 1 X -5 Y 690 Y -510 Y 1 X -83 Y 2 Y -77 Y 16 Y -5 Y 1 Y 1 X -33 Y 702 Y
 -229 Y 1 X -367 Y 8 Y -73 Y 1 X -14 Y 3 Y -2 Y 9 Y -12 Y 8 Y -12 Y 1 Y -27 Y 468 Y 1 X 260 Y -610 Y 1 X -15 Y 6 Y -79 Y 8 Y -17 Y 7 Y -4 Y 6 Y -8 Y 1 X -11 Y 3 Y -2 Y 736 Y -487 Y 1 X -149 Y 3 Y -1 Y 1 Y -80 Y 3 Y -8 Y 1 X 8 Y -8 Y 8 Y -38 Y 11 Y -5
 Y 676 Y -83 Y 1 X -502 Y 4 Y -27 Y 1 X -35 Y 1 Y -3 Y 3 Y -10 Y 3 Y -14 Y 7 Y -21 Y 3 Y -3 Y 109 Y 1 X 597 Y -571 Y 1 X -102 Y 1 Y -5 Y 7 Y -15 Y 1 X 3 Y -20 Y 699 Y -372 Y 1 X -236 Y 10 Y -12 Y 3 Y -65 Y 1 X -1 Y 3 Y -8 Y 3 Y -6 Y 3 Y -28 Y 700 Y 1
 X -597 Y 6 Y -4 Y 1 X -59 Y 2 Y -9 Y 5 Y -19 Y 5 Y -12 Y 1 Y -15 Y 2 Y 1 X -1 Y 718 Y -552 Y 1 X -66 Y 6 Y -78 Y 4 Y -9 Y 1 X -31 Y 11 Y -4 Y 757 Y -286 Y 1 X -358 Y 10 Y -76 Y 1 X -18 Y 9 Y -10 Y 5 Y -10 Y 1 Y -20 Y 1 Y -7 Y 553 Y 1 X 158 Y -604 Y
 1 X 8 Y -78 Y 3 Y -8 Y 6 Y -18 Y 5 Y -7 Y 1 X -14 Y 720 Y -477 Y 1 X -139 Y 3 Y -81 Y 4 Y -4 Y 1 X -3 Y 3 Y -23 Y 708 Y -111 Y 1 X -493 Y 6 Y -46 Y 1 X -31 Y 3 Y -5 Y 6 Y -16 Y 13 Y -38 Y 8 Y -5 Y 140 Y 1 X 552 Y -569 Y 1 X -27 Y 1 Y -73 Y 5 Y -7 Y
 7 Y -13 Y 5 Y -8 Y 1 X 2 Y -15 Y 703 Y -391 Y 1 X -215 Y 3 Y -78 Y 2 Y -7 Y 1 X 9 Y -28 Y 5 Y -4 Y 677 Y 1 X -587 Y 8 Y -3 Y 1 X -73 Y 12 Y -16 Y 6 Y -7 Y 4 Y -10 Y 6 Y -21 Y 5 Y 1 X 669 Y -517 Y 1 X -66 Y 17 Y -72 Y 3 Y -14 Y 5 Y -5 Y 14 Y 1 X -14
 Y 8 Y -33 Y 691 Y -273 Y 1 X -324 Y 9 Y -60 Y 1 X -15 Y 4 Y -7 Y 8 Y -8 Y 4 Y -10 Y 6 Y -25 Y 540 Y 1 X 185 Y -626 Y 3 Y 1 X -5 Y 5 Y -75 Y 5 Y -3 Y 4 Y -8 Y 5 Y -27 Y 1 X 9 Y -15 Y 725 Y -478 Y 1 X -138 Y 8 Y -8 Y 1 Y -72 Y 1 Y -3 Y 1 X 1 Y -14 Y 5
 Y -21 Y 4 Y -9 Y 719 Y -169 Y 1 X -450 Y 3 Y -31 Y 1 X -38 Y 8 Y -12 Y 5 Y -5 Y 4 Y -27 Y 213 Y 1 X 482 Y -573 Y 1 X -20 Y 5 Y -3 Y 3 Y -76 Y 1 Y -7 Y 8 Y -10 Y 9 Y -18 Y 5 Y 1 X -22 Y 722 Y -417 Y 1 X -206 Y 2 Y -71 Y 1 X 1 Y -3 Y 7 Y -17 Y 2 Y -23
 Y 738 Y 1 X -628 Y 8 Y -4 Y 1 X -74 Y 8 Y -18 Y 8 Y -10 Y 1 Y -24 Y 1 X 727 Y -558 Y 1 X -60 Y 5 Y -79 Y 1 Y -14 Y 6 Y -4 Y 1 X 2 Y -21 Y 15 Y -11 Y 721 Y -315 Y 1 X -314 Y 14 Y -71 Y 1 X -12 Y 3 Y -31 Y 599 Y 1 X 86 Y -594 Y 6 Y -1 Y 1 X 2 Y -64 Y
 5 Y -12 Y 3 Y -8 Y 4 Y -6 Y 4 Y -18 Y 1 X -4 Y 669 Y -467 Y 1 X -110 Y 5 Y -14 Y 6 Y -65 Y 3 Y -7 Y 11 Y 1 X -18 Y 1 Y -10 Y 1 Y -7 Y 710 Y -172 Y 1 X -477 Y 1 X -31 Y 2 Y -8 Y 2 Y -4 Y 6 Y -12 Y 8 Y -20 Y 2 Y -8 Y 265 Y 1 X 454 Y -605 Y 1 X -17 Y 2
 Y -79 Y 11 Y -1 Y 1 Y -9 Y 1 Y -1 Y 1 X -21 Y 675 Y -391 Y 1 X -181 Y 4 Y -74 Y 4 Y -12 Y 1 X 5 Y -8 Y 6 Y -15 Y 4 Y -11 Y 7 Y -7 Y 672 Y -33 Y 1 X -549 Y 7 Y -18 Y 1 X -65 Y 6 Y -17 Y 4 Y -15 Y 23 Y 1 X 662 Y -546 Y 1 X -49 Y 5 Y -72 Y 10 Y -11 Y 1
 X -7 Y 3 Y -15 Y 8 Y -10 Y 656 Y -302 Y 1 X -268 Y 6 Y -10 Y 16 Y -67 Y 1 X 1 Y -9 Y 5 Y -30 Y 613 Y 1 X 55 Y -573 Y 1 X -72 Y 5 Y -14 Y 18 Y -8 Y 1 Y -9 Y 2 Y -8 Y 1 X -6 Y 716 Y -519 Y 1 X -97 Y 3 Y -72 Y 4 Y -1 Y 1 Y -4 Y 1 X -13 Y 2 Y -21 Y 712
 Y -189 Y 1 X -427 Y 3 Y -2 Y 5 Y -49 Y 1 X -23 Y 1 Y -2 Y 1 Y -8 Y 8 Y -33 Y 382 Y 1 X 317 Y -590 Y 1 X -14 Y 10 Y -75 Y 6 Y -13 Y 6 Y -9 Y 1 X -14 Y 699 Y -434 Y 1 X -170 Y 4 Y -80 Y 5 Y 1 X -8 Y 4 Y -12 Y 2 Y -14 Y 688 Y -35 Y 1 X -554 Y 4 Y -17 Y
 1 X -60 Y 6 Y -9 Y 1 Y -6 Y 2 Y -18 Y 7 Y -1 Y 44 Y 1 X 620 Y -537 Y 1 X -42 Y 11 Y -71 Y 1 Y -9 Y 5 Y -9 Y 1 X 3 Y -15 Y 9 Y -16 Y 627 Y -297 Y 1 X -240 Y 3 Y -58 Y 1 X -10 Y 3 Y -7 Y 2 Y -11 Y 6 Y -14 Y 3 Y -7 Y 405 Y 1 X 14 Y -362 Y 12 Y 1 X -66
 Y 4 Y -7 Y 6 Y 1 X -9 Y 274 Y -207 Y 1 X -34 Y 5 Y -3 Y 5 Y -7 Y 3 Y -11 Y 2 Y -24 Y 3 Y 1 X -10 Y 1 Y -2 Y 4 Y -4 Y 102 Y -29 Y 1 X -32 Y 2 Y -40 Y 5 Y -15 Y 16 Y -10 Y 7 Y -2 Y 11 Y 1 X 9 Y -12 Y 9 Y -36 Y 8 Y -2 Y 2 Y -1 Y 8 Y -4 Y 44 Y 1 X 55 Y
 -63 Y 3 Y -39 Y 6 Y -10 Y 5 Y 1 X -8 Y 9 Y -10 Y 13 Y -3 Y 15 Y -3 Y 10 Y -27 Y 1 Y -12 Y 4 Y -5 Y 3 Y -8 Y 1 X 287 Y -174 Y 1 X -65 Y 8 Y -32 Y 14 Y -9 Y 1 X -17 Y 12 Y -19 Y 7 Y -5 Y 437 Y -52 Y 1 X -333 Y 4 Y -20 Y 1 X 3 Y -21 Y 7 Y -13 Y 6 Y -16
 Y 1 Y -12 Y 97 Y 1 X 526 Y -485 Y 1 X -108 Y 17 Y -18 Y 8 Y -6 Y 3 Y 1 X -29 Y 638 Y -325 Y 1 X -221 Y 10 Y -73 Y 6 Y 1 X -2 Y 3 Y -9 Y 6 Y -2 Y 4 Y -35 Y 685 Y 1 X -565 Y 1 Y -6 Y 1 Y 1 X -82 Y 7 Y -4 Y 8 Y -10 Y 3 Y -32 Y 1 X 634 Y -470 Y 1 X -55
 Y 4 Y -9 Y 9 Y -78 Y 2 Y -2 Y 4 Y -5 Y 5 Y -3 Y 1 X 3 Y -4 Y 1 Y -32 Y 688 Y -238 Y 1 X -347 Y 5 Y -3 Y 1 Y -56 Y 1 X -20 Y 6 Y -5 Y 4 Y -5 Y 1 Y -32 Y 459 Y 1 X 229 Y -576 Y 2 Y -3 Y 1 X 3 Y -78 Y 8 Y -6 Y 3 Y -20 Y 7 Y 1 X -16 Y 5 Y -3 Y 666 Y
 -439 Y 1 X -132 Y 4 Y -8 Y 2 Y -57 Y 1 Y -21 Y 1 X 9 Y -10 Y 10 Y -8 Y 1 Y -22 Y 650 Y -77 Y 1 X -484 Y 12 Y -25 Y 1 X -42 Y 2 Y -2 Y 4 Y -13 Y 4 Y -12 Y 10 Y -32 Y 127 Y 1 X 552 Y -545 Y 1 X -24 Y 1 Y -10 Y 9 Y -76 Y 9 Y -16 Y 2 Y 1 X -22 Y 7 Y -4
 Y 675 Y -358 Y 1 X -214 Y 7 Y -17 Y 5 Y -73 Y 1 X -1 Y 3 Y -3 Y 4 Y -15 Y 1 Y -14 Y 621 Y 1 X -527 Y 2 Y -2 Y 1 Y -5 Y 1 X -62 Y 4 Y -8 Y 6 Y -27 Y 5 Y -11 Y 7 Y 1 X 640 Y -481 Y 1 X -66 Y 4 Y -5 Y 2 Y -84 Y 15 Y -3 Y 1 X -7 Y 6 Y -20 Y 1 Y -1 Y 678
 Y -261 Y 1 X -331 Y 13 Y -71 Y 1 X -25 Y 21 Y -16 Y 3 Y -17 Y 557 Y 1 X 150 Y -605 Y 1 X -2 Y 7 Y -97 Y 16 Y -5 Y 6 Y -16 Y 1 X -12 Y 669 Y -441 Y 1 X -124 Y 4 Y -93 Y 5 Y 1 X 8 Y -3 Y 6 Y -26 Y 712 Y -126 Y 1 X -486 Y 2 Y -3 Y 8 Y -36 Y 1 X -44 Y 5
 Y -10 Y 5 Y -7 Y 7 Y -4 Y 1 Y -13 Y 8 Y -21 Y 186 Y 1 X 476 Y -538 Y 1 X -23 Y 7 Y -10 Y 11 Y -85 Y 6 Y -2 Y 4 Y -11 Y 1 X -18 Y 680 Y -375 Y 1 X -211 Y 5 Y -78 Y 1 X 15 Y -11 Y 5 Y -23 Y 6 Y -19 Y 680 Y -5 Y 1 X -561 Y 1 Y -16 Y 2 Y -5 Y 1 X -61 Y
 1 Y -6 Y 3 Y -4 Y 2 Y -15 Y 5 Y -17 Y 8 Y 1 X 656 Y -512 Y 1 X -51 Y 3 Y -73 Y 2 Y -6 Y 7 Y -8 Y 4 Y -4 Y 1 X -10 Y 3 Y -19 Y 703 Y -283 Y 1 X -325 Y 14 Y -69 Y 1 X -11 Y 8 Y -13 Y 4 Y -8 Y 2 Y -19 Y 557 Y 1 X 151 Y -612 Y 1 X 7 Y -75 Y 1 Y -5 Y 5 Y
 -5 Y 8 Y -24 Y 1 X -8 Y 1 Y -2 Y 710 Y -491 Y 1 X -121 Y 12 Y -78 Y 5 Y -11 Y 1 X -1 Y 5 Y -28 Y 6 Y -3 Y 719 Y -151 Y 1 X -468 Y 1 Y -1 Y 1 Y -35 Y 1 X -42 Y 8 Y -11 Y 3 Y -9 Y 13 Y -36 Y 241 Y 1 X 480 Y -604 Y 1 X -7 Y 3 Y -82 Y 9 Y -15 Y 1 X -15
 Y 730 Y -438 Y 1 X -193 Y 5 Y -9 Y 5 Y -67 Y 2 Y -10 Y 1 X 5 Y -6 Y 2 Y -13 Y 5 Y -21 Y 671 Y -11 Y 1 X -562 Y 4 Y -8 Y 9 Y -6 Y 1 X -70 Y 2 Y -2 Y 1 Y -5 Y 1 Y -23 Y 11 Y 1 X 654 Y -527 Y 1 X -51 Y 10 Y -73 Y 2 Y -9 Y 7 Y -4 Y 4 Y 1 X -17 Y 1 Y -10
 Y 692 Y -307 Y 1 X -287 Y 17 Y -77 Y 1 X -5 Y 5 Y -8 Y 5 Y -33 Y 632 Y 1 X 48 Y -582 Y 5 Y -3 Y 1 X -70 Y 1 Y -7 Y 8 Y -12 Y 11 Y -18 Y 7 Y -21 Y 1 X 684 Y -488 Y 1 X -97 Y 9 Y -52 Y 3 Y -32 Y 4 Y -5 Y 1 X -4 Y 3 Y -9 Y 4 Y -20 Y 1 Y -3 Y 670 Y -164
 Y 1 X -405 Y 7 Y -49 Y 1 X -26 Y 2 Y -8 Y 5 Y -16 Y 11 Y -31 Y 274 Y 1 X 415 Y -577 Y 1 X -77 Y 2 Y -11 Y 3 Y -16 Y 1 X 3 Y -13 Y 652 Y -395 Y 1 X -163 Y 8 Y -73 Y 2 Y 1 X -6 Y 7 Y -24 Y 4 Y -8 Y 675 Y -51 Y 1 X -536 Y 7 Y -13 Y 1 X -62 Y 8 Y -10 Y
 5 Y -10 Y 2 Y -16 Y 1 Y -4 Y 28 Y 1 X 636 Y -529 Y 1 X -30 Y 6 Y -12 Y 3 Y -73 Y 7 Y -4 Y 2 Y -2 Y 2 Y -10 Y 1 X -9 Y 7 Y -22 Y 688 Y -328 Y 1 X -323 Y 1 X 2 Y -6 Y 2 Y -5 Y 2 Y -8 Y 4 Y -30 Y 638 Y 1 X 36 Y -575 Y 1 X 3 Y -59 Y 1 Y -21 Y 8 Y -21 Y
 1 Y -7 Y 1 X -1 Y 679 Y -489 Y 1 X -85 Y 3 Y -1 Y 2 Y -78 Y 5 Y -6 Y 3 Y 1 X -16 Y 6 Y -22 Y 2 Y -3 Y 708 Y -215 Y 1 X -392 Y 7 Y -54 Y 1 X -33 Y 11 Y -17 Y 3 Y -15 Y 406 Y 1 X 252 Y -559 Y 1 X -71 Y 4 Y -5 Y 5 Y -19 Y 1 X -13 Y 2 Y -2 Y 685 Y -419
 Y 1 X -171 Y 9 Y -65 Y 3 Y -22 Y 13 Y -5 Y 1 X -8 Y 4 Y -20 Y 685 Y -56 Y 1 X -552 Y 1 X -42 Y 4 Y -14 Y 5 Y -6 Y 6 Y -14 Y 4 Y -23 Y 6 Y -10 Y 69 Y 1 X 569 Y -514 Y 1 X -40 Y 12 Y -73 Y 5 Y -10 Y 7 Y 1 X -22 Y 6 Y -5 Y 667 Y -340 Y 1 X -234 Y 4 Y
 -67 Y 7 Y 1 X -14 Y 12 Y -44 Y 678 Y 1 X -565 Y 3 Y -3 Y 1 X -74 Y 3 Y -20 Y 4 Y -18 Y 1 X 649 Y -473 Y 1 X -81 Y 9 Y -54 Y 1 Y -19 Y 3 Y -15 Y 7 Y 1 X 1 Y -18 Y 2 Y -5 Y 1 Y -13 Y 641 Y -202 Y 1 X -342 Y 11 Y -55 Y 1 X -25 Y 8 Y -13 Y 5 Y -7 Y 4 Y
 -12 Y 3 Y -19 Y 382 Y 1 X 249 Y -535 Y 1 X 5 Y -66 Y 2 Y -13 Y 16 Y -11 Y 4 Y -13 Y 1 X -12 Y 646 Y -421 Y 1 X -141 Y 10 Y -68 Y 2 Y -1 Y 1 Y 1 X -11 Y 1 Y -10 Y 3 Y -11 Y 639 Y -72 Y 1 X -476 Y 3 Y -4 Y 2 Y -24 Y 1 X -43 Y 4 Y -9 Y 7 Y -14 Y 7 Y
 -24 Y 4 Y -4 Y 115 Y 1 X 541 Y -547 Y 1 X -12 Y 3 Y -8 Y 2 Y -66 Y 7 Y -4 Y 1 Y -7 Y 4 Y -14 Y 1 X 5 Y -20 Y 4 Y -7 Y 677 Y -348 Y 1 X -227 Y 5 Y -8 Y 7 Y -67 Y 1 X -5 Y 1 Y -8 Y 8 Y -7 Y 4 Y -32 Y 742 Y 1 X -630 Y 5 Y -9 Y 1 X -67 Y 3 Y -6 Y 3 Y -4
 Y 4 Y -13 Y 5 Y -21 Y 3 Y -5 Y 1 X 693 Y -528 Y 1 X -67 Y 8 Y -9 Y 2 Y -62 Y 3 Y -7 Y 5 Y -14 Y 5 Y -6 Y 1 X -20 Y 703 Y -264 Y 1 X -343 Y 7 Y -62 Y 1 X -13 Y 3 Y -14 Y 5 Y -12 Y 2 Y -15 Y 1 Y -1 Y 516 Y 1 X 178 Y -594 Y 1 X 6 Y -81 Y 1 Y -1 Y 5 Y
 -1 Y 1 Y -17 Y 1 X -12 Y 700 Y -466 Y 1 X -142 Y 5 Y -4 Y 1 Y -77 Y 11 Y 1 X -4 Y 4 Y -16 Y 2 Y -14 Y 687 Y -106 Y 1 X -485 Y 7 Y -28 Y 1 X -55 Y 16 Y -14 Y 10 Y -35 Y 8 Y -3 Y 156 Y 1 X 562 Y -610 Y 1 X -11 Y 4 Y -73 Y 1 Y -5 Y 8 Y -11 Y 4 Y -6 Y 1
 X -8 Y 2 Y -17 Y 649 Y -356 Y 1 X -198 Y 4 Y -70 Y 1 X -4 Y 3 Y -2 Y 6 Y -4 Y 3 Y -33 Y 8 Y -3 Y 716 Y 1 X -622 Y 4 Y -2 Y 6 Y 1 X -78 Y 7 Y -8 Y 4 Y -17 Y 7 Y -21 Y 10 Y 1 X 710 Y -548 Y 1 X -136 Y 3 Y -13 Y 3 Y -9 Y 11 Y -7 Y 1 X 4 Y -11 Y 10 Y
 -13 Y 3 Y -21 Y 716 Y -280 Y 1 X -332 Y 5 Y -62 Y 1 X -17 Y 14 Y -11 Y 6 Y -34 Y 530 Y 1 X 154 Y -585 Y 8 Y -5 Y 1 X 2 Y -76 Y 3 Y -8 Y 13 Y -13 Y 9 Y -22 Y 1 X -12 Y 748 Y -512 Y 1 X -137 Y 5 Y -1 Y 1 Y -77 Y 1 Y 1 X 4 Y -8 Y 1 Y -23 Y 681 Y -114 Y
 1 X -468 Y 12 Y -12 Y 2 Y -32 Y 1 X -47 Y 7 Y -5 Y 3 Y -3 Y 2 Y -22 Y 2 Y -10 Y 210 Y 1 X 527 Y -614 Y 1 X -20 Y 11 Y -74 Y 3 Y -14 Y 6 Y -9 Y 1 X -21 Y 737 Y -428 Y 1 X -208 Y 1 Y -3 Y 3 Y -72 Y 1 X -6 Y 6 Y -17 Y 4 Y -14 Y 698 Y 1 X -595 Y 3 Y -14
 Y 1 X -66 Y 7 Y -14 Y 3 Y -30 Y 16 Y 1 X 676 Y -545 Y 1 X -40 Y 6 Y -7 Y 5 Y -85 Y 15 Y -15 Y 2 Y 1 X -22 Y 648 Y -282 Y 1 X -253 Y 1 Y -22 Y 10 Y -6 Y 3 Y -67 Y 1 X -4 Y 3 Y -6 Y 2 Y -7 Y 2 Y -22 Y 535 Y 1 X 92 Y -536 Y 7 Y 1 X -66 Y 3 Y -16 Y 7 Y
 -9 Y 6 Y -11 Y 4 Y -16 Y 4 Y 1 X -9 Y 712 Y -491 Y 1 X -124 Y 11 Y -11 Y 1 Y -64 Y 6 Y -10 Y 3 Y -4 Y 1 X 6 Y -13 Y 2 Y -7 Y 3 Y -18 Y 679 Y -141 Y 1 X -435 Y 2 Y -9 Y 6 Y -36 Y 1 X -32 Y 4 Y -11 Y 3 Y -13 Y 6 Y -14 Y 2 Y -12 Y 268 Y 1 X 428 Y -595
 Y 1 X -8 Y 8 Y -69 Y 2 Y -3 Y 2 Y -8 Y 7 Y -9 Y 5 Y -12 Y 1 X -11 Y 1 Y -5 Y 5 Y -3 Y 668 Y -396 Y 1 X -174 Y 8 Y -79 Y 2 Y 1 X 1 Y -3 Y 2 Y -16 Y 6 Y -19 Y 1 Y -3 Y 636 Y -22 Y 1 X -526 Y 7 Y -12 Y 1 X -66 Y 13 Y -2 Y 3 Y -13 Y 4 Y -21 Y 7 Y 1 X
 458 Y -376 Y 1 X -24 Y 6 Y -39 Y 2 Y -13 Y 5 Y -13 Y 1 Y -6 Y 1 X 5 Y -15 Y 278 Y -121 Y 1 X -127 Y 4 Y -2 Y 6 Y -14 Y 1 Y -6 Y 1 X 6 Y -17 Y 1 Y -15 Y 2 Y -3 Y 3 Y -2 Y 2 Y -3 Y 11 Y -11 Y 82 Y 1 X 6 Y -16 Y 4 Y -72 Y 5 Y -10 Y 4 Y 1 X -4 Y 8 Y -5
 Y 10 Y -8 Y 11 Y -4 Y 11 Y -28 Y 2 Y -11 Y 5 Y -5 Y 11 Y 1 X 54 Y -35 Y 7 Y -15 Y 1 Y -3 Y 1 X -10 Y 8 Y -22 Y 9 Y -10 Y 30 Y -3 Y 4 Y -11 Y 3 Y -16 Y 1 X -12 Y 3 Y -6 Y 16 Y -4 Y 169 Y -48 Y 1 X -68 Y 4 Y -42 Y 3 Y -11 Y 4 Y -1 Y 1 Y -7 Y 5 Y 1 X
 17 Y -3 Y 5 Y -27 Y 2 Y -9 Y 1 Y -8 Y 11 Y -8 Y 149 Y 1 X 208 Y -284 Y 5 Y -24 Y 1 X -9 Y 4 Y -24 Y 10 Y -10 Y 2 Y -8 Y 5 Y -15 Y 7 Y 1 X -13 Y 2 Y -4 Y 510 Y -308 Y 1 X -128 Y 4 Y -40 Y 3 Y -10 Y 4 Y -4 Y 1 X -6 Y 5 Y -29 Y 653 Y -43 Y 1 X -511 Y 1
 Y -22 Y 1 X -41 Y 10 Y -8 Y 2 Y -15 Y 13 Y -12 Y 4 Y -24 Y 3 Y -2 Y 41 Y 1 X 622 Y -537 Y 1 X -25 Y 3 Y -75 Y 4 Y -7 Y 5 Y -2 Y 7 Y -6 Y 1 X 1 Y -36 Y 8 Y -5 Y 709 Y -337 Y 1 X -260 Y 9 Y -11 Y 8 Y -75 Y 1 X -6 Y 3 Y -3 Y 1 Y -6 Y 15 Y -44 Y 670 Y 1
 X 43 Y -601 Y 3 Y 1 X -72 Y 3 Y -15 Y 10 Y -12 Y 14 Y -17 Y 13 Y -28 Y 7 Y 1 X -2 Y 676 Y -500 Y 1 X -76 Y 5 Y -79 Y 9 Y -17 Y 8 Y -3 Y 1 X -7 Y 12 Y -29 Y 2 Y -3 Y 697 Y -212 Y 1 X -384 Y 5 Y -5 Y 12 Y -59 Y 1 X -22 Y 1 Y -9 Y 6 Y -27 Y 399 Y 1 X
 300 Y -585 Y 1 Y -18 Y 1 X 5 Y -78 Y 12 Y -11 Y 3 Y -3 Y 1 Y -25 Y 1 X 4 Y -6 Y 665 Y -421 Y 1 X -143 Y 6 Y -73 Y 1 Y -6 Y 1 X 6 Y -4 Y 4 Y -11 Y 3 Y -28 Y 673 Y -58 Y 1 X -507 Y 4 Y -14 Y 6 Y -21 Y 1 X -56 Y 7 Y -2 Y 3 Y -12 Y 14 Y -14 Y 8 Y -20 Y
 4 Y -15 Y 72 Y 1 X 603 Y -552 Y 1 X -22 Y 6 Y -74 Y 2 Y -10 Y 6 Y -5 Y 1 X -23 Y 625 Y -305 Y 1 X -219 Y 1 Y -11 Y 6 Y -76 Y 1 X 7 Y -5 Y 5 Y -2 Y 2 Y -23 Y 628 Y 1 X 2 Y -537 Y 5 Y -4 Y 1 X -75 Y 1 Y -8 Y 5 Y -1 Y 6 Y -3 Y 8 Y -8 Y 1 Y -21 Y 1 X
 632 Y -471 Y 1 X -68 Y 8 Y -89 Y 6 Y -3 Y 5 Y -2 Y 1 X 6 Y -4 Y 3 Y -26 Y 650 Y -206 Y 1 X -352 Y 7 Y -56 Y 1 X -26 Y 13 Y -13 Y 2 Y -15 Y 6 Y -7 Y 490 Y 1 X 205 Y -593 Y 3 Y 1 X -3 Y 10 Y -94 Y 7 Y -1 Y 7 Y -7 Y 1 Y -17 Y 1 X -7 Y 3 Y -4 Y 685 Y
 -457 Y 1 X -134 Y 7 Y -78 Y 1 Y 1 X -5 Y 11 Y -6 Y 3 Y -27 Y 2 Y -2 Y 666 Y -82 Y 1 X -494 Y 9 Y -22 Y 1 X -61 Y 14 Y -8 Y 8 Y -17 Y 2 Y -18 Y 94 Y 1 X 554 Y -533 Y 1 X -76 Y 1 Y -9 Y 2 Y -10 Y 1 X -8 Y 10 Y -18 Y 623 Y -326 Y 1 X -204 Y 4 Y -11 Y 3
 Y -60 Y 1 X -8 Y 7 Y -16 Y 2 Y -14 Y 6 Y -7 Y 661 Y 1 X -574 Y 16 Y 1 X -77 Y 1 Y -6 Y 6 Y -6 Y 1 Y -27 Y 5 Y 1 X 695 Y -553 Y 1 X -44 Y 3 Y -4 Y 4 Y -80 Y 10 Y -6 Y 4 Y -6 Y 1 X 4 Y -14 Y 6 Y -25 Y 675 Y -234 Y 1 X -333 Y 1 Y -66 Y 1 X -11 Y 1 Y -6
 Y 1 Y -24 Y 6 Y -2 Y 473 Y 1 X 146 Y -532 Y 1 X -2 Y 1 Y -71 Y 6 Y -5 Y 7 Y -15 Y 7 Y -12 Y 1 X -9 Y 635 Y -411 Y 1 X -135 Y 4 Y -58 Y 2 Y -16 Y 6 Y 1 X -6 Y 2 Y -21 Y 6 Y -1 Y 631 Y -105 Y 1 X -440 Y 2 Y -35 Y 1 X -32 Y 5 Y -15 Y 8 Y -7 Y 4 Y -22 Y
 151 Y 1 X 505 Y -555 Y 1 X -19 Y 14 Y -70 Y 5 Y -15 Y 1 X -14 Y 6 Y -8 Y 615 Y -332 Y 1 X -186 Y 11 Y -15 Y 5 Y -70 Y 1 X 2 Y -5 Y 2 Y -3 Y 3 Y -13 Y 5 Y -16 Y 646 Y 1 X -560 Y 8 Y -7 Y 1 X -68 Y 8 Y -33 Y 10 Y 1 X 697 Y -565 Y 1 X -45 Y 7 Y -69 Y 7
 Y -10 Y 2 Y -3 Y 1 X -22 Y 1 Y -6 Y 692 Y -278 Y 1 X -318 Y 7 Y -67 Y 1 X -14 Y 7 Y -5 Y 7 Y -19 Y 11 Y -23 Y 544 Y 1 X 176 Y -616 Y 5 Y 1 X -6 Y 1 Y -77 Y 4 Y -4 Y 5 Y -7 Y 2 Y -16 Y 1 X 1 Y -9 Y 663 Y -461 Y 1 X -109 Y 4 Y -8 Y 4 Y -69 Y 1 Y -2 Y
 1 X 3 Y -6 Y 7 Y -28 Y 686 Y -152 Y 1 X -444 Y 8 Y -30 Y 1 X -36 Y 2 Y -13 Y 9 Y -8 Y 12 Y -11 Y 3 Y -9 Y 3 Y -15 Y 5 Y -11 Y 199 Y 1 X 476 Y -568 Y 1 X -13 Y 11 Y -79 Y 6 Y -11 Y 5 Y -12 Y 8 Y -12 Y 1 X 3 Y -21 Y 716 Y -415 Y 1 X -264 Y 1 X 5 Y -36
 Y 693 Y -13 Y 1 X -574 Y 5 Y -12 Y 1 X -68 Y 8 Y -14 Y 9 Y -11 Y 5 Y -13 Y 2 Y -15 Y 5 Y -1 Y 5 Y 1 X 731 Y -600 Y 1 X -24 Y 2 Y -19 Y 10 Y -20 Y 4 Y -67 Y 2 Y -5 Y 1 X -26 Y 698 Y -296 Y 1 X -297 Y 5 Y -6 Y 6 Y -74 Y 1 X 1 Y -8 Y 3 Y -7 Y 8 Y -8 Y
 2 Y -10 Y 5 Y -13 Y 610 Y 1 X 86 Y -595 Y 1 X 1 Y -78 Y 8 Y -4 Y 1 Y -8 Y 7 Y -33 Y 1 X -1 Y 691 Y -491 Y 1 X -96 Y 3 Y -5 Y 11 Y -83 Y 5 Y -11 Y 6 Y 1 X 4 Y -14 Y 2 Y -20 Y 5 Y -10 Y 716 Y -158 Y 1 X -445 Y 3 Y -45 Y 1 X -34 Y 2 Y -9 Y 8 Y -10 Y 1
 Y -12 Y 10 Y -19 Y 234 Y 1 X 480 Y -600 Y 1 X -89 Y 9 Y -13 Y 5 Y -3 Y 5 Y -17 Y 1 X 2 Y -15 Y 703 Y -424 Y 1 X -183 Y 4 Y -78 Y 1 X 5 Y -6 Y 6 Y -8 Y 7 Y -24 Y 669 Y -16 Y 1 X -558 Y 3 Y -4 Y 3 Y -5 Y 1 X -64 Y 1 Y -4 Y 3 Y -15 Y 3 Y -16 Y 29 Y 1 X
 653 Y -554 Y 1 X -26 Y 2 Y -82 Y 9 Y -5 Y 1 Y 1 X -14 Y 1 Y -13 Y 4 Y -4 Y 665 Y -306 Y 1 X -266 Y 15 Y -75 Y 6 Y 1 X -18 Y 7 Y -16 Y 5 Y -17 Y 12 Y -16 Y 605 Y 1 X 57 Y -565 Y 4 Y -8 Y 1 X 5 Y -64 Y 2 Y -16 Y 9 Y -7 Y 6 Y -24 Y 4 Y 1 X -12 Y 670 Y
 -493 Y 1 X -79 Y 3 Y -68 Y 3 Y -4 Y 4 Y -4 Y 1 X -4 Y 3 Y -33 Y 663 Y -183 Y 1 X -377 Y 2 Y -56 Y 1 X -10 Y 1 Y -10 Y 3 Y -7 Y 4 Y -20 Y 5 Y -2 Y 338 Y 1 X 327 Y -571 Y 1 X -4 Y 2 Y -66 Y 9 Y -15 Y 7 Y -22 Y 1 X -10 Y 662 Y -413 Y 1 X -124 Y 4 Y -32
 Y 2 Y -73 Y 1 X 1 Y -6 Y 5 Y -7 Y 3 Y -21 Y 702 Y -47 Y 1 X -557 Y 3 Y -12 Y 1 X -59 Y 1 Y -9 Y 8 Y -12 Y 9 Y -10 Y 5 Y -23 Y 46 Y 1 X 656 Y -576 Y 1 X -26 Y 1 Y -82 Y 13 Y -14 Y 11 Y -5 Y 1 X -22 Y 721 Y -356 Y 1 X -259 Y 3 Y -13 Y 2 Y -69 Y 1 X -3
 Y 5 Y -5 Y 8 Y -12 Y 8 Y -16 Y 10 Y -22 Y 636 Y 1 X 50 Y -590 Y 7 Y -4 Y 1 X 3 Y -80 Y 8 Y -9 Y 6 Y -5 Y 8 Y -29 Y 3 Y -3 Y 1 X 681 Y -522 Y 1 X -64 Y 3 Y -6 Y 4 Y -72 Y 5 Y -12 Y 8 Y 1 X -7 Y 2 Y -7 Y 6 Y -27 Y 679 Y -220 Y 1 X -359 Y 6 Y -51 Y 1 X
 -18 Y 3 Y -15 Y 2 Y -9 Y 4 Y -17 Y 4 Y -12 Y 397 Y 1 X 293 Y -583 Y 1 X -5 Y 8 Y -78 Y 3 Y -2 Y 2 Y -11 Y 8 Y -16 Y 1 Y 1 X -5 Y 699 Y -449 Y 1 X -158 Y 8 Y -80 Y 1 X -1 Y 9 Y -32 Y 673 Y -71 Y 1 X -505 Y 3 Y -8 Y 12 Y -29 Y 1 X -50 Y 5 Y -29 Y 75 Y
 1 X 621 Y -578 Y 1 X -18 Y 4 Y -1 Y 1 Y -79 Y 3 Y -6 Y 10 Y -13 Y 2 Y 1 X -20 Y 3 Y -3 Y 662 Y -341 Y 1 X -234 Y 2 Y -63 Y 1 X -3 Y 5 Y -5 Y 3 Y -16 Y 4 Y -23 Y 664 Y 1 X -562 Y 8 Y -11 Y 1 X -60 Y 1 Y -12 Y 11 Y -31 Y 2 Y 1 X 640 Y -497 Y 1 X -50 Y
 4 Y -78 Y 3 Y -5 Y 6 Y 1 X -8 Y 6 Y -20 Y 3 Y -4 Y 636 Y -237 Y 1 X -318 Y 9 Y -55 Y 1 X -13 Y 1 Y -5 Y 3 Y -4 Y 4 Y -10 Y 5 Y -24 Y 450 Y 1 X 199 Y -555 Y 1 Y 1 X -5 Y 8 Y -65 Y 7 Y -15 Y 6 Y -6 Y 7 Y -11 Y 2 Y -8 Y 5 Y -13 Y 1 X 6 Y -12 Y 664 Y
 -440 Y 1 X -131 Y 2 Y -73 Y 6 Y 1 X -2 Y 2 Y -20 Y 4 Y -11 Y 659 Y -86 Y 1 X -503 Y 1 X -49 Y 10 Y -5 Y 1 Y -8 Y 1 Y -21 Y 89 Y 1 X 566 Y -545 Y 1 X -17 Y 2 Y -6 Y 3 Y -62 Y 6 Y -10 Y 6 Y -7 Y 10 Y -23 Y 1 X -6 Y 4 Y -13 Y 660 Y -345 Y 1 X -217 Y 2
 Y -5 Y 2 Y -63 Y 4 Y 1 X -11 Y 4 Y -3 Y 3 Y -6 Y 1 Y -18 Y 3 Y -8 Y 682 Y 1 X -586 Y 5 Y -12 Y 1 X -58 Y 5 Y -9 Y 2 Y -3 Y 7 Y -8 Y 4 Y -33 Y 1 X 673 Y -530 Y 1 X -39 Y 5 Y -78 Y 9 Y -13 Y 12 Y -7 Y 1 X 4 Y -11 Y 7 Y -26 Y 717 Y -271 Y 1 X -351 Y 15
 Y -68 Y 1 X -18 Y 10 Y -5 Y 8 Y -8 Y 4 Y -19 Y 7 Y -20 Y 532 Y 1 X 150 Y -582 Y 7 Y 1 X -12 Y 5 Y -73 Y 2 Y -8 Y 7 Y -9 Y 1 Y -18 Y 1 X 2 Y -2 Y 665 Y -472 Y 1 X -101 Y 4 Y -73 Y 8 Y -7 Y 1 X 2 Y -4 Y 4 Y -7 Y 1 Y -12 Y 3 Y -12 Y 676 Y -121 Y 1 X
 -458 Y 13 Y -29 Y 1 X -56 Y 9 Y -30 Y 166 Y 1 X 554 Y -617 Y 1 X 6 Y -15 Y 4 Y -69 Y 3 Y -9 Y 4 Y -15 Y 7 Y 1 X -15 Y 2 Y -11 Y 468 Y -263 Y 1 X -138 Y 2 Y -2 Y 2 Y -6 Y 2 Y -43 Y 1 X -13 Y 10 Y -3 Y 9 Y -20 Y 14 Y -20 Y 8 Y -12 Y 315 Y 1 X -273 Y 3
 Y 1 X -15 Y 4 Y -21 Y 5 Y -18 Y 4 Y -6 Y 1 Y -1 Y 8 Y -4 Y 2 Y 1 X -4 Y 146 Y -26 Y 2 Y -90 Y 1 Y -15 Y 4 Y 1 X -24 Y 10 Y -2 Y 5 Y -5 Y 2 Y -1 Y 8 Y -14 Y 1 Y -13 Y 1 X -18 Y 18 Y -9 Y 8 Y -4 Y 103 Y -15 Y 2 Y -28 Y 1 X -30 Y 2 Y -18 Y 3 Y -17 Y 4
 Y -2 Y 10 Y -1 Y 1 X 4 Y -8 Y 1 Y -17 Y 1 Y -10 Y 9 Y -1 Y 257 Y 1 X 69 Y -290 Y 3 Y 1 X -14 Y 2 Y -2 Y 6 Y -2 Y 1 Y -7 Y 3 Y -24 Y 4 Y -5 Y 1 X -3 Y 449 Y -320 Y 1 X -80 Y 5 Y -24 Y 1 Y -13 Y 14 Y 1 X -9 Y 1 Y -5 Y 5 Y -28 Y 629 Y -127 Y 1 X -407 Y
 4 Y -36 Y 1 X -26 Y 3 Y -6 Y 11 Y -10 Y 1 Y -32 Y 191 Y 1 X 478 Y -551 Y 1 X -85 Y 5 Y -2 Y 1 Y -3 Y 10 Y -13 Y 15 Y -18 Y 1 X -20 Y 684 Y -379 Y 1 X -195 Y 8 Y -87 Y 6 Y -5 Y 1 X -4 Y 11 Y -28 Y 3 Y -14 Y 668 Y -2 Y 1 X -559 Y 6 Y -1 Y 1 Y -18 Y 1
 X -59 Y 3 Y -7 Y 8 Y -7 Y 6 Y -6 Y 2 Y -31 Y 11 Y 1 X 658 Y -533 Y 1 X -31 Y 7 Y -83 Y 11 Y -4 Y 2 Y -4 Y 1 X 1 Y -27 Y 646 Y -273 Y 1 X -273 Y 5 Y -73 Y 1 X -10 Y 14 Y -10 Y 3 Y -6 Y 8 Y -32 Y 579 Y 1 X 82 Y -564 Y 1 Y 1 X 4 Y -75 Y 2 Y -7 Y 3 Y -9
 Y 1 Y -14 Y 1 X -2 Y 663 Y -493 Y 1 X -77 Y 7 Y -79 Y 9 Y 1 X -14 Y 8 Y -5 Y 4 Y -19 Y 643 Y -167 Y 1 X -393 Y 14 Y -49 Y 1 X -24 Y 6 Y -6 Y 4 Y -9 Y 4 Y -24 Y 235 Y 1 X 391 Y -526 Y 1 X -22 Y 4 Y -53 Y 3 Y -9 Y 9 Y -5 Y 1 Y -15 Y 1 X -8 Y 2 Y -5 Y
 613 Y -374 Y 1 X -157 Y 10 Y -12 Y 4 Y -61 Y 1 X -6 Y 11 Y -11 Y 1 Y -12 Y 1 Y -8 Y 639 Y -16 Y 1 X -537 Y 10 Y -11 Y 1 X -62 Y 5 Y -5 Y 3 Y -6 Y 8 Y -24 Y 3 Y -1 Y 22 Y 1 X 633 Y -532 Y 1 X -33 Y 9 Y -87 Y 8 Y -2 Y 4 Y -4 Y 1 X -7 Y 3 Y -12 Y 4 Y
 -10 Y 693 Y -318 Y 1 X -272 Y 1 Y -2 Y 1 Y -73 Y 1 X -8 Y 14 Y -5 Y 5 Y -29 Y 666 Y 1 X 30 Y -606 Y 20 Y 1 X -99 Y 12 Y -1 Y 1 Y -7 Y 3 Y -19 Y 3 Y 1 X 624 Y -480 Y 1 X -58 Y 3 Y -6 Y 18 Y -98 Y 18 Y -8 Y 7 Y 1 X -4 Y 8 Y -30 Y 3 Y -5 Y 624 Y -170 Y
 1 X -361 Y 2 Y -47 Y 1 X -28 Y 1 Y -4 Y 10 Y -10 Y 4 Y -8 Y 3 Y -21 Y 289 Y 1 X 293 Y -487 Y 1 X -5 Y 6 Y -68 Y 5 Y -11 Y 7 Y -12 Y 1 Y -9 Y 1 X -9 Y 572 Y -381 Y 1 X -105 Y 10 Y -17 Y 1 Y -47 Y 5 Y -8 Y 1 X -6 Y 5 Y -21 Y 4 Y -7 Y 579 Y -49 Y 1 X
 -453 Y 7 Y -22 Y 1 X -40 Y 10 Y -6 Y 2 Y -12 Y 11 Y -9 Y 4 Y -11 Y 4 Y -11 Y 1 Y -9 Y 22 Y 1 X 577 Y -495 Y 1 X -20 Y 5 Y -64 Y 9 Y -11 Y 5 Y -16 Y 1 X 1 Y -5 Y 3 Y -12 Y 646 Y -318 Y 1 X -235 Y 11 Y -71 Y 1 X 3 Y -10 Y 7 Y -13 Y 2 Y -20 Y 651 Y 1 X
 20 Y -571 Y 3 Y -5 Y 1 X -68 Y 3 Y -8 Y 7 Y -7 Y 7 Y -29 Y 1 X -4 Y 721 Y -555 Y 1 X -70 Y 7 Y -79 Y 5 Y -9 Y 10 Y -5 Y 1 X 1 Y -1 Y 1 Y -2 Y 1 Y -17 Y 5 Y -21 Y 668 Y -214 Y 1 X -343 Y 2 Y -3 Y 5 Y -54 Y 1 X -26 Y 10 Y -13 Y 8 Y -29 Y 408 Y 1 X 285
 Y -595 Y 1 X 7 Y -56 Y 1 Y -19 Y 3 Y -2 Y 1 Y -9 Y 6 Y -23 Y 1 X -5 Y 651 Y -459 Y 1 X -100 Y 1 Y -4 Y 1 Y -66 Y 4 Y 1 X -5 Y 6 Y -12 Y 6 Y -3 Y 3 Y -24 Y 651 Y -64 Y 1 X -479 Y 5 Y -35 Y 1 X -58 Y 4 Y -25 Y 75 Y 1 X 637 Y -591 Y 1 X -30 Y 9 Y -69 Y
 6 Y -12 Y 4 Y -4 Y 4 Y -9 Y 3 Y 1 X -13 Y 2 Y -10 Y 663 Y -356 Y 1 X -217 Y 4 Y -70 Y 1 X 8 Y -9 Y 4 Y -32 Y 674 Y 1 X -575 Y 8 Y -14 Y 1 X -62 Y 1 Y -4 Y 6 Y -10 Y 2 Y -17 Y 6 Y -15 Y 8 Y 1 X 632 Y -502 Y 1 X -42 Y 3 Y -74 Y 7 Y -9 Y 6 Y 1 X -4 Y 7
 Y -23 Y 639 Y -231 Y 1 X -322 Y 2 Y -51 Y 1 X -17 Y 6 Y -6 Y 8 Y -12 Y 1 Y -20 Y 419 Y 1 X 204 Y -532 Y 1 X 5 Y -69 Y 4 Y -10 Y 4 Y -6 Y 3 Y -13 Y 1 X -13 Y 646 Y -450 Y 1 X -101 Y 4 Y -67 Y 1 Y -7 Y 8 Y -3 Y 1 X -3 Y 11 Y -20 Y 8 Y -23 Y 6 Y -8 Y
 636 Y -103 Y 1 X -427 Y 3 Y -20 Y 8 Y -25 Y 1 X -47 Y 3 Y -6 Y 9 Y -11 Y 8 Y -23 Y 3 Y -4 Y 130 Y 1 X 516 Y -543 Y 1 X -14 Y 8 Y -81 Y 7 Y -2 Y 11 Y -12 Y 4 Y -6 Y 1 X -21 Y 630 Y -336 Y 1 X -203 Y 1 Y -4 Y 4 Y -72 Y 10 Y 1 X -13 Y 11 Y -7 Y 5 Y -23
 Y 661 Y 1 X -575 Y 11 Y -4 Y 1 Y 1 X -73 Y 4 Y -2 Y 4 Y -9 Y 3 Y -22 Y 3 Y -1 Y 1 X 647 Y -510 Y 1 X -45 Y 10 Y -5 Y 2 Y -69 Y 1 Y -17 Y 13 Y -10 Y 2 Y 1 X -20 Y 1 Y -4 Y 663 Y -255 Y 1 X -307 Y 1 Y -7 Y 2 Y -9 Y 5 Y -57 Y 1 X 5 Y -7 Y 1 Y -5 Y 2 Y
 -6 Y 2 Y -5 Y 1 Y -15 Y 10 Y -12 Y 514 Y 1 X 146 Y -571 Y 1 X 8 Y -75 Y 1 Y -10 Y 7 Y -4 Y 7 Y -27 Y 1 X -1 Y 630 Y -455 Y 1 X -86 Y 1 Y -2 Y 9 Y -63 Y 3 Y -13 Y 1 X 5 Y -9 Y 5 Y -16 Y 8 Y -17 Y 602 Y -111 Y 1 X -409 Y 13 Y -37 Y 1 X -29 Y 1 Y -7 Y
 2 Y -3 Y 3 Y -8 Y 7 Y -26 Y 139 Y 1 X 489 Y -530 Y 1 X -8 Y 2 Y -72 Y 17 Y -17 Y 3 Y 1 X -25 Y 641 Y -396 Y 1 X -155 Y 5 Y -65 Y 1 X -7 Y 6 Y -7 Y 5 Y -10 Y 6 Y -18 Y 612 Y 1 X -527 Y 1 X -66 Y 5 Y -2 Y 1 Y -26 Y 7 Y 1 X 644 Y -516 Y 1 X -37 Y 5 Y
 -77 Y 9 Y -4 Y 2 Y -17 Y 1 X 10 Y -15 Y 5 Y -17 Y 645 Y -267 Y 1 X -277 Y 2 Y -63 Y 1 X -20 Y 12 Y -9 Y 1 Y -22 Y 565 Y 1 X 114 Y -584 Y 1 X 7 Y -84 Y 4 Y -1 Y 5 Y -7 Y 3 Y -17 Y 1 X -8 Y 700 Y -517 Y 1 X -92 Y 15 Y -79 Y 4 Y -3 Y 1 X 1 Y -5 Y 8 Y
 -21 Y 3 Y -12 Y 651 Y -149 Y 1 X -402 Y 4 Y -51 Y 1 X -21 Y 4 Y -4 Y 2 Y -9 Y 6 Y -8 Y 3 Y -24 Y 183 Y 1 X 500 Y -577 Y 1 X -8 Y 5 Y -77 Y 3 Y -12 Y 11 Y -4 Y 5 Y -16 Y 1 X 2 Y -17 Y 625 Y -389 Y 1 X -140 Y 1 Y -5 Y 1 Y -66 Y 7 Y 1 X -8 Y 6 Y -9 Y 2
 Y -7 Y 3 Y -22 Y 16 Y -13 Y 670 Y -12 Y 1 X -555 Y 1 Y -4 Y 9 Y -19 Y 1 X -65 Y 1 Y -5 Y 4 Y -10 Y 8 Y -18 Y 2 Y -7 Y 13 Y 1 X 642 Y -528 Y 1 X -38 Y 15 Y -76 Y 6 Y -11 Y 7 Y -8 Y 1 X -1 Y 2 Y -18 Y 8 Y -12 Y 668 Y -298 Y 1 X -273 Y 1 Y -24 Y 3 Y
 -43 Y 1 X -4 Y 3 Y -6 Y 2 Y -10 Y 10 Y -31 Y 575 Y 1 X 87 Y -566 Y 5 Y 1 X -64 Y 1 Y -16 Y 7 Y -31 Y 1 X 646 Y -475 Y 1 X -68 Y 1 Y -12 Y 9 Y -13 Y 1 Y -56 Y 2 Y -6 Y 4 Y -2 Y 1 X -11 Y 2 Y -20 Y 678 Y -181 Y 1 X -393 Y 2 Y -9 Y 2 Y -36 Y 1 X -31 Y
 6 Y -16 Y 9 Y -12 Y 7 Y -4 Y 8 Y -32 Y 292 Y 1 X 380 Y -572 Y 8 Y 1 X -7 Y 4 Y -67 Y 1 Y -15 Y 7 Y -3 Y 12 Y -21 Y 4 Y -7 Y 1 X -5 Y 1 Y -8 Y 665 Y -436 Y 1 X -137 Y 6 Y -68 Y 4 Y -11 Y 1 X 7 Y -11 Y 1 Y -13 Y 2 Y -5 Y 702 Y -59 Y 1 X -550 Y 4 Y -1
 Y 1 Y -19 Y 1 X -54 Y 5 Y -4 Y 3 Y -1 Y 4 Y -14 Y 11 Y -26 Y 1 Y -3 Y 31 Y 1 X 658 Y -567 Y 1 X -26 Y 8 Y -80 Y 7 Y -15 Y 1 X 5 Y -22 Y 693 Y -324 Y 1 X -266 Y 2 Y -68 Y 1 X -16 Y 8 Y -6 Y 4 Y -10 Y 1 Y -17 Y 595 Y 1 X 48 Y -547 Y 5 Y 1 X -73 Y 5 Y
 -13 Y 8 Y -16 Y 3 Y -15 Y 6 Y 1 X -2 Y 669 Y -515 Y 1 X -53 Y 3 Y -9 Y 2 Y -1 Y 1 Y -77 Y 5 Y -5 Y 1 X 4 Y -9 Y 1 Y -13 Y 2 Y -11 Y 675 Y -206 Y 1 X -372 Y 5 Y -50 Y 1 X -29 Y 9 Y -12 Y 3 Y -13 Y 6 Y -13 Y 307 Y 1 X 311 Y -532 Y 1 X 2 Y -67 Y 6 Y -8
 Y 4 Y -2 Y 2 Y -16 Y 1 X -16 Y 700 Y -474 Y 1 X -125 Y 8 Y -8 Y 7 Y -73 Y 1 X 1 Y -17 Y 7 Y -16 Y 663 Y -79 Y 1 X -497 Y 6 Y -19 Y 1 X -48 Y 2 Y -6 Y 7 Y -13 Y 2 Y -26 Y 71 Y 1 X 610 Y -554 Y 1 X -24 Y 10 Y -77 Y 1 Y -6 Y 5 Y -6 Y 5 Y -10 Y 5 Y -2 Y
 1 X -23 Y 5 Y -16 Y 664 Y -362 Y 1 X -201 Y 12 Y -3 Y 5 Y -75 Y 1 X 5 Y -9 Y 5 Y -11 Y 2 Y -22 Y 646 Y 1 X 21 Y -564 Y 3 Y -3 Y 1 X -70 Y 1 Y -8 Y 4 Y -3 Y 3 Y -3 Y 1 Y -11 Y 3 Y -16 Y 1 X 639 Y -494 Y 1 X -48 Y 1 Y -6 Y 2 Y -79 Y 11 Y -4 Y 1 X 1 Y
 -12 Y 3 Y -11 Y 660 Y -220 Y 1 X -355 Y 11 Y -51 Y 1 X -18 Y 1 Y -9 Y 8 Y -12 Y 6 Y -16 Y 6 Y -14 Y 404 Y 1 X 242 Y -547 Y 1 X -6 Y 1 Y -63 Y 3 Y -11 Y 6 Y -12 Y 5 Y -3 Y 2 Y -5 Y 4 Y -16 Y 5 Y 1 X -9 Y 610 Y -433 Y 1 X -97 Y 3 Y -7 Y 5 Y -53 Y 1 Y
 -10 Y 1 Y 1 X -3 Y 6 Y -31 Y 12 Y -8 Y 422 Y -42 Y 1 X -317 Y 1 Y -5 Y 1 Y -10 Y 1 X -32 Y 5 Y -13 Y 4 Y -12 Y 4 Y -7 Y 6 Y -4 Y 29 Y 1 X 236 Y -233 Y 3 Y 1 X -7 Y 5 Y -6 Y 10 Y -24 Y 8 Y -16 Y 1 Y -17 Y 8 Y -8 Y 5 Y -2 Y 1 X 5 Y -12 Y 11 Y -7 Y 83
 Y -18 Y 2 Y -42 Y 1 X -33 Y 9 Y -12 Y 12 Y -3 Y 21 Y -15 Y 8 Y 1 X -20 Y 1 Y -11 Y 6 Y -4 Y 2 Y -1 Y 9 Y -9 Y 96 Y 1 X -90 Y 3 Y -2 Y 1 X -3 Y 6 Y -3 Y 20 Y -35 Y 3 Y -13 Y 18 Y -5 Y 1 X 376 Y -290 Y 1 X -18 Y 2 Y -34 Y 6 Y -9 Y 2 Y -8 Y 2 Y -9 Y 4
 Y -13 Y 1 X -20 Y 584 Y -217 Y 1 X -285 Y 8 Y -47 Y 1 X 1 Y -3 Y 5 Y -12 Y 6 Y -9 Y 6 Y -25 Y 9 Y -8 Y 415 Y 1 X 247 Y -558 Y 1 X 5 Y -72 Y 2 Y -15 Y 10 Y -9 Y 11 Y -24 Y 1 X -8 Y 632 Y -445 Y 1 X -90 Y 4 Y -75 Y 3 Y 1 X 7 Y -9 Y 8 Y -30 Y 6 Y -3 Y
 644 Y -84 Y 1 X -466 Y 7 Y -28 Y 1 X -44 Y 3 Y -14 Y 15 Y -4 Y 5 Y -37 Y 119 Y 1 X 545 Y -524 Y 1 Y -35 Y 1 X 2 Y -73 Y 1 Y -5 Y 8 Y -12 Y 4 Y 1 X -29 Y 630 Y -374 Y 1 X -154 Y 3 Y -3 Y 3 Y -73 Y 9 Y -12 Y 1 X 1 Y -3 Y 8 Y -10 Y 4 Y -29 Y 602 Y 1 X
 -512 Y 4 Y -6 Y 1 X 2 Y -57 Y 3 Y -5 Y 4 Y -10 Y 4 Y -21 Y 1 Y 1 X 614 Y -489 Y 1 X -41 Y 6 Y -11 Y 5 Y -67 Y 10 Y -10 Y 11 Y -14 Y 1 X 7 Y -22 Y 7 Y -13 Y 631 Y -228 Y 1 X -311 Y 3 Y -2 Y 1 Y -47 Y 1 X -23 Y 7 Y -4 Y 8 Y -16 Y 2 Y -18 Y 512 Y 1 X
 183 Y -598 Y 2 Y 1 X -10 Y 3 Y -62 Y 5 Y -5 Y 4 Y -10 Y 7 Y -23 Y 5 Y 1 X -9 Y 656 Y -476 Y 1 X -88 Y 5 Y -73 Y 11 Y 1 X -21 Y 5 Y -17 Y 669 Y -128 Y 1 X -447 Y 9 Y -37 Y 1 X -46 Y 4 Y -6 Y 12 Y -12 Y 4 Y -26 Y 178 Y 1 X 489 Y -559 Y 1 X -13 Y 15 Y
 -82 Y 4 Y -6 Y 9 Y -10 Y 7 Y -11 Y 1 X -19 Y 649 Y -414 Y 1 X -143 Y 9 Y -88 Y 7 Y 1 X 10 Y -5 Y 2 Y -7 Y 1 Y -23 Y 689 Y 1 X -583 Y 1 Y -1 Y 5 Y 1 X -97 Y 4 Y -4 Y 16 Y -1 Y 2 Y -10 Y 3 Y -6 Y 3 Y -15 Y 15 Y 1 X 630 Y -513 Y 1 X -39 Y 4 Y -73 Y 1 Y
 -10 Y 11 Y -1 Y 1 Y 1 X -8 Y 4 Y -11 Y 1 Y -5 Y 622 Y -316 Y 1 X -230 Y 9 Y -5 Y 6 Y -68 Y 1 X -5 Y 2 Y -3 Y 5 Y -28 Y 600 Y 1 X 98 Y -592 Y 7 Y 1 X -69 Y 2 Y -17 Y 4 Y -9 Y 8 Y -9 Y 7 Y -9 Y 4 Y -21 Y 1 X 672 Y -501 Y 1 X -47 Y 3 Y -26 Y 1 Y -9 Y 8
 Y -76 Y 6 Y -6 Y 1 X -5 Y 1 Y -20 Y 716 Y -174 Y 1 X -443 Y 5 Y -40 Y 1 X -37 Y 4 Y -20 Y 4 Y -17 Y 258 Y 1 X 400 Y -528 Y 2 Y -35 Y 1 X 5 Y -75 Y 7 Y -12 Y 1 Y -6 Y 1 X -10 Y 637 Y -425 Y 1 X -125 Y 4 Y -73 Y 1 X 8 Y -8 Y 6 Y -5 Y 2 Y -5 Y 4 Y -26
 Y 603 Y -12 Y 1 X -503 Y 1 Y -5 Y 1 X -61 Y 3 Y -9 Y 13 Y -6 Y 6 Y -14 Y 7 Y -11 Y 3 Y -13 Y 12 Y 1 X 657 Y -550 Y 1 X -32 Y 6 Y -26 Y 5 Y -56 Y 11 Y -6 Y 1 Y -4 Y 7 Y -4 Y 1 X -23 Y 663 Y -356 Y 1 X -213 Y 5 Y -50 Y 1 X -22 Y 8 Y -3 Y 4 Y -9 Y 7 Y
 -16 Y 5 Y -21 Y 555 Y 1 X 57 Y -522 Y 2 Y 1 X 1 Y -73 Y 10 Y -7 Y 4 Y -3 Y 2 Y -20 Y 1 Y 1 X -6 Y 637 Y -482 Y 1 X -61 Y 1 Y -11 Y 10 Y -69 Y 4 Y -10 Y 9 Y -1 Y 1 X -9 Y 2 Y -27 Y 637 Y -167 Y 1 X -380 Y 7 Y -40 Y 1 X -33 Y 10 Y -9 Y 3 Y -21 Y 6 Y
 -10 Y 313 Y 1 X 342 Y -560 Y 2 Y 1 X 4 Y -8 Y 1 Y -69 Y 11 Y -12 Y 6 Y -22 Y 1 X 2 Y -7 Y 626 Y -420 Y 1 X -116 Y 6 Y -1 Y 7 Y -70 Y 2 Y -6 Y 6 Y -7 Y 1 X -10 Y 6 Y -5 Y 4 Y -30 Y 626 Y -34 Y 1 X -506 Y 1 X -57 Y 6 Y -9 Y 5 Y -16 Y 5 Y -15 Y 29 Y 1
 X 525 Y -449 Y 1 X -27 Y 3 Y -1 Y 4 Y -59 Y 5 Y -14 Y 7 Y -5 Y 7 Y -6 Y 4 Y 1 X -12 Y 2 Y -15 Y 645 Y -348 Y 1 X -201 Y 3 Y -5 Y 2 Y -57 Y 1 X -8 Y 4 Y -10 Y 5 Y -11 Y 6 Y -25 Y 635 Y 1 X 26 Y -565 Y 7 Y 1 X -75 Y 7 Y -31 Y 1 X -3 Y 598 Y -448 Y 1 X
 -59 Y 1 Y -67 Y 6 Y -8 Y 1 X -5 Y 1 Y -22 Y 671 Y -216 Y 1 X -353 Y 1 Y -5 Y 2 Y -47 Y 1 X -20 Y 3 Y -10 Y 6 Y -10 Y 3 Y -11 Y 3 Y -12 Y 4 Y -9 Y 311 Y 1 X 308 Y -521 Y 2 Y 1 X -76 Y 5 Y -5 Y 3 Y -15 Y 1 X 1 Y -17 Y 631 Y -415 Y 1 X -118 Y 4 Y -72 Y
 4 Y -1 Y 1 X -10 Y 2 Y -22 Y 655 Y -58 Y 1 X -498 Y 2 Y -6 Y 8 Y -18 Y 1 X -47 Y 4 Y -15 Y 13 Y -10 Y 2 Y -19 Y 1 Y -11 Y 10 Y -2 Y 60 Y 1 X 562 Y -511 Y 1 X -16 Y 3 Y -73 Y 2 Y -7 Y 5 Y -6 Y 1 Y -8 Y 3 Y 1 X -12 Y 3 Y -6 Y 638 Y -376 Y 1 X -174 Y 4
 Y -67 Y 1 X -7 Y 8 Y -34 Y 1 Y -3 Y 653 Y 1 X 24 Y -583 Y 5 Y 1 X -64 Y 7 Y -11 Y 10 Y -15 Y 11 Y -13 Y 4 Y -22 Y 2 Y -2 Y 1 X 655 Y -511 Y 1 X -48 Y 5 Y -8 Y 4 Y -66 Y 1 Y -5 Y 4 Y -3 Y 3 Y -6 Y 1 X -4 Y 5 Y -27 Y 687 Y -295 Y 1 X -295 Y 3 Y -52 Y
 1 X 1 Y -20 Y 7 Y -6 Y 8 Y -16 Y 4 Y -7 Y 5 Y -20 Y 345 Y 1 X 288 Y -535 Y 1 X -81 Y 9 Y -14 Y 4 Y -20 Y 1 X 12 Y -7 Y 639 Y -452 Y 1 X -96 Y 2 Y -9 Y 8 Y -74 Y 1 Y -2 Y 1 X 10 Y -9 Y 1 Y -25 Y 642 Y -98 Y 1 X -456 Y 13 Y -28 Y 1 X -49 Y 1 Y -4 Y 10
 Y -32 Y 87 Y 1 X 548 Y -529 Y 1 X -15 Y 5 Y -8 Y 3 Y -57 Y 1 Y -7 Y 6 Y -8 Y 1 Y -4 Y 3 Y 1 X -23 Y 3 Y -7 Y 650 Y -379 Y 1 X -173 Y 2 Y -69 Y 1 X -9 Y 11 Y -2 Y 4 Y -4 Y 7 Y -12 Y 5 Y -22 Y 664 Y 1 X -581 Y 8 Y 1 X -60 Y 6 Y -16 Y 1 Y -4 Y 11 Y -14
 Y 2 Y -19 Y 1 X 639 Y -511 Y 1 X -42 Y 7 Y -6 Y 5 Y -80 Y 16 Y -7 Y 1 Y 1 X -10 Y 7 Y -20 Y 642 Y -293 Y 1 X -257 Y 3 Y -62 Y 1 X -4 Y 2 Y -8 Y 7 Y -6 Y 4 Y -21 Y 2 Y -4 Y 411 Y 1 X 204 Y -526 Y 3 Y 1 X -8 Y 5 Y -60 Y 3 Y -16 Y 1 Y -4 Y 3 Y -5 Y 1 Y
 -10 Y 1 X -11 Y 653 Y -453 Y 1 X -100 Y 4 Y -76 Y 3 Y -4 Y 1 X 2 Y -10 Y 6 Y -17 Y 4 Y -7 Y 598 Y -97 Y 1 X -419 Y 15 Y -33 Y 1 X -45 Y 7 Y -5 Y 2 Y -10 Y 13 Y -14 Y 14 Y -17 Y 2 Y -9 Y 1 Y -4 Y 132 Y 1 X 473 Y -499 Y 1 X -16 Y 10 Y -75 Y 10 Y -14 Y
 1 Y -11 Y 1 X 3 Y -20 Y 1 Y -1 Y 647 Y -393 Y 1 X -227 Y 1 Y 1 X 2 Y -2 Y 3 Y -8 Y 2 Y -7 Y 1 Y -14 Y 3 Y -1 Y 661 Y 1 X -534 Y 11 Y -41 Y 6 Y 1 X -86 Y 1 Y -6 Y 3 Y -15 Y 8 Y 1 X 665 Y -538 Y 1 X -38 Y 8 Y -12 Y 10 Y -79 Y 1 Y -9 Y 8 Y -11 Y 1 X 7
 Y -18 Y 646 Y -305 Y 1 X -311 Y 1 X -7 Y 4 Y -8 Y 2 Y -4 Y 1 Y -4 Y 7 Y -28 Y 470 Y 1 X 155 Y -531 Y 3 Y 1 X 1 Y -68 Y 5 Y -14 Y 6 Y -14 Y 3 Y -10 Y 1 X 1 Y -11 Y 652 Y -461 Y 1 X -88 Y 3 Y -7 Y 2 Y -60 Y 3 Y -14 Y 2 Y -3 Y 1 X 9 Y -28 Y 4 Y -2 Y
 642 Y -109 Y 1 X -446 Y 3 Y -27 Y 1 X -40 Y 2 Y -1 Y 5 Y -11 Y 7 Y -13 Y 7 Y -30 Y 132 Y 1 X 548 Y -562 Y 1 X -18 Y 3 Y -79 Y 9 Y -6 Y 5 Y -5 Y 3 Y -4 Y 1 X -25 Y 663 Y -395 Y 1 X -244 Y 6 Y 1 X -4 Y 14 Y -21 Y 2 Y -12 Y 8 Y -9 Y 660 Y -13 Y 1 X
 -562 Y 1 Y -2 Y 11 Y -12 Y 1 X -56 Y 2 Y -3 Y 1 Y -5 Y 1 Y -7 Y 2 Y -11 Y 4 Y -13 Y 14 Y 1 X 627 Y -519 Y 1 X -23 Y 1 Y -11 Y 9 Y -62 Y 6 Y -16 Y 5 Y -10 Y 8 Y 1 X -28 Y 662 Y -340 Y 1 X -233 Y 1 Y -54 Y 1 X 3 Y -15 Y 5 Y -14 Y 3 Y -19 Y 3 Y -2 Y
 460 Y 1 X 132 Y -511 Y 1 X -9 Y 8 Y -68 Y 8 Y -4 Y 4 Y -26 Y 7 Y 1 X -6 Y 618 Y -454 Y 1 X -73 Y 5 Y -4 Y 5 Y -56 Y 3 Y -13 Y 4 Y -11 Y 4 Y 1 X -7 Y 4 Y -25 Y 647 Y -207 Y 1 X -346 Y 2 Y -41 Y 1 X -26 Y 4 Y -5 Y 2 Y -2 Y 3 Y -20 Y 2 Y -16 Y 226 Y 1
 X 428 Y -545 Y 1 X -12 Y 6 Y -13 Y 5 Y -67 Y 4 Y -12 Y 1 X -10 Y 644 Y -417 Y 1 X -140 Y 1 Y -1 Y 5 Y -76 Y 1 X -1 Y 9 Y -18 Y 1 Y -15 Y 660 Y -22 Y 1 X -540 Y 1 Y -1 Y 1 Y -12 Y 1 X -61 Y 4 Y -23 Y 32 Y 1 X 629 Y -528 Y 1 X -115 Y 9 Y -13 Y 5 Y 1 X
 4 Y -24 Y 654 Y -342 Y 1 X -213 Y 5 Y -11 Y 7 Y -64 Y 1 X -10 Y 3 Y -9 Y 8 Y -12 Y 2 Y -20 Y 9 Y -12 Y 603 Y 1 X 36 Y -545 Y 2 Y 1 X 4 Y -69 Y 2 Y -4 Y 1 Y -5 Y 2 Y -26 Y 1 X -3 Y 633 Y -474 Y 1 X -43 Y 4 Y -25 Y 1 Y -4 Y 4 Y -24 Y 4 Y -46 Y 3 Y -11
 Y 13 Y -12 Y 1 X -3 Y 5 Y -24 Y 565 Y -190 Y 1 X -296 Y 12 Y -12 Y 4 Y -24 Y 1 X -25 Y 7 Y -18 Y 5 Y -22 Y 1 Y -11 Y 142 Y 1 X 219 Y -306 Y 4 Y 1 X 2 Y -43 Y 11 Y -12 Y 1 Y -5 Y 3 Y -10 Y 7 Y 1 X -9 Y 5 Y -11 Y 80 Y -52 Y 1 X -30 Y 9 Y -7 Y 5 Y -1 Y
 4 Y -4 Y 19 Y -9 Y 2 Y 1 X -16 Y 4 Y -16 Y 4 Y -2 Y 6 Y -2 Y 1 Y -6 Y 3 Y -5 Y 1 Y -12 Y 8 Y -2 Y 1 X 2 Y -4 Y 8 Y -9 Y 12 Y -12 Y 9 Y -12 Y 1 Y -1 Y 3 Y -9 Y 10 Y -1 Y 1 X 30 Y -13 Y 1 Y -32 Y 17 Y -6 Y 12 Y -8 Y 1 X 3 Y -12 Y 6 Y -11 Y 4 Y -3 Y 9
 Y -11 Y 11 Y -8 Y 12 Y -6 Y 6 Y -12 Y 5 Y -8 Y 1 X 7 Y -8 Y 9 Y -9 Y 41 Y -44 Y 6 Y 1 X -6 Y 12 Y -1 Y 16 Y -16 Y 9 Y -7 Y 2 Y -18 Y 5 Y -4 Y 10 Y -4 Y 1 X 9 Y -7 Y 9 Y -13 Y 3 Y -9 Y 7 Y -11 Y 2 Y -2 Y 43 Y -10 Y 1 X 2 Y -24 Y 7 Y -14 Y 13 Y -5 Y 4
 Y -6 Y 1 X -7 Y 10 Y -13 Y 10 Y -2 Y 7 Y -5 Y 8 Y -8 Y 1 Y -9 Y 8 Y -4 Y 1 X -12 Y 38 Y -15 Y 1 Y -23 Y 17 Y -7 Y 1 X 7 Y -6 Y 10 Y -10 Y 7 Y -17 Y 15 Y -9 Y 11 Y -15 Y 14 Y -3 Y 1 X 1 Y -4 Y 6 Y -14 Y 6 Y -8 Y 5 Y -2 Y 31 Y -32 Y 4 Y 1 X -8 Y 5 Y
 -1 Y 12 Y -8 Y 8 Y -3 Y 3 Y -7 Y 1 Y -2 Y 1 X 3 Y -7 Y 4 Y -5 Y 3 Y -4 Y 9 Y -7 Y 8 Y -10 Y 5 Y 1 X 18 Y -29 Y 8 Y -3 Y 8 Y -1 Y 4 Y -9 Y 1 X 12 Y -10 Y 4 Y -1 Y 3 Y -7 Y 7 Y -9 Y 1 X 5 Y -13 Y 2 Y -1 Y 17 Y -4 Y 14 Y -28 Y 6 Y -4 Y 1 X 4 Y -8 Y 10
 Y -8 Y 10 Y -4 Y 1 Y -4 Y 12 Y -9 Y 8 Y -12 Y 5 Y -5 Y 10 Y -8 Y 10 Y 1 X -4 Y 8 Y -8 Y 3 Y -11 Y 17 Y -19 Y 5 Y -3 Y 26 Y -14 Y 1 X -12 Y 3 Y -1 Y 4 Y -11 Y 9 Y -12 Y 13 Y -6 Y 11 Y -2 Y 3 Y 1 X -8 Y 3 Y -5 Y 7 Y -4 Y 2 Y -6 Y 8 Y -4 Y 4 Y -8 Y 12
 Y -14 Y 1 X -2 Y 17 Y -1 Y 14 Y -26 Y 8 Y -12 Y 11 Y -13 Y 9 Y 1 X -6 Y 10 Y -4 Y 1 Y -4 Y 12 Y -16 Y 5 Y -4 Y 6 Y -7 Y 10 Y -7 Y 1 Y 1 X 4 Y -4 Y 1 Y -10 Y 34 Y -5 Y 1 Y -16 Y 8 Y -13 Y 7 Y -15 Y 1 X 10 Y -10 Y 12 Y -11 Y 10 Y -3 Y 4 Y -7 Y 7 Y -8
 Y 8 Y 1 X -8 Y 11 Y -6 Y 1 Y -7 Y 3 Y -1 Y 27 Y 1 X -16 Y 1 Y -15 Y 6 Y -8 Y 7 Y -10 Y 9 Y -2 Y 5 Y -1 Y 1 X -6 Y 8 Y -4 Y 4 Y -7 Y 8 Y -7 Y 3 Y -5 Y 8 Y -9 Y 1 X 4 Y -3 Y 27 Y -23 Y 2 Y -9 Y 4 Y -2 Y 6 Y 1 X -6 Y 8 Y -12 Y 11 Y -4 Y 1 Y -5 Y 5 Y -4
 Y 10 Y -11 Y 2 Y -2 Y 1 X 8 Y -8 Y 13 Y -12 Y 8 Y -13 Y 21 Y -1 Y 8 Y -16 Y 3 Y -5 Y 1 X -5 Y 3 Y -8 Y 6 Y -8 Y 16 Y -14 Y 10 Y -7 Y 9 Y -2 Y 2 Y -13 Y 6 Y 1 X 7 Y -7 Y 3 Y -5 Y 4 Y -1 Y 5 Y -3 Y 3 Y -6 Y 1 Y -9 Y 11 Y 1 X 16 Y -16 Y 7 Y -6 Y 1 Y -3
 Y 1 Y -7 Y 3 Y -6 Y 12 Y -5 Y 6 Y -9 Y 7 Y 1 X -2 Y 8 Y -11 Y 5 Y -12 Y 9 Y -4 Y 11 Y -9 Y 7 Y 1 X -11 Y 2 Y -6 Y 33 Y -13 Y 4 Y -18 Y 6 Y -3 Y 1 X -8 Y 7 Y -3 Y 4 Y -4 Y 12 Y -6 Y 2 Y -6 Y 3 Y -2 Y 12 Y -12 Y 2 Y -7 Y 10 Y 1 X -7 Y 3 Y -5 Y 3 Y -3
 Y 7 Y -4 Y 8 Y -6 Y 12 Y -3 Y 3 Y -10 Y 1 X 7 Y -9 Y 5 Y -9 Y 7 Y -9 Y 5 Y -5 Y 10 Y -8 Y 1 Y 1 X 3 Y -4 Y 4 Y -1 Y 2 Y -6 Y 3 Y -6 Y 8 Y -11 Y 16 Y -6 Y 1 Y -5 Y 8 Y -6 Y 1 X 6 Y -10 Y 14 Y -8 Y 8 Y -5 Y 4 Y -10 Y 11 Y -15 Y 11 Y -10 Y 10 Y -10 Y 5
 Y 1 X -3 Y 8 Y -8 Y 5 Y -1 Y 6 Y -5 Y 2 Y -5 Y 9 Y -11 Y 4 Y 1 X -3 Y 7 Y -8 Y 7 Y -4 Y 6 Y -4 Y 1 Y -7 Y 8 Y -8 Y 11 Y -6 Y 5 Y 1 X 2 Y -13 Y 11 Y -8 Y 5 Y -9 Y 14 Y -12 Y 6 Y -1 Y 4 Y -7 Y 2 Y 1 X 4 Y -4 Y 6 Y -9 Y 6 Y -5 Y 6 Y -3 Y 5 Y -9 Y 8 Y
 -7 Y 3 Y -6 Y 2 Y 1 X 10 Y -6 Y 5 Y -9 Y 8 Y -11 Y 11 Y -10 Y 6 Y -2 Y 3 Y -3 Y 6 Y -10 Y 4 Y 1 X -2 Y 4 Y -3 Y 6 Y -5 Y 2 Y -7 Y 16 Y -16 Y 11 Y -11 Y 1 X 10 Y -3 Y 3 Y -5 Y 2 Y -3 Y 6 Y -3 Y 2 Y -2 Y 6 Y 1 X -9 Y 2 Y -2 Y 3 Y -1 Y 6 Y -10 Y 5 Y -8
 Y 12 Y -8 Y 8 Y -8 Y 2 Y 1 X 3 Y -8 Y 8 Y -5 Y 8 Y -8 Y 8 Y -9 Y 9 Y -6 Y 2 Y -5 Y 9 Y 1 X -10 Y 6 Y -8 Y 13 Y -10 Y 5 Y -7 Y 11 Y -10 Y 7 Y -7 Y 1 X 6 Y -6 Y 3 Y -5 Y 8 Y -2 Y 8 Y -7 Y 5 Y -8 Y 6 Y -1 Y 1 X -9 Y 12 Y -6 Y 3 Y -6 Y 7 Y -7 Y 2 Y -1 Y
 7 Y -5 Y 3 Y -7 Y 8 Y -7 Y 2 Y 1 X 4 Y -7 Y 10 Y -15 Y 6 Y -1 Y 14 Y -16 Y 5 Y 1 X -3 Y 2 Y -6 Y 10 Y -4 Y 2 Y -4 Y 6 Y -1 Y 7 Y -18 Y 14 Y 1 X -6 Y 3 Y -1 Y 1 Y -3 Y 4 Y -4 Y 6 Y -6 Y 4 Y -2 Y 4 Y -4 Y 1 X 3 Y -12 Y 13 Y -10 Y 7 Y -6 Y 7 Y -4 Y 2 Y
 -5 Y 9 Y -4 Y 3 Y 1 X -1 Y 1 Y -9 Y 6 Y -3 Y 6 Y -9 Y 4 Y -6 Y 9 Y -4 Y 1 Y -5 Y 1 Y 1 X 2 Y -2 Y 4 Y -4 Y 4 Y -8 Y 5 Y -1 Y 7 Y -4 Y 9 Y -10 Y 5 Y 1 X -7 Y 4 Y -4 Y 5 Y -1 Y 7 Y -9 Y 1 Y -4 Y 12 Y -9 Y 6 Y 1 X -5 Y 5 Y -10 Y 10 Y -9 Y 11 Y -6 Y 2 Y
 -10 Y 16 Y -12 Y 12 Y -10 Y 6 Y -3 Y 1 X -3 Y 8 Y -3 Y 5 Y -12 Y 12 Y -5 Y 4 Y -11 Y 8 Y -8 Y 9 Y -12 Y 8 Y 1 X -1 Y 3 Y -9 Y 13 Y -8 Y 8 Y -8 Y 5 Y -6 Y 3 Y -6 Y 3 Y -6 Y 8 Y -3 Y 3 Y 1 X -4 Y 11 Y -12 Y 8 Y -6 Y 9 Y -10 Y 4 Y -1 Y 3 Y -7 Y 5 Y -1
 Y 9 Y 1 X -8 Y 7 Y -5 Y 8 Y -15 Y 3 Y -5 Y 7 Y -1 Y 8 Y 1 X -7 Y 3 Y -10 Y 16 Y -9 Y 7 Y -11 Y 4 Y -3 Y 7 Y -8 Y 4 Y -3 Y 1 X 3 Y -6 Y 13 Y -7 Y 5 Y -9 Y 8 Y -5 Y 9 Y -12 Y 10 Y -16 Y 7 Y 1 X 6 Y -4 Y 3 Y -9 Y 13 Y -12 Y 11 Y -9 Y 4 Y -4 Y 4 Y -5 Y
 1 X -1 Y 7 Y -3 Y 4 Y -6 Y 8 Y -7 Y 1 Y -1 Y 7 Y -8 Y 8 Y -2 Y 1 X -9 Y 11 Y -6 Y 3 Y -6 Y 12 Y -8 Y 5 Y -7 Y 3 Y -1 Y 1 Y -3 Y 1 X 6 Y -2 Y 3 Y -7 Y 4 Y -5 Y 4 Y -7 Y 7 Y -3 Y 6 Y -8 Y 4 Y -4 Y 7 Y -2 Y 1 X 4 Y -13 Y 9 Y -2 Y 6 Y -11 Y 11 Y -7 Y 11
 Y -16 Y 7 Y -3 Y 4 Y -2 Y 6 Y 1 X -8 Y 2 Y -3 Y 7 Y -6 Y 5 Y -10 Y 7 Y -2 Y 5 Y -5 Y 4 Y 1 X -2 Y 7 Y -10 Y 5 Y -5 Y 7 Y -10 Y 14 Y -8 Y 5 Y -7 Y 8 Y -10 Y 6 Y 1 X -1 Y 9 Y -10 Y 10 Y -11 Y 7 Y -10 Y 10 Y -8 Y 6 Y -5 Y 3 Y 1 X -5 Y 4 Y -3 Y 8 Y -12
 Y 8 Y -4 Y 2 Y -6 Y 11 Y -9 Y 3 Y -1 Y 6 Y 1 X -2 Y 3 Y -6 Y 8 Y -13 Y 3 Y -1 Y 13 Y -9 Y 2 Y -4 Y 5 Y -2 Y 3 Y -6 Y 8 Y -8 Y 1 X 8 Y -8 Y 4 Y -6 Y 4 Y -1 Y 8 Y -6 Y 1 Y -5 Y 7 Y 1 X -7 Y 1 Y -1 Y 8 Y -6 Y 10 Y -8 Y 1 Y -2 Y 5 Y 1 X -2 Y 2 Y -5 Y 2
 Y -7 Y 3 Y -1 Y 9 Y -7 Y 4 Y -5 Y 4 Y -4 Y 5 Y -1 Y 1 X -3 Y 4 Y -5 Y 6 Y -6 Y 7 Y -8 Y 6 Y -1 Y 9 Y -12 Y 8 Y -6 Y 1 X 6 Y -9 Y 7 Y -6 Y 1 Y -2 Y 3 Y -3 Y 5 Y -3 Y 4 Y -12 Y 10 Y -4 Y 2 Y 1 X -6 Y 8 Y -7 Y 9 Y -5 Y 7 Y -11 Y 6 Y -4 Y 7 Y -8 Y 5 Y
 -4 Y 4 Y 1 X 1 Y -3 Y 3 Y -11 Y 9 Y -7 Y 6 Y -3 Y 10 Y -5 Y 6 Y -13 Y 9 Y 1 X 1 Y -4 Y 6 Y -6 Y 2 Y -4 Y 6 Y -6 Y 8 Y -12 Y 9 Y -5 Y 1 Y -1 Y 4 Y 1 X -7 Y 5 Y -3 Y 4 Y -3 Y 1 Y -4 Y 4 Y -1 Y 3 Y -7 Y 3 Y -3 Y 6 Y -5 Y 7 Y 1 X 1 Y -12 Y 17 Y -10 Y 1
 Y -1 Y 6 Y -7 Y 5 Y -4 Y 4 Y -3 Y 1 X 3 Y -5 Y 2 Y -3 Y 9 Y -3 Y 2 Y -8 Y 11 Y -12 Y 7 Y -3 Y 5 Y -4 Y 3 Y 1 X -1 Y 2 Y -6 Y 5 Y -9 Y 8 Y -3 Y 7 Y -11 Y 13 Y -14 Y 11 Y -11 Y 8 Y -4 Y 1 Y 1 X -2 Y 5 Y -5 Y 2 Y -12 Y 11 Y -2 Y 4 Y -4 Y 5 Y -2 Y 5 Y
 -2 Y 1 Y -5 Y 3 Y 1 X 3 Y -14 Y 9 Y -5 Y 8 Y -8 Y 8 Y -11 Y 14 Y -5 Y 1 X 3 Y -7 Y 10 Y -10 Y 8 Y -9 Y 7 Y -5 Y 2 Y -1 Y 1 Y 1 X 6 Y -11 Y 8 Y -8 Y 4 Y -7 Y 7 Y -3 Y 5 Y -4 Y 5 Y -4 Y 5 Y -4 Y 9 Y 1 X 1 Y -9 Y 6 Y -4 Y 2 Y -7 Y 6 Y -7 Y 6 Y -10 Y 16
 Y -11 Y 2 Y 1 X -4 Y 11 Y -7 Y 2 Y -8 Y 10 Y -5 Y 9 Y -12 Y 5 Y -1 Y 5 Y -9 Y 1 X 12 Y -8 Y 4 Y -6 Y 2 Y -4 Y 5 Y -3 Y 2 Y -4 Y 4 Y -4 Y 7 Y -1 Y 1 X -2 Y 4 Y -3 Y 6 Y -7 Y 4 Y -7 Y 7 Y -3 Y 1 Y -3 Y 5 Y -8 Y 8 Y -4 Y 2 Y 1 X -6 Y 5 Y -2 Y 5 Y -8 Y
 10 Y -3 Y 2 Y -12 Y 7 Y -8 Y 11 Y -4 Y 1 X -3 Y 3 Y -3 Y 8 Y -4 Y 6 Y -7 Y 5 Y -4 Y 8 Y -16 Y 9 Y -5 Y 1 X 5 Y -1 Y 1 Y -1 Y 3 Y -7 Y 7 Y -5 Y 4 Y -6 Y 8 Y -4 Y 1 X 4 Y -6 Y 8 Y -7 Y 5 Y -3 Y 3 Y -6 Y 8 Y -6 Y 1 X 4 Y -3 Y 2 Y -7 Y 8 Y -5 Y 1 Y -5 Y
 9 Y -4 Y 8 Y -12 Y 7 Y -4 Y 5 Y 1 X -3 Y 1 Y -6 Y 9 Y -8 Y 7 Y s black 227 117 m 1814 X s
 gsave  2268 1171 0 0 C 2013.51 41.3817 t 0 r /Helvetica findfont 37.8347 sf 0 0 m (s]) show NC gr 
 gsave  2268 1171 0 0 C 1991.05 41.3817 t 0 r /Symbol findfont 37.8347 sf 0 0 m (m) show NC gr 
 gsave  2268 1171 0 0 C 1960.31 41.3817 t 0 r /Helvetica findfont 37.8347 sf 0 0 m (t [) show NC gr  343 145 m -28 Y s 406 131 m -14 Y s 469 131 m -14 Y s 532 131 m -14 Y s 595 145 m -28 Y s 658 131 m -14 Y s 721 131 m -14 Y s 784 131 m -14 Y s 847
 145 m -28 Y s 910 131 m -14 Y s 973 131 m -14 Y s 1036 131 m -14 Y s 1099 145 m -28 Y s 1162 131 m -14 Y s 1225 131 m -14 Y s 1288 131 m -14 Y s 1351 145 m -28 Y s 1414 131 m -14 Y s 1477 131 m -14 Y s 1540 131 m -14 Y s 1603 145 m -28 Y s 1666 131
 m -14 Y s 1729 131 m -14 Y s 1792 131 m -14 Y s 1855 145 m -28 Y s 343 145 m -28 Y s 280 131 m -14 Y s 1855 145 m -28 Y s 1917 131 m -14 Y s 1980 131 m -14 Y s
 gsave  2268 1171 0 0 C 341.695 79.2164 t 0 r /Helvetica findfont 37.8347 sf 0 0 m (2) show NC gr 
 gsave  2268 1171 0 0 C 320.413 79.2164 t 0 r /Symbol findfont 37.8347 sf 0 0 m (-) show NC gr 
 gsave  2268 1171 0 0 C 582.891 79.2164 t 0 r /Helvetica findfont 37.8347 sf 0 0 m (0) show NC gr 
 gsave  2268 1171 0 0 C 835.91 79.2164 t 0 r /Helvetica findfont 37.8347 sf 0 0 m (2) show NC gr 
 gsave  2268 1171 0 0 C 1087.75 79.2164 t 0 r /Helvetica findfont 37.8347 sf 0 0 m (4) show NC gr 
 gsave  2268 1171 0 0 C 1339.58 79.2164 t 0 r /Helvetica findfont 37.8347 sf 0 0 m (6) show NC gr 
 gsave  2268 1171 0 0 C 1591.42 79.2164 t 0 r /Helvetica findfont 37.8347 sf 0 0 m (8) show NC gr 
 gsave  2268 1171 0 0 C 1832.62 79.2164 t 0 r /Helvetica findfont 37.8347 sf 0 0 m (10) show NC gr  227 117 m 936 Y s
 gsave  2268 1171 0 0 C 109.957 839.457 t 90 r /Helvetica findfont 37.8347 sf 0 0 m (Voltage [mV]) show NC gr  281 178 m -54 X s 254 198 m -27 X s 254 218 m -27 X s 254 238 m -27 X s 254 258 m -27 X s 281 278 m -54 X s 254 298 m -27 X s 254 318 m -27
 X s 254 338 m -27 X s 254 358 m -27 X s 281 378 m -54 X s 254 398 m -27 X s 254 418 m -27 X s 254 438 m -27 X s 254 458 m -27 X s 281 478 m -54 X s 254 498 m -27 X s 254 518 m -27 X s 254 538 m -27 X s 254 559 m -27 X s 281 579 m -54 X s 254 599 m
 -27 X s 254 619 m -27 X s 254 639 m -27 X s 254 659 m -27 X s 281 679 m -54 X s 254 699 m -27 X s 254 719 m -27 X s 254 739 m -27 X s 254 759 m -27 X s 281 779 m -54 X s 254 799 m -27 X s 254 819 m -27 X s 254 839 m -27 X s 254 859 m -27 X s 281 879
 m -54 X s 254 899 m -27 X s 254 919 m -27 X s 254 939 m -27 X s 254 960 m -27 X s 281 980 m -54 X s 281 178 m -54 X s 254 158 m -27 X s 254 137 m -27 X s 254 117 m -27 X s 281 980 m -54 X s 254 1000 m -27 X s 254 1020 m -27 X s 254 1040 m -27 X s
 gsave  2268 1171 0 0 C 195.085 164.344 t 0 r /Helvetica findfont 37.8347 sf 0 0 m (0) show NC gr 
 gsave  2268 1171 0 0 C 195.085 263.66 t 0 r /Helvetica findfont 37.8347 sf 0 0 m (5) show NC gr 
 gsave  2268 1171 0 0 C 173.803 364.159 t 0 r /Helvetica findfont 37.8347 sf 0 0 m (10) show NC gr 
 gsave  2268 1171 0 0 C 173.803 464.657 t 0 r /Helvetica findfont 37.8347 sf 0 0 m (15) show NC gr 
 gsave  2268 1171 0 0 C 173.803 565.156 t 0 r /Helvetica findfont 37.8347 sf 0 0 m (20) show NC gr 
 gsave  2268 1171 0 0 C 173.803 665.654 t 0 r /Helvetica findfont 37.8347 sf 0 0 m (25) show NC gr 
 gsave  2268 1171 0 0 C 173.803 764.97 t 0 r /Helvetica findfont 37.8347 sf 0 0 m (30) show NC gr 
 gsave  2268 1171 0 0 C 173.803 865.469 t 0 r /Helvetica findfont 37.8347 sf 0 0 m (35) show NC gr 
 gsave  2268 1171 0 0 C 173.803 965.967 t 0 r /Helvetica findfont 37.8347 sf 0 0 m (40) show NC gr  1 1 1 c black
 gsave  2268 1171 0 0 C 598.261 1113.76 t 0 r /Helvetica findfont 56.752 sf 0 0 m (Polyrystalline Diamond Signal on Nov 15th) show NC gr 
 gr  gr showpage
end
%%EOF
