%!PS-Adobe-2.0 EPSF-2.0
%%BoundingBox:  0 0 567 385
%%Title: /home/nicholas/work/d41/numi_analysis/aps_april_plots/poly_sig_nov_15th_fine.eps: c4
%%Creator: ROOT Version 5.34/39
%%CreationDate: Mon Apr 15 00:07:31 2019
%%EndComments
%%BeginProlog
80 dict begin
/s {stroke} def /l {lineto} def /m {moveto} def /t {translate} def
/r {rotate} def /rl {roll}  def /R {repeat} def
/d {rlineto} def /rm {rmoveto} def /gr {grestore} def /f {eofill} def
/c {setrgbcolor} def /black {0 setgray} def /sd {setdash} def
/cl {closepath} def /sf {scalefont setfont} def /lw {setlinewidth} def
/box {m dup 0 exch d exch 0 d 0 exch neg d cl} def
/NC{systemdict begin initclip end}def/C{NC box clip newpath}def
/bl {box s} def /bf {gsave box gsave f grestore 1 lw [] 0 sd s grestore} def /Y { 0 exch d} def /X { 0 d} def 
/K {{pop pop 0 moveto} exch kshow} bind def
/ita {/ang 15 def gsave [1 0 ang dup sin exch cos div 1 0 0] concat} def 
/mp {newpath /y exch def /x exch def} def
/side {[w .77 mul w .23 mul] .385 w mul sd w 0 l currentpoint t -144 r} def
/mr {mp x y w2 0 360 arc} def /m24 {mr s} def /m20 {mr f} def
/mb {mp x y w2 add m w2 neg 0 d 0 w neg d w 0 d 0 w d cl} def
/mt {mp x y w2 add m w2 neg w neg d w 0 d cl} def
/m21 {mb f} def /m25 {mb s} def /m22 {mt f} def /m26{mt s} def
/m23 {mp x y w2 sub m w2 w d w neg 0 d cl f} def
/m27 {mp x y w2 add m w3 neg w2 neg d w3 w2 neg d w3 w2 d cl s} def
/m28 {mp x w2 sub y w2 sub w3 add m w3 0 d  0 w3 neg d w3 0 d 0 w3 d w3 0 d  0 w3 d w3 neg 0 d 0 w3 d w3 neg 0 d 0 w3 neg d w3 neg 0 d cl s } def
/m29 {mp gsave x w2 sub y w2 add w3 sub m currentpoint t 4 {side} repeat cl fill gr} def
/m30 {mp gsave x w2 sub y w2 add w3 sub m currentpoint t 4 {side} repeat cl s gr} def
/m31 {mp x y w2 sub m 0 w d x w2 sub y m w 0 d x w2 sub y w2 add m w w neg d x w2 sub y w2 sub m w w d s} def
/m32 {mp x y w2 sub m w2 w d w neg 0 d cl s} def
/m33 {mp x y w2 add m w3 neg w2 neg d w3 w2 neg d w3 w2 d cl f} def
/m34 {mp x w2 sub y w2 sub w3 add m w3 0 d  0 w3 neg d w3 0 d 0 w3 d w3 0 d  0 w3 d w3 neg 0 d 0 w3 d w3 neg 0 d 0 w3 neg d w3 neg 0 d cl f } def
/m2 {mp x y w2 sub m 0 w d x w2 sub y m w 0 d s} def
/m5 {mp x w2 sub y w2 sub m w w d x w2 sub y w2 add m w w neg d s} def
/reEncode {exch findfont dup length dict begin {1 index /FID eq  {pop pop} {def} ifelse } forall /Encoding exch def currentdict end dup /FontName get exch definefont pop } def [/Times-Bold /Times-Italic /Times-BoldItalic /Helvetica /Helvetica-Oblique
 /Helvetica-Bold /Helvetica-BoldOblique /Courier /Courier-Oblique /Courier-Bold /Courier-BoldOblique /Times-Roman /AvantGarde-Book /AvantGarde-BookOblique /AvantGarde-Demi /AvantGarde-DemiOblique /Bookman-Demi /Bookman-DemiItalic /Bookman-Light
 /Bookman-LightItalic /Helvetica-Narrow /Helvetica-Narrow-Bold /Helvetica-Narrow-BoldOblique /Helvetica-Narrow-Oblique /NewCenturySchlbk-Roman /NewCenturySchlbk-Bold /NewCenturySchlbk-BoldItalic /NewCenturySchlbk-Italic /Palatino-Bold
 /Palatino-BoldItalic /Palatino-Italic /Palatino-Roman ] {ISOLatin1Encoding reEncode } forall
%%EndProlog
%%BeginSetup
%%EndSetup
newpath  gsave  .25 .25 scale  gsave  0 0 t black[  ] 0 sd 3 lw 1 1 1 c 2268 1540 0 0 bf black 1 1 1 c 1814 1232 227 154 bf black 1814 1232 227 154 bl 1 1 1 c 1814 1232 227 154 bf black 1814 1232 227 154 bl 0 0 0.6 c 1 1 1 c black 0 0 0.6 c 227 356 m
 7 X -3 Y 7 X 7 Y 7 X -12 Y 8 X -7 Y 7 X -22 Y 7 X -22 Y 7 X -19 Y 8 X -18 Y 7 X -15 Y 7 X -8 Y 7 X 8 Y 8 X -2 Y 7 X -14 Y 7 X 8 Y 7 X 5 Y 7 X -5 Y 8 X -6 Y 7 X -10 Y 7 X 11 Y 7 X -26 Y 8 X -12 Y 7 X -3 Y 7 X 15 Y 7 X 67 Y 7 X 183 Y 8 X 240 Y 7 X 267
 Y 7 X 156 Y 7 X 109 Y 8 X 8 Y 7 X -58 Y 7 X -91 Y 7 X -88 Y 8 X -100 Y 7 X -82 Y 7 X -82 Y 7 X -63 Y 7 X -54 Y 8 X -61 Y 7 X -41 Y 7 X -35 Y 7 X -51 Y 8 X -14 Y 7 X -27 Y 7 X -22 Y 7 X -8 Y 7 X -10 Y 8 X 10 Y 7 X 1 Y 7 X -17 Y 7 X -10 Y 8 X -28 Y 7
 X -28 Y 7 X -19 Y 7 X -9 Y 8 X -7 Y 7 X -1 Y 7 X -2 Y 14 X -7 Y 8 X 9 Y 7 X -10 Y 7 X -2 Y 7 X 2 Y 8 X -14 Y 7 X -10 Y 7 X -3 Y 7 X -2 Y 7 X -4 Y 8 X 8 Y 7 X 58 Y 7 X 162 Y 7 X 260 Y 8 X 267 Y 7 X 161 Y 7 X 79 Y 7 X 36 Y 8 X -70 Y 7 X -76 Y 7 X -98
 Y 7 X -95 Y 7 X -77 Y 8 X -75 Y 7 X -73 Y 7 X -49 Y 7 X -70 Y 8 X -35 Y 7 X -45 Y 7 X -26 Y 7 X -23 Y 7 X -20 Y 8 X -23 Y 7 X -8 Y 7 X -12 Y 7 X 10 Y 8 X 3 Y 7 X -4 Y 7 X -48 Y 7 X -4 Y 8 X -27 Y 7 X -25 Y 7 X -31 Y 7 X 5 Y 7 X 6 Y 8 X 23 Y 7 X -20
 Y 7 X -9 Y 7 X 10 Y 8 X -11 Y 7 X -5 Y 7 X -1 Y 7 X -13 Y 8 X 15 Y 7 X -17 Y 7 X -15 Y 7 X -5 Y 7 X 16 Y 8 X 29 Y 7 X 156 Y 7 X 213 Y 7 X 191 Y 8 X 206 Y 7 X 177 Y 7 X 47 Y 7 X -9 Y 7 X -80 Y 8 X -111 Y 7 X -92 Y 7 X -101 Y 7 X -71 Y 8 X -62 Y 7 X
 -76 Y 7 X -49 Y 7 X -47 Y 8 X -52 Y 7 X -36 Y 7 X -15 Y 7 X -31 Y 7 X -9 Y 8 X -16 Y 7 X -2 Y 7 X -1 Y 7 X 1 Y 8 X -17 Y 7 X -5 Y 7 X -21 Y 7 X -18 Y 7 X -28 Y 8 X -14 Y 7 X -32 Y 7 X 6 Y 7 X 3 Y 8 X 11 Y 7 X -14 Y 7 X 7 Y 7 X 2 Y 8 X -15 Y 7 X 4 Y
 7 X -19 Y 7 X -1 Y 7 X -7 Y 8 X -11 Y 7 X 6 Y 7 X 9 Y 7 X 72 Y 8 X 168 Y 7 X 276 Y 7 X 214 Y 7 X 170 Y 7 X 107 Y 8 X 15 Y 7 X -48 Y 7 X -78 Y 7 X -87 Y 8 X -88 Y 7 X -81 Y 7 X -78 Y 7 X -75 Y 8 X -61 Y 7 X -49 Y 7 X -44 Y 7 X -58 Y 7 X -33 Y 8 X -40
 Y 7 X -9 Y 7 X -24 Y 7 X -18 Y 8 X -6 Y 7 X 9 Y 7 X -7 Y 7 X -5 Y 8 X -32 Y 7 X 11 Y 7 X -30 Y 7 X -24 Y 7 X -18 Y 8 X -10 Y 7 X -10 Y 7 X -1 Y 7 X -4 Y 15 X 7 Y 7 X 3 Y 7 X -18 Y 7 X -1 Y 8 X -5 Y 7 X -20 Y 7 X 10 Y 7 X -11 Y 8 X -4 Y 7 X 19 Y 7 X
 38 Y 7 X 137 Y 8 X 187 Y 7 X 296 Y 7 X 259 Y 7 X 122 Y 7 X 71 Y 8 X -46 Y 7 X -113 Y 7 X -98 Y 7 X -100 Y 8 X -86 Y 7 X -93 Y 7 X -70 Y 7 X -75 Y 7 X -41 Y 8 X -57 Y 7 X -37 Y 7 X -48 Y 7 X -38 Y 8 X -13 Y 7 X -20 Y 7 X -21 Y 7 X 1 Y 8 X -13 Y 7 X 2
 Y 7 X -5 Y 7 X -7 Y 7 X -30 Y 8 X -14 Y 7 X -27 Y 7 X -20 Y 7 X -13 Y 15 X -1 Y 7 X 4 Y 7 X -4 Y 7 X -5 Y 8 X 5 Y 7 X s black 227 154 m 1814 X s
 gsave  2268 1540 0 0 C 2004.56 55.2309 t 0 r /Helvetica findfont 48.7332 sf 0 0 m (s]) show NC gr 
 gsave  2268 1540 0 0 C 1975.32 55.2309 t 0 r /Symbol findfont 48.7332 sf 0 0 m (m) show NC gr 
 gsave  2268 1540 0 0 C 1933.08 55.2309 t 0 r /Helvetica findfont 48.7332 sf 0 0 m (t [) show NC gr  229 191 m -37 Y s 320 172 m -18 Y s 410 172 m -18 Y s 500 172 m -18 Y s 591 191 m -37 Y s 681 172 m -18 Y s 772 172 m -18 Y s 862 172 m -18 Y s 952
 191 m -37 Y s 1043 172 m -18 Y s 1133 172 m -18 Y s 1223 172 m -18 Y s 1314 191 m -37 Y s 1404 172 m -18 Y s 1494 172 m -18 Y s 1585 172 m -18 Y s 1675 191 m -37 Y s 1765 172 m -18 Y s 1856 172 m -18 Y s 1946 172 m -18 Y s 2036 191 m -37 Y s 229 191
 m -37 Y s 2036 191 m -37 Y s
 gsave  2268 1540 0 0 C 214.426 103.964 t 0 r /Helvetica findfont 48.7332 sf 0 0 m (2) show NC gr 
 gsave  2268 1540 0 0 C 539.314 103.964 t 0 r /Helvetica findfont 48.7332 sf 0 0 m (2.02) show NC gr 
 gsave  2268 1540 0 0 C 903.188 103.964 t 0 r /Helvetica findfont 48.7332 sf 0 0 m (2.04) show NC gr 
 gsave  2268 1540 0 0 C 1263.81 103.964 t 0 r /Helvetica findfont 48.7332 sf 0 0 m (2.06) show NC gr 
 gsave  2268 1540 0 0 C 1624.44 103.964 t 0 r /Helvetica findfont 48.7332 sf 0 0 m (2.08) show NC gr 
 gsave  2268 1540 0 0 C 2004.56 103.964 t 0 r /Helvetica findfont 48.7332 sf 0 0 m (2.1) show NC gr  227 154 m 1232 Y s
 gsave  2268 1540 0 0 C 110.462 1111.12 t 90 r /Helvetica findfont 48.7332 sf 0 0 m (Voltage [mV]) show NC gr  281 154 m -54 X s 254 185 m -27 X s 254 216 m -27 X s 254 247 m -27 X s 254 278 m -27 X s 281 310 m -54 X s 254 341 m -27 X s 254 372 m -27
 X s 254 403 m -27 X s 254 434 m -27 X s 281 465 m -54 X s 254 496 m -27 X s 254 527 m -27 X s 254 559 m -27 X s 254 590 m -27 X s 281 621 m -54 X s 254 652 m -27 X s 254 683 m -27 X s 254 714 m -27 X s 254 745 m -27 X s 281 776 m -54 X s 254 808 m
 -27 X s 254 839 m -27 X s 254 870 m -27 X s 254 901 m -27 X s 281 932 m -54 X s 254 963 m -27 X s 254 994 m -27 X s 254 1025 m -27 X s 254 1057 m -27 X s 281 1088 m -54 X s 254 1119 m -27 X s 254 1150 m -27 X s 254 1181 m -27 X s 254 1212 m -27 X s
 281 1243 m -54 X s 281 1243 m -54 X s 254 1274 m -27 X s 254 1306 m -27 X s 254 1337 m -27 X s 254 1368 m -27 X s
 gsave  2268 1540 0 0 C 188.435 136.453 t 0 r /Helvetica findfont 48.7332 sf 0 0 m (0) show NC gr 
 gsave  2268 1540 0 0 C 188.435 292.399 t 0 r /Helvetica findfont 48.7332 sf 0 0 m (5) show NC gr 
 gsave  2268 1540 0 0 C 162.444 448.345 t 0 r /Helvetica findfont 48.7332 sf 0 0 m (10) show NC gr 
 gsave  2268 1540 0 0 C 159.195 604.291 t 0 r /Helvetica findfont 48.7332 sf 0 0 m (15) show NC gr 
 gsave  2268 1540 0 0 C 162.444 756.988 t 0 r /Helvetica findfont 48.7332 sf 0 0 m (20) show NC gr 
 gsave  2268 1540 0 0 C 159.195 912.935 t 0 r /Helvetica findfont 48.7332 sf 0 0 m (25) show NC gr 
 gsave  2268 1540 0 0 C 162.444 1068.88 t 0 r /Helvetica findfont 48.7332 sf 0 0 m (30) show NC gr 
 gsave  2268 1540 0 0 C 159.195 1224.83 t 0 r /Helvetica findfont 48.7332 sf 0 0 m (35) show NC gr  1 1 1 c black
 gsave  2268 1540 0 0 C 425.603 1471.74 t 0 r /Helvetica findfont 55.2309 sf 0 0 m (Polyrystalline Diamond Signal on Nov 15th \(fine structure\)) show NC gr 
 gr  gr showpage
end
%%EOF
