%!PS-Adobe-2.0 EPSF-2.0
%%BoundingBox:  0 0 567 333
%%Title: : Signal vs Time Canvas (TProfile)
%%Creator: ROOT Version 5.34/39
%%CreationDate: Wed Apr 10 17:17:05 2019
%%EndComments
%%BeginProlog
80 dict begin
/s {stroke} def /l {lineto} def /m {moveto} def /t {translate} def
/r {rotate} def /rl {roll}  def /R {repeat} def
/d {rlineto} def /rm {rmoveto} def /gr {grestore} def /f {eofill} def
/c {setrgbcolor} def /black {0 setgray} def /sd {setdash} def
/cl {closepath} def /sf {scalefont setfont} def /lw {setlinewidth} def
/box {m dup 0 exch d exch 0 d 0 exch neg d cl} def
/NC{systemdict begin initclip end}def/C{NC box clip newpath}def
/bl {box s} def /bf {gsave box gsave f grestore 1 lw [] 0 sd s grestore} def /Y { 0 exch d} def /X { 0 d} def 
/K {{pop pop 0 moveto} exch kshow} bind def
/ita {/ang 15 def gsave [1 0 ang dup sin exch cos div 1 0 0] concat} def 
/mp {newpath /y exch def /x exch def} def
/side {[w .77 mul w .23 mul] .385 w mul sd w 0 l currentpoint t -144 r} def
/mr {mp x y w2 0 360 arc} def /m24 {mr s} def /m20 {mr f} def
/mb {mp x y w2 add m w2 neg 0 d 0 w neg d w 0 d 0 w d cl} def
/mt {mp x y w2 add m w2 neg w neg d w 0 d cl} def
/m21 {mb f} def /m25 {mb s} def /m22 {mt f} def /m26{mt s} def
/m23 {mp x y w2 sub m w2 w d w neg 0 d cl f} def
/m27 {mp x y w2 add m w3 neg w2 neg d w3 w2 neg d w3 w2 d cl s} def
/m28 {mp x w2 sub y w2 sub w3 add m w3 0 d  0 w3 neg d w3 0 d 0 w3 d w3 0 d  0 w3 d w3 neg 0 d 0 w3 d w3 neg 0 d 0 w3 neg d w3 neg 0 d cl s } def
/m29 {mp gsave x w2 sub y w2 add w3 sub m currentpoint t 4 {side} repeat cl fill gr} def
/m30 {mp gsave x w2 sub y w2 add w3 sub m currentpoint t 4 {side} repeat cl s gr} def
/m31 {mp x y w2 sub m 0 w d x w2 sub y m w 0 d x w2 sub y w2 add m w w neg d x w2 sub y w2 sub m w w d s} def
/m32 {mp x y w2 sub m w2 w d w neg 0 d cl s} def
/m33 {mp x y w2 add m w3 neg w2 neg d w3 w2 neg d w3 w2 d cl f} def
/m34 {mp x w2 sub y w2 sub w3 add m w3 0 d  0 w3 neg d w3 0 d 0 w3 d w3 0 d  0 w3 d w3 neg 0 d 0 w3 d w3 neg 0 d 0 w3 neg d w3 neg 0 d cl f } def
/m2 {mp x y w2 sub m 0 w d x w2 sub y m w 0 d s} def
/m5 {mp x w2 sub y w2 sub m w w d x w2 sub y w2 add m w w neg d s} def
/reEncode {exch findfont dup length dict begin {1 index /FID eq  {pop pop} {def} ifelse } forall /Encoding exch def currentdict end dup /FontName get exch definefont pop } def [/Times-Bold /Times-Italic /Times-BoldItalic /Helvetica /Helvetica-Oblique
 /Helvetica-Bold /Helvetica-BoldOblique /Courier /Courier-Oblique /Courier-Bold /Courier-BoldOblique /Times-Roman /AvantGarde-Book /AvantGarde-BookOblique /AvantGarde-Demi /AvantGarde-DemiOblique /Bookman-Demi /Bookman-DemiItalic /Bookman-Light
 /Bookman-LightItalic /Helvetica-Narrow /Helvetica-Narrow-Bold /Helvetica-Narrow-BoldOblique /Helvetica-Narrow-Oblique /NewCenturySchlbk-Roman /NewCenturySchlbk-Bold /NewCenturySchlbk-BoldItalic /NewCenturySchlbk-Italic /Palatino-Bold
 /Palatino-BoldItalic /Palatino-Italic /Palatino-Roman ] {ISOLatin1Encoding reEncode } forall
%%EndProlog
%%BeginSetup
%%EndSetup
newpath  gsave  .25 .25 scale  gsave  0 0 t black[  ] 0 sd 3 lw 1 1 1 c 2268 1334 0 0 bf black 1 1 1 c 1814 1067 227 133 bf black 1814 1067 227 133 bl 1 1 1 c 1814 1067 227 133 bf black 1814 1067 227 133 bl 0 0 0.6 c 1 1 1 c black 0 0 0.6 c 230 403 m
 s 230 403 m 1 Y s 227 403 m 3 X s 230 403 m 3 X s black /w 2 def /w2 {w 2 div} def /w3 {w 3 div} def 230 403 m20 0 0 0.6 c 236 419 m s 236 419 m s 233 419 m 3 X s 236 419 m 3 X s black 236 419 m20 0 0 0.6 c 243 393 m 3 Y s 243 396 m 3 Y s 239 396 m
 4 X s 243 396 m 3 X s black 243 396 m20 0 0 0.6 c 249 420 m s 249 420 m 1 Y s 246 420 m 3 X s 249 420 m 3 X s black 249 420 m20 0 0 0.6 c 255 413 m 1 Y s 255 414 m 1 Y s 252 414 m 3 X s 255 414 m 3 X s black 255 414 m20 0 0 0.6 c 262 413 m 1 Y s 262
 414 m s 258 414 m 4 X s 262 414 m 3 X s black 262 414 m20 0 0 0.6 c 268 412 m 1 Y s 268 413 m 1 Y s 265 413 m 3 X s 268 413 m 3 X s black 268 413 m20 0 0 0.6 c 274 421 m s 274 421 m 1 Y s 271 421 m 3 X s 274 421 m 4 X s black 274 421 m20 0 0 0.6 c
 281 433 m 1 Y s 281 434 m s 278 434 m 3 X s 281 434 m 3 X s black 281 434 m20 0 0 0.6 c 287 438 m s 287 438 m 1 Y s 284 438 m 3 X s 287 438 m 3 X s black 287 438 m20 0 0 0.6 c 293 433 m s 293 433 m 1 Y s 290 433 m 3 X s 293 433 m 4 X s black 293 433
 m20 0 0 0.6 c 300 433 m s 300 433 m s 297 433 m 3 X s 300 433 m 3 X s black 300 433 m20 0 0 0.6 c 312 429 m 1 Y s 312 430 m s 309 430 m 3 X s 312 430 m 4 X s black 312 430 m20 0 0 0.6 c 319 441 m s 319 441 m 1 Y s 316 441 m 3 X s 319 441 m 3 X s
 black 319 441 m20 0 0 0.6 c 325 437 m 1 Y s 325 438 m s 322 438 m 3 X s 325 438 m 3 X s black 325 438 m20 0 0 0.6 c 331 444 m 1 Y s 331 445 m s 328 445 m 3 X s 331 445 m 4 X s black 331 445 m20 0 0 0.6 c 338 448 m s 338 448 m s 335 448 m 3 X s 338
 448 m 3 X s black 338 448 m20 0 0 0.6 c 344 444 m 1 Y s 344 445 m s 341 445 m 3 X s 344 445 m 3 X s black 344 445 m20 0 0 0.6 c 350 441 m s 350 441 m 1 Y s 347 441 m 3 X s 350 441 m 4 X s black 350 441 m20 0 0 0.6 c 357 439 m 1 Y s 357 440 m s 354
 440 m 3 X s 357 440 m 3 X s black 357 440 m20 0 0 0.6 c 363 437 m s 363 437 m 1 Y s 360 437 m 3 X s 363 437 m 3 X s black 363 437 m20 0 0 0.6 c 369 432 m s 369 432 m 1 Y s 366 432 m 3 X s 369 432 m 4 X s black 369 432 m20 0 0 0.6 c 376 433 m 1 Y s
 376 434 m s 373 434 m 3 X s 376 434 m 3 X s black 376 434 m20 0 0 0.6 c 382 431 m s 382 431 m s 379 431 m 3 X s 382 431 m 3 X s black 382 431 m20 0 0 0.6 c 389 430 m s 389 430 m 1 Y s 385 430 m 4 X s 389 430 m 3 X s black 389 430 m20 0 0 0.6 c 395
 419 m 1 Y s 395 420 m 1 Y s 392 420 m 3 X s 395 420 m 3 X s black 395 420 m20 0 0 0.6 c 401 424 m s 401 424 m s 398 424 m 3 X s 401 424 m 3 X s black 401 424 m20 0 0 0.6 c 408 420 m s 408 420 m s 404 420 m 4 X s 408 420 m 3 X s black 408 420 m20 0 0
 0.6 c 414 415 m s 414 415 m 1 Y s 411 415 m 3 X s 414 415 m 3 X s black 414 415 m20 0 0 0.6 c 420 415 m s 420 415 m 1 Y s 417 415 m 3 X s 420 415 m 3 X s black 420 415 m20 0 0 0.6 c 427 417 m 1 Y s 427 418 m s 423 418 m 4 X s 427 418 m 3 X s black
 427 418 m20 0 0 0.6 c 433 419 m s 433 419 m s 430 419 m 3 X s 433 419 m 3 X s black 433 419 m20 0 0 0.6 c 439 415 m s 439 415 m s 436 415 m 3 X s 439 415 m 3 X s black 439 415 m20 0 0 0.6 c 446 413 m 1 Y s 446 414 m s 442 414 m 4 X s 446 414 m 3 X s
 black 446 414 m20 0 0 0.6 c 452 411 m 1 Y s 452 412 m s 449 412 m 3 X s 452 412 m 3 X s black 452 412 m20 0 0 0.6 c 458 406 m s 458 406 m s 455 406 m 3 X s 458 406 m 3 X s black 458 406 m20 0 0 0.6 c 465 403 m 1 Y s 465 404 m s 461 404 m 4 X s 465
 404 m 3 X s black 465 404 m20 0 0 0.6 c 471 402 m s 471 402 m s 468 402 m 3 X s 471 402 m 3 X s black 471 402 m20 0 0 0.6 c 477 398 m s 477 398 m s 474 398 m 3 X s 477 398 m 4 X s black 477 398 m20 0 0 0.6 c 484 385 m 1 Y s 484 386 m 1 Y s 481 386 m
 3 X s 484 386 m 3 X s black 484 386 m20 0 0 0.6 c 490 397 m s 490 397 m s 487 397 m 3 X s 490 397 m 3 X s black 490 397 m20 0 0 0.6 c 496 391 m s 496 391 m 1 Y s 493 391 m 3 X s 496 391 m 4 X s black 496 391 m20 0 0 0.6 c 503 392 m s 503 392 m s 500
 392 m 3 X s 503 392 m 3 X s black 503 392 m20 0 0 0.6 c 509 384 m s 509 384 m 1 Y s 506 384 m 3 X s 509 384 m 3 X s black 509 384 m20 0 0 0.6 c 515 393 m 1 Y s 515 394 m s 512 394 m 3 X s 515 394 m 4 X s black 515 394 m20 0 0 0.6 c 522 396 m s 522
 396 m 1 Y s 519 396 m 3 X s 522 396 m 3 X s black 522 396 m20 0 0 0.6 c 528 394 m s 528 394 m s 525 394 m 3 X s 528 394 m 3 X s black 528 394 m20 0 0 0.6 c 534 386 m 1 Y s 534 387 m s 531 387 m 3 X s 534 387 m 4 X s black 534 387 m20 0 0 0.6 c 541
 383 m s 541 383 m 1 Y s 538 383 m 3 X s 541 383 m 3 X s black 541 383 m20 0 0 0.6 c 547 381 m s 547 381 m s 544 381 m 3 X s 547 381 m 3 X s black 547 381 m20 0 0 0.6 c 553 379 m 1 Y s 553 380 m s 550 380 m 3 X s 553 380 m 4 X s black 553 380 m20 0 0
 0.6 c 560 377 m s 560 377 m s 557 377 m 3 X s 560 377 m 3 X s black 560 377 m20 0 0 0.6 c 566 376 m s 566 376 m s 563 376 m 3 X s 566 376 m 3 X s black 566 376 m20 0 0 0.6 c 572 376 m s 572 376 m s 569 376 m 3 X s 572 376 m 4 X s black 572 376 m20 0
 0 0.6 c 579 375 m 1 Y s 579 376 m s 576 376 m 3 X s 579 376 m 3 X s black 579 376 m20 0 0 0.6 c 585 373 m s 585 373 m s 582 373 m 3 X s 585 373 m 3 X s black 585 373 m20 0 0 0.6 c 592 371 m s 592 371 m s 588 371 m 4 X s 592 371 m 3 X s black 592 371
 m20 0 0 0.6 c 598 375 m s 598 375 m 1 Y s 595 375 m 3 X s 598 375 m 3 X s black 598 375 m20 0 0 0.6 c 604 382 m s 604 382 m 1 Y s 601 382 m 3 X s 604 382 m 3 X s black 604 382 m20 0 0 0.6 c 611 369 m s 611 369 m 1 Y s 607 369 m 4 X s 611 369 m 3 X s
 black 611 369 m20 0 0 0.6 c 617 362 m 1 Y s 617 363 m s 614 363 m 3 X s 617 363 m 3 X s black 617 363 m20 0 0 0.6 c 623 358 m 1 Y s 623 359 m s 620 359 m 3 X s 623 359 m 3 X s black 623 359 m20 0 0 0.6 c 630 357 m s 630 357 m 1 Y s 626 357 m 4 X s
 630 357 m 3 X s black 630 357 m20 0 0 0.6 c 636 359 m 1 Y s 636 360 m s 633 360 m 3 X s 636 360 m 3 X s black 636 360 m20 0 0 0.6 c 642 362 m s 642 362 m 1 Y s 639 362 m 3 X s 642 362 m 3 X s black 642 362 m20 0 0 0.6 c 649 362 m 1 Y s 649 363 m s
 645 363 m 4 X s 649 363 m 3 X s black 649 363 m20 0 0 0.6 c 655 350 m s 655 350 m 1 Y s 652 350 m 3 X s 655 350 m 3 X s black 655 350 m20 0 0 0.6 c 661 353 m s 661 353 m 1 Y s 658 353 m 3 X s 661 353 m 3 X s black 661 353 m20 0 0 0.6 c 668 349 m s
 668 349 m 1 Y s 664 349 m 4 X s 668 349 m 3 X s black 668 349 m20 0 0 0.6 c 674 348 m s 674 348 m 1 Y s 671 348 m 3 X s 674 348 m 3 X s black 674 348 m20 0 0 0.6 c 680 348 m s 680 348 m 1 Y s 677 348 m 3 X s 680 348 m 3 X s black 680 348 m20 0 0 0.6
 c 687 346 m 1 Y s 687 347 m s 683 347 m 4 X s 687 347 m 3 X s black 687 347 m20 0 0 0.6 c 693 343 m 1 Y s 693 344 m s 690 344 m 3 X s 693 344 m 3 X s black 693 344 m20 0 0 0.6 c 699 350 m 1 Y s 699 351 m s 696 351 m 3 X s 699 351 m 4 X s black 699
 351 m20 0 0 0.6 c 706 346 m s 706 346 m 1 Y s 703 346 m 3 X s 706 346 m 3 X s black 706 346 m20 0 0 0.6 c 712 342 m s 712 342 m 1 Y s 709 342 m 3 X s 712 342 m 3 X s black 712 342 m20 0 0 0.6 c 718 339 m s 718 339 m s 715 339 m 3 X s 718 339 m 4 X s
 black 718 339 m20 0 0 0.6 c 725 337 m s 725 337 m 1 Y s 722 337 m 3 X s 725 337 m 3 X s black 725 337 m20 0 0 0.6 c 731 337 m 1 Y s 731 338 m s 728 338 m 3 X s 731 338 m 3 X s black 731 338 m20 0 0 0.6 c 737 335 m s 737 335 m 1 Y s 734 335 m 3 X s
 737 335 m 4 X s black 737 335 m20 0 0 0.6 c 744 336 m 1 Y s 744 337 m s 741 337 m 3 X s 744 337 m 3 X s black 744 337 m20 0 0 0.6 c 750 332 m 1 Y s 750 333 m s 747 333 m 3 X s 750 333 m 3 X s black 750 333 m20 0 0 0.6 c 756 336 m s 756 336 m s 753
 336 m 3 X s 756 336 m 4 X s black 756 336 m20 0 0 0.6 c 763 335 m 1 Y s 763 336 m s 760 336 m 3 X s 763 336 m 3 X s black 763 336 m20 0 0 0.6 c 769 333 m 1 Y s 769 334 m s 766 334 m 3 X s 769 334 m 3 X s black 769 334 m20 0 0 0.6 c 775 330 m s 775
 330 m s 772 330 m 3 X s 775 330 m 4 X s black 775 330 m20 0 0 0.6 c 782 330 m s 782 330 m s 779 330 m 3 X s 782 330 m 3 X s black 782 330 m20 0 0 0.6 c 788 328 m 1 Y s 788 329 m s 785 329 m 3 X s 788 329 m 3 X s black 788 329 m20 0 0 0.6 c 794 332 m
 s 794 332 m s 791 332 m 3 X s 794 332 m 4 X s black 794 332 m20 0 0 0.6 c 801 325 m 1 Y s 801 326 m s 798 326 m 3 X s 801 326 m 3 X s black 801 326 m20 0 0 0.6 c 807 324 m s 807 324 m s 804 324 m 3 X s 807 324 m 3 X s black 807 324 m20 0 0 0.6 c 814
 323 m s 814 323 m s 810 323 m 4 X s 814 323 m 3 X s black 814 323 m20 0 0 0.6 c 820 323 m 1 Y s 820 324 m s 817 324 m 3 X s 820 324 m 3 X s black 820 324 m20 0 0 0.6 c 826 321 m s 826 321 m s 823 321 m 3 X s 826 321 m 3 X s black 826 321 m20 0 0 0.6
 c 833 319 m s 833 319 m 1 Y s 829 319 m 4 X s 833 319 m 3 X s black 833 319 m20 0 0 0.6 c 839 317 m 1 Y s 839 318 m s 836 318 m 3 X s 839 318 m 3 X s black 839 318 m20 0 0 0.6 c 845 321 m 1 Y s 845 322 m s 842 322 m 3 X s 845 322 m 3 X s black 845
 322 m20 0 0 0.6 c 852 324 m 1 Y s 852 325 m s 848 325 m 4 X s 852 325 m 3 X s black 852 325 m20 0 0 0.6 c 858 319 m s 858 319 m 1 Y s 855 319 m 3 X s 858 319 m 3 X s black 858 319 m20 0 0 0.6 c 864 317 m 1 Y s 864 318 m s 861 318 m 3 X s 864 318 m 3
 X s black 864 318 m20 0 0 0.6 c 871 312 m s 871 312 m s 867 312 m 4 X s 871 312 m 3 X s black 871 312 m20 0 0 0.6 c 877 314 m s 877 314 m s 874 314 m 3 X s 877 314 m 3 X s black 877 314 m20 0 0 0.6 c 883 312 m s 883 312 m s 880 312 m 3 X s 883 312 m
 3 X s black 883 312 m20 0 0 0.6 c 890 310 m 1 Y s 890 311 m s 886 311 m 4 X s 890 311 m 3 X s black 890 311 m20 0 0 0.6 c 896 308 m s 896 308 m 1 Y s 893 308 m 3 X s 896 308 m 3 X s black 896 308 m20 0 0 0.6 c 902 309 m s 902 309 m 1 Y s 899 309 m 3
 X s 902 309 m 4 X s black 902 309 m20 0 0 0.6 c 909 303 m 1 Y s 909 304 m s 906 304 m 3 X s 909 304 m 3 X s black 909 304 m20 0 0 0.6 c 915 300 m s 915 300 m s 912 300 m 3 X s 915 300 m 3 X s black 915 300 m20 0 0 0.6 c 928 302 m 4 Y s 928 306 m 3 Y
 s 925 306 m 3 X s 928 306 m 3 X s black 928 306 m20 0 0 0.6 c 934 304 m s 934 304 m 1 Y s 931 304 m 3 X s 934 304 m 3 X s black 934 304 m20 0 0 0.6 c 940 302 m s 940 302 m 1 Y s 937 302 m 3 X s 940 302 m 4 X s black 940 302 m20 0 0 0.6 c 947 299 m s
 947 299 m 1 Y s 944 299 m 3 X s 947 299 m 3 X s black 947 299 m20 0 0 0.6 c 953 298 m s 953 298 m 1 Y s 950 298 m 3 X s 953 298 m 3 X s black 953 298 m20 0 0 0.6 c 959 301 m s 959 301 m 1 Y s 956 301 m 3 X s 959 301 m 4 X s black 959 301 m20 0 0 0.6
 c 966 300 m s 966 300 m 1 Y s 963 300 m 3 X s 966 300 m 3 X s black 966 300 m20 0 0 0.6 c 972 299 m 1 Y s 972 300 m s 969 300 m 3 X s 972 300 m 3 X s black 972 300 m20 0 0 0.6 c 978 301 m s 978 301 m 1 Y s 975 301 m 3 X s 978 301 m 4 X s black 978
 301 m20 0 0 0.6 c 985 299 m s 985 299 m 1 Y s 982 299 m 3 X s 985 299 m 3 X s black 985 299 m20 0 0 0.6 c 991 297 m 1 Y s 991 298 m s 988 298 m 3 X s 991 298 m 3 X s black 991 298 m20 0 0 0.6 c 997 295 m 1 Y s 997 296 m 1 Y s 994 296 m 3 X s 997 296
 m 4 X s black 997 296 m20 0 0 0.6 c 1004 290 m s 1004 290 m s 1001 290 m 3 X s 1004 290 m 3 X s black 1004 290 m20 0 0 0.6 c 1010 287 m s 1010 287 m 1 Y s 1007 287 m 3 X s 1010 287 m 3 X s black 1010 287 m20 0 0 0.6 c 1017 289 m s 1017 289 m s 1013
 289 m 4 X s 1017 289 m 3 X s black 1017 289 m20 0 0 0.6 c 1023 288 m s 1023 288 m 1 Y s 1020 288 m 3 X s 1023 288 m 3 X s black 1023 288 m20 0 0 0.6 c 1029 287 m 1 Y s 1029 288 m s 1026 288 m 3 X s 1029 288 m 3 X s black 1029 288 m20 0 0 0.6 c 1036
 288 m s 1036 288 m 1 Y s 1032 288 m 4 X s 1036 288 m 3 X s black 1036 288 m20 0 0 0.6 c 1042 289 m s 1042 289 m s 1039 289 m 3 X s 1042 289 m 3 X s black 1042 289 m20 0 0 0.6 c 1048 288 m 1 Y s 1048 289 m s 1045 289 m 3 X s 1048 289 m 3 X s black
 1048 289 m20 0 0 0.6 c 1055 287 m 1 Y s 1055 288 m s 1051 288 m 4 X s 1055 288 m 3 X s black 1055 288 m20 0 0 0.6 c 1061 285 m s 1061 285 m s 1058 285 m 3 X s 1061 285 m 3 X s black 1061 285 m20 0 0 0.6 c 1067 283 m s 1067 283 m s 1064 283 m 3 X s
 1067 283 m 3 X s black 1067 283 m20 0 0 0.6 c 1074 283 m 1 Y s 1074 284 m s 1070 284 m 4 X s 1074 284 m 3 X s black 1074 284 m20 0 0 0.6 c 1080 288 m s 1080 288 m s 1077 288 m 3 X s 1080 288 m 3 X s black 1080 288 m20 0 0 0.6 c 1086 280 m 1 Y s 1086
 281 m s 1083 281 m 3 X s 1086 281 m 3 X s black 1086 281 m20 0 0 0.6 c 1093 279 m s 1093 279 m s 1089 279 m 4 X s 1093 279 m 3 X s black 1093 279 m20 0 0 0.6 c 1099 273 m s 1099 273 m s 1096 273 m 3 X s 1099 273 m 3 X s black 1099 273 m20 0 0 0.6 c
 1105 262 m s 1105 262 m s 1102 262 m 3 X s 1105 262 m 3 X s black 1105 262 m20 0 0 0.6 c 1112 263 m s 1112 263 m s 1108 263 m 4 X s 1112 263 m 3 X s black 1112 263 m20 0 0 0.6 c 1118 258 m s 1118 258 m 1 Y s 1115 258 m 3 X s 1118 258 m 3 X s black
 1118 258 m20 0 0 0.6 c 1124 260 m s 1124 260 m s 1121 260 m 3 X s 1124 260 m 4 X s black 1124 260 m20 0 0 0.6 c 1131 257 m s 1131 257 m 1 Y s 1128 257 m 3 X s 1131 257 m 3 X s black 1131 257 m20 0 0 0.6 c 1137 258 m s 1137 258 m 1 Y s 1134 258 m 3 X
 s 1137 258 m 3 X s black 1137 258 m20 0 0 0.6 c 1143 255 m s 1143 255 m s 1140 255 m 3 X s 1143 255 m 4 X s black 1143 255 m20 0 0 0.6 c 1150 255 m 1 Y s 1150 256 m s 1147 256 m 3 X s 1150 256 m 3 X s black 1150 256 m20 0 0 0.6 c 1156 250 m s 1156
 250 m 1 Y s 1153 250 m 3 X s 1156 250 m 3 X s black 1156 250 m20 0 0 0.6 c 1162 249 m 1 Y s 1162 250 m s 1159 250 m 3 X s 1162 250 m 4 X s black 1162 250 m20 0 0 0.6 c 1169 249 m s 1169 249 m s 1166 249 m 3 X s 1169 249 m 3 X s black 1169 249 m20 0
 0 0.6 c 1175 249 m 1 Y s 1175 250 m s 1172 250 m 3 X s 1175 250 m 3 X s black 1175 250 m20 0 0 0.6 c 1181 250 m s 1181 250 m s 1178 250 m 3 X s 1181 250 m 4 X s black 1181 250 m20 0 0 0.6 c 1188 251 m 1 Y s 1188 252 m s 1185 252 m 3 X s 1188 252 m 3
 X s black 1188 252 m20 0 0 0.6 c 1194 241 m 1 Y s 1194 242 m s 1191 242 m 3 X s 1194 242 m 3 X s black 1194 242 m20 0 0 0.6 c 1200 246 m s 1200 246 m s 1197 246 m 3 X s 1200 246 m 4 X s black 1200 246 m20 0 0 0.6 c 1207 243 m s 1207 243 m s 1204 243
 m 3 X s 1207 243 m 3 X s black 1207 243 m20 0 0 0.6 c 1213 236 m 1 Y s 1213 237 m s 1210 237 m 3 X s 1213 237 m 3 X s black 1213 237 m20 0 0 0.6 c 1219 234 m s 1219 234 m s 1216 234 m 3 X s 1219 234 m 4 X s black 1219 234 m20 0 0 0.6 c 1226 236 m s
 1226 236 m s 1223 236 m 3 X s 1226 236 m 3 X s black 1226 236 m20 0 0 0.6 c 1232 236 m s 1232 236 m 1 Y s 1229 236 m 3 X s 1232 236 m 3 X s black 1232 236 m20 0 0 0.6 c 1239 236 m 1 Y s 1239 237 m s 1235 237 m 4 X s 1239 237 m 3 X s black 1239 237
 m20 0 0 0.6 c 1245 238 m s 1245 238 m s 1242 238 m 3 X s 1245 238 m 3 X s black 1245 238 m20 0 0 0.6 c 1251 236 m s 1251 236 m s 1248 236 m 3 X s 1251 236 m 3 X s black 1251 236 m20 0 0 0.6 c 1258 234 m s 1258 234 m 1 Y s 1254 234 m 4 X s 1258 234 m
 3 X s black 1258 234 m20 0 0 0.6 c 1264 232 m s 1264 232 m 1 Y s 1261 232 m 3 X s 1264 232 m 3 X s black 1264 232 m20 0 0 0.6 c 1270 231 m s 1270 231 m s 1267 231 m 3 X s 1270 231 m 3 X s black 1270 231 m20 0 0 0.6 c 1277 214 m 1 Y s 1277 215 m 1 Y
 s 1273 215 m 4 X s 1277 215 m 3 X s black 1277 215 m20 0 0 0.6 c 1283 215 m s 1283 215 m 1 Y s 1280 215 m 3 X s 1283 215 m 3 X s black 1283 215 m20 0 0 0.6 c 1289 219 m s 1289 219 m s 1286 219 m 3 X s 1289 219 m 3 X s black 1289 219 m20 0 0 0.6 c
 1296 227 m 1 Y s 1296 228 m s 1292 228 m 4 X s 1296 228 m 3 X s black 1296 228 m20 0 0 0.6 c 1302 226 m s 1302 226 m s 1299 226 m 3 X s 1302 226 m 3 X s black 1302 226 m20 0 0 0.6 c 1308 225 m s 1308 225 m 1 Y s 1305 225 m 3 X s 1308 225 m 3 X s
 black 1308 225 m20 0 0 0.6 c 1315 225 m 1 Y s 1315 226 m s 1311 226 m 4 X s 1315 226 m 3 X s black 1315 226 m20 0 0 0.6 c 1321 226 m 1 Y s 1321 227 m s 1318 227 m 3 X s 1321 227 m 3 X s black 1321 227 m20 0 0 0.6 c 1327 225 m s 1327 225 m s 1324 225
 m 3 X s 1327 225 m 3 X s black 1327 225 m20 0 0 0.6 c 1334 228 m s 1334 228 m 1 Y s 1330 228 m 4 X s 1334 228 m 3 X s black 1334 228 m20 0 0 0.6 c 1340 209 m 2 Y s 1340 211 m 1 Y s 1337 211 m 3 X s 1340 211 m 3 X s black 1340 211 m20 0 0 0.6 c 1346
 223 m s 1346 223 m 1 Y s 1343 223 m 3 X s 1346 223 m 4 X s black 1346 223 m20 0 0 0.6 c 1353 222 m 1 Y s 1353 223 m s 1350 223 m 3 X s 1353 223 m 3 X s black 1353 223 m20 0 0 0.6 c 1359 218 m s 1359 218 m 1 Y s 1356 218 m 3 X s 1359 218 m 3 X s
 black 1359 218 m20 0 0 0.6 c 1365 218 m s 1365 218 m s 1362 218 m 3 X s 1365 218 m 4 X s black 1365 218 m20 0 0 0.6 c 1372 216 m s 1372 216 m 1 Y s 1369 216 m 3 X s 1372 216 m 3 X s black 1372 216 m20 0 0 0.6 c 1378 216 m s 1378 216 m 1 Y s 1375 216
 m 3 X s 1378 216 m 3 X s black 1378 216 m20 0 0 0.6 c 1384 208 m s 1384 208 m 1 Y s 1381 208 m 3 X s 1384 208 m 4 X s black 1384 208 m20 0 0 0.6 c 1391 208 m 1 Y s 1391 209 m s 1388 209 m 3 X s 1391 209 m 3 X s black 1391 209 m20 0 0 0.6 c 1397 204
 m s 1397 204 m 1 Y s 1394 204 m 3 X s 1397 204 m 3 X s black 1397 204 m20 0 0 0.6 c 1403 205 m 1 Y s 1403 206 m s 1400 206 m 3 X s 1403 206 m 4 X s black 1403 206 m20 0 0 0.6 c 1410 204 m 1 Y s 1410 205 m s 1407 205 m 3 X s 1410 205 m 3 X s black
 1410 205 m20 0 0 0.6 c 1416 206 m s 1416 206 m s 1413 206 m 3 X s 1416 206 m 3 X s black 1416 206 m20 0 0 0.6 c 1422 206 m 1 Y s 1422 207 m s 1419 207 m 3 X s 1422 207 m 4 X s black 1422 207 m20 0 0 0.6 c 1429 206 m 1 Y s 1429 207 m s 1426 207 m 3 X
 s 1429 207 m 3 X s black 1429 207 m20 0 0 0.6 c 1435 204 m s 1435 204 m 1 Y s 1432 204 m 3 X s 1435 204 m 3 X s black 1435 204 m20 0 0 0.6 c 1442 202 m s 1442 202 m 1 Y s 1438 202 m 4 X s 1442 202 m 3 X s black 1442 202 m20 0 0 0.6 c 1448 201 m s
 1448 201 m 1 Y s 1445 201 m 3 X s 1448 201 m 3 X s black 1448 201 m20 0 0 0.6 c 1454 197 m s 1454 197 m 1 Y s 1451 197 m 3 X s 1454 197 m 3 X s black 1454 197 m20 0 0 0.6 c 1461 200 m 1 Y s 1461 201 m s 1457 201 m 4 X s 1461 201 m 3 X s black 1461
 201 m20 0 0 0.6 c 1467 206 m s 1467 206 m 1 Y s 1464 206 m 3 X s 1467 206 m 3 X s black 1467 206 m20 0 0 0.6 c 1473 202 m s 1473 202 m 1 Y s 1470 202 m 3 X s 1473 202 m 3 X s black 1473 202 m20 0 0 0.6 c 1480 198 m s 1480 198 m 1 Y s 1476 198 m 4 X
 s 1480 198 m 3 X s black 1480 198 m20 0 0 0.6 c 1486 197 m s 1486 197 m s 1483 197 m 3 X s 1486 197 m 3 X s black 1486 197 m20 0 0 0.6 c 1492 197 m s 1492 197 m s 1489 197 m 3 X s 1492 197 m 3 X s black 1492 197 m20 0 0 0.6 c 1499 197 m s 1499 197 m
 1 Y s 1495 197 m 4 X s 1499 197 m 3 X s black 1499 197 m20 0 0 0.6 c 1505 194 m 1 Y s 1505 195 m s 1502 195 m 3 X s 1505 195 m 3 X s black 1505 195 m20 0 0 0.6 c 1511 196 m 1 Y s 1511 197 m s 1508 197 m 3 X s 1511 197 m 3 X s black 1511 197 m20 0 0
 0.6 c 1518 193 m 1 Y s 1518 194 m s 1514 194 m 4 X s 1518 194 m 3 X s black 1518 194 m20 0 0 0.6 c 1524 194 m s 1524 194 m 1 Y s 1521 194 m 3 X s 1524 194 m 3 X s black 1524 194 m20 0 0 0.6 c 1530 196 m s 1530 196 m s 1527 196 m 3 X s 1530 196 m 3 X
 s black 1530 196 m20 0 0 0.6 c 1537 193 m s 1537 193 m 1 Y s 1533 193 m 4 X s 1537 193 m 3 X s black 1537 193 m20 0 0 0.6 c 1543 192 m 1 Y s 1543 193 m s 1540 193 m 3 X s 1543 193 m 3 X s black 1543 193 m20 0 0 0.6 c 1549 192 m s 1549 192 m 1 Y s
 1546 192 m 3 X s 1549 192 m 4 X s black 1549 192 m20 0 0 0.6 c 1556 191 m 1 Y s 1556 192 m s 1553 192 m 3 X s 1556 192 m 3 X s black 1556 192 m20 0 0 0.6 c 1562 191 m s 1562 191 m s 1559 191 m 3 X s 1562 191 m 3 X s black 1562 191 m20 0 0 0.6 c 1568
 192 m 1 Y s 1568 193 m s 1565 193 m 3 X s 1568 193 m 4 X s black 1568 193 m20 0 0 0.6 c 1575 181 m 1 Y s 1575 182 m s 1572 182 m 3 X s 1575 182 m 3 X s black 1575 182 m20 0 0 0.6 c 1581 186 m s 1581 186 m s 1578 186 m 3 X s 1581 186 m 3 X s black
 1581 186 m20 0 0 0.6 c 1587 187 m s 1587 187 m s 1584 187 m 3 X s 1587 187 m 4 X s black 1587 187 m20 0 0 0.6 c 1594 190 m 1 Y s 1594 191 m s 1591 191 m 3 X s 1594 191 m 3 X s black 1594 191 m20 0 0 0.6 c 1600 188 m s 1600 188 m s 1597 188 m 3 X s
 1600 188 m 3 X s black 1600 188 m20 0 0 0.6 c 1606 179 m s 1606 179 m 1 Y s 1603 179 m 3 X s 1606 179 m 4 X s black 1606 179 m20 0 0 0.6 c 1613 176 m s 1613 176 m 1 Y s 1610 176 m 3 X s 1613 176 m 3 X s black 1613 176 m20 0 0 0.6 c 1619 174 m 1 Y s
 1619 175 m s 1616 175 m 3 X s 1619 175 m 3 X s black 1619 175 m20 0 0 0.6 c 1625 1152 m 3 Y s 1625 1155 m 2 Y s 1622 1155 m 3 X s 1625 1155 m 4 X s black 1625 1155 m20 0 0 0.6 c 1638 1155 m 1 Y s 1638 1156 m 1 Y s 1635 1156 m 3 X s 1638 1156 m 3 X s
 black 1638 1156 m20 0 0 0.6 c 1644 1159 m s 1644 1159 m 1 Y s 1641 1159 m 3 X s 1644 1159 m 4 X s black 1644 1159 m20 0 0 0.6 c 1651 1160 m s 1651 1160 m 1 Y s 1648 1160 m 3 X s 1651 1160 m 3 X s black 1651 1160 m20 0 0 0.6 c 1657 1169 m 1 Y s 1657
 1170 m s 1654 1170 m 3 X s 1657 1170 m 3 X s black 1657 1170 m20 0 0 0.6 c 1664 1171 m s 1664 1171 m s 1660 1171 m 4 X s 1664 1171 m 3 X s black 1664 1171 m20 0 0 0.6 c 1670 1171 m s 1670 1171 m 1 Y s 1667 1171 m 3 X s 1670 1171 m 3 X s black 1670
 1171 m20 0 0 0.6 c 1676 1169 m s 1676 1169 m 1 Y s 1673 1169 m 3 X s 1676 1169 m 3 X s black 1676 1169 m20 0 0 0.6 c 1683 1170 m s 1683 1170 m s 1679 1170 m 4 X s 1683 1170 m 3 X s black 1683 1170 m20 0 0 0.6 c 1689 1171 m s 1689 1171 m s 1686 1171
 m 3 X s 1689 1171 m 3 X s black 1689 1171 m20 0 0 0.6 c 1695 1170 m s 1695 1170 m s 1692 1170 m 3 X s 1695 1170 m 3 X s black 1695 1170 m20 0 0 0.6 c 1702 1163 m s 1702 1163 m s 1698 1163 m 4 X s 1702 1163 m 3 X s black 1702 1163 m20 0 0 0.6 c 1708
 1159 m 1 Y s 1708 1160 m 1 Y s 1705 1160 m 3 X s 1708 1160 m 3 X s black 1708 1160 m20 0 0 0.6 c 1740 1149 m 1 Y s 1740 1150 m 1 Y s 1736 1150 m 4 X s 1740 1150 m 3 X s black 1740 1150 m20 0 0 0.6 c 1746 1154 m s 1746 1154 m 1 Y s 1743 1154 m 3 X s
 1746 1154 m 3 X s black 1746 1154 m20 0 0 0.6 c 1752 1163 m s 1752 1163 m 1 Y s 1749 1163 m 3 X s 1752 1163 m 3 X s black 1752 1163 m20 0 0 0.6 c 1759 1165 m s 1759 1165 m s 1755 1165 m 4 X s 1759 1165 m 3 X s black 1759 1165 m20 0 0 0.6 c 1765 1168
 m s 1765 1168 m s 1762 1168 m 3 X s 1765 1168 m 3 X s black 1765 1168 m20 0 0 0.6 c 1771 1165 m s 1771 1165 m 1 Y s 1768 1165 m 3 X s 1771 1165 m 4 X s black 1771 1165 m20 0 0 0.6 c 1778 1166 m s 1778 1166 m s 1775 1166 m 3 X s 1778 1166 m 3 X s
 black 1778 1166 m20 0 0 0.6 c 1784 1159 m 1 Y s 1784 1160 m s 1781 1160 m 3 X s 1784 1160 m 3 X s black 1784 1160 m20 0 0 0.6 c 1790 1156 m s 1790 1156 m 1 Y s 1787 1156 m 3 X s 1790 1156 m 4 X s black 1790 1156 m20 0 0 0.6 c 1797 1151 m 1 Y s 1797
 1152 m s 1794 1152 m 3 X s 1797 1152 m 3 X s black 1797 1152 m20 0 0 0.6 c 1803 1151 m s 1803 1151 m s 1800 1151 m 3 X s 1803 1151 m 3 X s black 1803 1151 m20 0 0 0.6 c 1828 1164 m 1 Y s 1828 1165 m 1 Y s 1825 1165 m 3 X s 1828 1165 m 4 X s black
 1828 1165 m20 0 0 0.6 c 1835 1157 m s 1835 1157 m 1 Y s 1832 1157 m 3 X s 1835 1157 m 3 X s black 1835 1157 m20 0 0 0.6 c 1841 1153 m s 1841 1153 m 1 Y s 1838 1153 m 3 X s 1841 1153 m 3 X s black 1841 1153 m20 0 0 0.6 c 1847 1150 m s 1847 1150 m 1 Y
 s 1844 1150 m 3 X s 1847 1150 m 4 X s black 1847 1150 m20 0 0 0.6 c 1854 1148 m 1 Y s 1854 1149 m s 1851 1149 m 3 X s 1854 1149 m 3 X s black 1854 1149 m20 0 0 0.6 c 1860 1147 m 1 Y s 1860 1148 m s 1857 1148 m 3 X s 1860 1148 m 3 X s black 1860 1148
 m20 0 0 0.6 c 1867 1147 m s 1867 1147 m 1 Y s 1863 1147 m 4 X s 1867 1147 m 3 X s black 1867 1147 m20 0 0 0.6 c 1873 1148 m 1 Y s 1873 1149 m s 1870 1149 m 3 X s 1873 1149 m 3 X s black 1873 1149 m20 0 0 0.6 c 1879 1144 m s 1879 1144 m 1 Y s 1876
 1144 m 3 X s 1879 1144 m 3 X s black 1879 1144 m20 0 0 0.6 c 1886 1141 m 1 Y s 1886 1142 m s 1882 1142 m 4 X s 1886 1142 m 3 X s black 1886 1142 m20 0 0 0.6 c 1892 1135 m s 1892 1135 m s 1889 1135 m 3 X s 1892 1135 m 3 X s black 1892 1135 m20 0 0
 0.6 c 1898 1136 m 2 Y s 1898 1138 m 1 Y s 1895 1138 m 3 X s 1898 1138 m 3 X s black 1898 1138 m20 0 0 0.6 c 1905 1138 m s 1905 1138 m s 1901 1138 m 4 X s 1905 1138 m 3 X s black 1905 1138 m20 0 0 0.6 c 1911 1132 m 1 Y s 1911 1133 m s 1908 1133 m 3 X
 s 1911 1133 m 3 X s black 1911 1133 m20 0 0 0.6 c 1917 1126 m 1 Y s 1917 1127 m s 1914 1127 m 3 X s 1917 1127 m 3 X s black 1917 1127 m20 0 0 0.6 c 1924 1125 m s 1924 1125 m 1 Y s 1920 1125 m 4 X s 1924 1125 m 3 X s black 1924 1125 m20 0 0 0.6 c
 1930 1118 m 1 Y s 1930 1119 m s 1927 1119 m 3 X s 1930 1119 m 3 X s black 1930 1119 m20 0 0 0.6 c 1936 1117 m 1 Y s 1936 1118 m s 1933 1118 m 3 X s 1936 1118 m 3 X s black 1936 1118 m20 0 0 0.6 c 1943 1115 m 1 Y s 1943 1116 m s 1939 1116 m 4 X s
 1943 1116 m 3 X s black 1943 1116 m20 0 0 0.6 c 1949 1122 m s 1949 1122 m s 1946 1122 m 3 X s 1949 1122 m 3 X s black 1949 1122 m20 0 0 0.6 c 1955 1117 m s 1955 1117 m 1 Y s 1952 1117 m 3 X s 1955 1117 m 3 X s black 1955 1117 m20 0 0 0.6 c 1962 1117
 m s 1962 1117 m 1 Y s 1958 1117 m 4 X s 1962 1117 m 3 X s black 1962 1117 m20 0 0 0.6 c 1968 1118 m s 1968 1118 m s 1965 1118 m 3 X s 1968 1118 m 3 X s black 1968 1118 m20 0 0 0.6 c 1974 1116 m s 1974 1116 m 1 Y s 1971 1116 m 3 X s 1974 1116 m 4 X s
 black 1974 1116 m20 0 0 0.6 c 1981 1117 m 1 Y s 1981 1118 m s 1978 1118 m 3 X s 1981 1118 m 3 X s black 1981 1118 m20 0 0 0.6 c 1987 1113 m 1 Y s 1987 1114 m s 1984 1114 m 3 X s 1987 1114 m 3 X s black 1987 1114 m20 0 0 0.6 c 2000 1126 m 1 Y s 2000
 1127 m s 1997 1127 m 3 X s 2000 1127 m 3 X s black 2000 1127 m20 0 0 0.6 c 2006 1122 m 1 Y s 2006 1123 m s 2003 1123 m 3 X s 2006 1123 m 3 X s black 2006 1123 m20 0 0 0.6 c 2012 1112 m s 2012 1112 m 1 Y s 2009 1112 m 3 X s 2012 1112 m 4 X s black
 2012 1112 m20 0 0 0.6 c 2019 1116 m 1 Y s 2019 1117 m s 2016 1117 m 3 X s 2019 1117 m 3 X s black 2019 1117 m20 0 0 0.6 c 2025 1120 m s 2025 1120 m s 2022 1120 m 3 X s 2025 1120 m 3 X s black 2025 1120 m20 0 0 0.6 c 2031 1107 m 1 Y s 2031 1108 m s
 2028 1108 m 3 X s 2031 1108 m 4 X s black 2031 1108 m20 0 0 0.6 c 2038 1098 m 1 Y s 2038 1099 m s 2035 1099 m 3 X s 2038 1099 m 3 X s black 2038 1099 m20 227 133 m 1814 X s
 gsave  2268 1334 0 0 C 1946.07 43.2461 t 0 r /Helvetica findfont 43.2461 sf 0 0 m (Time) show NC gr  227 165 m -32 Y s 272 149 m -16 Y s 317 149 m -16 Y s 363 149 m -16 Y s 408 149 m -16 Y s 454 165 m -32 Y s 499 149 m -16 Y s 544 149 m -16 Y s 590
 149 m -16 Y s 635 149 m -16 Y s 680 165 m -32 Y s 726 149 m -16 Y s 771 149 m -16 Y s 816 149 m -16 Y s 862 149 m -16 Y s 907 165 m -32 Y s 952 149 m -16 Y s 998 149 m -16 Y s 1043 149 m -16 Y s 1089 149 m -16 Y s 1134 165 m -32 Y s 1179 149 m -16 Y
 s 1225 149 m -16 Y s 1270 149 m -16 Y s 1315 149 m -16 Y s 1361 165 m -32 Y s 1406 149 m -16 Y s 1451 149 m -16 Y s 1497 149 m -16 Y s 1542 149 m -16 Y s 1587 165 m -32 Y s 1633 149 m -16 Y s 1678 149 m -16 Y s 1723 149 m -16 Y s 1769 149 m -16 Y s
 1814 165 m -32 Y s 1860 149 m -16 Y s 1905 149 m -16 Y s 1950 149 m -16 Y s 1996 149 m -16 Y s 2041 165 m -32 Y s
 gsave  2268 1334 0 0 C 171.633 90.5465 t 0 r /Helvetica findfont 43.2461 sf 0 0 m (11/08) show NC gr 
 gsave  2268 1334 0 0 C 398.675 90.5465 t 0 r /Helvetica findfont 43.2461 sf 0 0 m (11/26) show NC gr 
 gsave  2268 1334 0 0 C 625.717 90.5465 t 0 r /Helvetica findfont 43.2461 sf 0 0 m (12/14) show NC gr 
 gsave  2268 1334 0 0 C 856.813 90.5465 t 0 r /Helvetica findfont 43.2461 sf 0 0 m (01/01) show NC gr 
 gsave  2268 1334 0 0 C 1079.8 90.5465 t 0 r /Helvetica findfont 43.2461 sf 0 0 m (01/19) show NC gr 
 gsave  2268 1334 0 0 C 1305.49 90.5465 t 0 r /Helvetica findfont 43.2461 sf 0 0 m (02/05) show NC gr 
 gsave  2268 1334 0 0 C 1532.53 90.5465 t 0 r /Helvetica findfont 43.2461 sf 0 0 m (02/23) show NC gr 
 gsave  2268 1334 0 0 C 1759.58 90.5465 t 0 r /Helvetica findfont 43.2461 sf 0 0 m (03/13) show NC gr 
 gsave  2268 1334 0 0 C 1990.67 90.5465 t 0 r /Helvetica findfont 43.2461 sf 0 0 m (03/31) show NC gr  227 133 m 1067 Y s
 gsave  2268 1334 0 0 C 110.818 956.82 t 90 r /Helvetica findfont 43.2461 sf 0 0 m (Signal / POT) show NC gr  281 157 m -54 X s 254 189 m -27 X s 254 221 m -27 X s 254 254 m -27 X s 254 286 m -27 X s 281 318 m -54 X s 254 350 m -27 X s 254 383 m -27
 X s 254 415 m -27 X s 254 447 m -27 X s 281 480 m -54 X s 254 512 m -27 X s 254 544 m -27 X s 254 577 m -27 X s 254 609 m -27 X s 281 641 m -54 X s 254 673 m -27 X s 254 706 m -27 X s 254 738 m -27 X s 254 770 m -27 X s 281 803 m -54 X s 254 835 m
 -27 X s 254 867 m -27 X s 254 900 m -27 X s 254 932 m -27 X s 281 964 m -54 X s 254 996 m -27 X s 254 1029 m -27 X s 254 1061 m -27 X s 254 1093 m -27 X s 281 1126 m -54 X s 281 157 m -54 X s 281 1126 m -54 X s 254 1158 m -27 X s 254 1190 m -27 X s
 gsave  2268 1334 0 0 C 120.278 140.55 t 0 r /Helvetica findfont 43.2461 sf 0 0 m (7000) show NC gr 
 gsave  2268 1334 0 0 C 120.278 302.723 t 0 r /Helvetica findfont 43.2461 sf 0 0 m (7500) show NC gr 
 gsave  2268 1334 0 0 C 120.278 463.544 t 0 r /Helvetica findfont 43.2461 sf 0 0 m (8000) show NC gr 
 gsave  2268 1334 0 0 C 120.278 625.717 t 0 r /Helvetica findfont 43.2461 sf 0 0 m (8500) show NC gr 
 gsave  2268 1334 0 0 C 120.278 786.538 t 0 r /Helvetica findfont 43.2461 sf 0 0 m (9000) show NC gr 
 gsave  2268 1334 0 0 C 120.278 948.711 t 0 r /Helvetica findfont 43.2461 sf 0 0 m (9500) show NC gr 
 gsave  2268 1334 0 0 C 95.9522 1109.53 t 0 r /Helvetica findfont 43.2461 sf 0 0 m (10000) show NC gr  1 1 1 c black
 gsave  2268 1334 0 0 C 412.189 1274.41 t 0 r /Helvetica findfont 50.0033 sf 0 0 m (Custom diamond detector signal Nov 8th 2018 \255 March 31st 2019) show NC gr 
 gr  gr showpage
end
%%EOF
