%!PS-Adobe-2.0 EPSF-2.0
%%BoundingBox:  0 0 567 293
%%Title: : c5
%%Creator: ROOT Version 5.34/39
%%CreationDate: Sun Apr 14 23:52:54 2019
%%EndComments
%%BeginProlog
80 dict begin
/s {stroke} def /l {lineto} def /m {moveto} def /t {translate} def
/r {rotate} def /rl {roll}  def /R {repeat} def
/d {rlineto} def /rm {rmoveto} def /gr {grestore} def /f {eofill} def
/c {setrgbcolor} def /black {0 setgray} def /sd {setdash} def
/cl {closepath} def /sf {scalefont setfont} def /lw {setlinewidth} def
/box {m dup 0 exch d exch 0 d 0 exch neg d cl} def
/NC{systemdict begin initclip end}def/C{NC box clip newpath}def
/bl {box s} def /bf {gsave box gsave f grestore 1 lw [] 0 sd s grestore} def /Y { 0 exch d} def /X { 0 d} def 
/K {{pop pop 0 moveto} exch kshow} bind def
/ita {/ang 15 def gsave [1 0 ang dup sin exch cos div 1 0 0] concat} def 
/mp {newpath /y exch def /x exch def} def
/side {[w .77 mul w .23 mul] .385 w mul sd w 0 l currentpoint t -144 r} def
/mr {mp x y w2 0 360 arc} def /m24 {mr s} def /m20 {mr f} def
/mb {mp x y w2 add m w2 neg 0 d 0 w neg d w 0 d 0 w d cl} def
/mt {mp x y w2 add m w2 neg w neg d w 0 d cl} def
/m21 {mb f} def /m25 {mb s} def /m22 {mt f} def /m26{mt s} def
/m23 {mp x y w2 sub m w2 w d w neg 0 d cl f} def
/m27 {mp x y w2 add m w3 neg w2 neg d w3 w2 neg d w3 w2 d cl s} def
/m28 {mp x w2 sub y w2 sub w3 add m w3 0 d  0 w3 neg d w3 0 d 0 w3 d w3 0 d  0 w3 d w3 neg 0 d 0 w3 d w3 neg 0 d 0 w3 neg d w3 neg 0 d cl s } def
/m29 {mp gsave x w2 sub y w2 add w3 sub m currentpoint t 4 {side} repeat cl fill gr} def
/m30 {mp gsave x w2 sub y w2 add w3 sub m currentpoint t 4 {side} repeat cl s gr} def
/m31 {mp x y w2 sub m 0 w d x w2 sub y m w 0 d x w2 sub y w2 add m w w neg d x w2 sub y w2 sub m w w d s} def
/m32 {mp x y w2 sub m w2 w d w neg 0 d cl s} def
/m33 {mp x y w2 add m w3 neg w2 neg d w3 w2 neg d w3 w2 d cl f} def
/m34 {mp x w2 sub y w2 sub w3 add m w3 0 d  0 w3 neg d w3 0 d 0 w3 d w3 0 d  0 w3 d w3 neg 0 d 0 w3 d w3 neg 0 d 0 w3 neg d w3 neg 0 d cl f } def
/m2 {mp x y w2 sub m 0 w d x w2 sub y m w 0 d s} def
/m5 {mp x w2 sub y w2 sub m w w d x w2 sub y w2 add m w w neg d s} def
/reEncode {exch findfont dup length dict begin {1 index /FID eq  {pop pop} {def} ifelse } forall /Encoding exch def currentdict end dup /FontName get exch definefont pop } def [/Times-Bold /Times-Italic /Times-BoldItalic /Helvetica /Helvetica-Oblique
 /Helvetica-Bold /Helvetica-BoldOblique /Courier /Courier-Oblique /Courier-Bold /Courier-BoldOblique /Times-Roman /AvantGarde-Book /AvantGarde-BookOblique /AvantGarde-Demi /AvantGarde-DemiOblique /Bookman-Demi /Bookman-DemiItalic /Bookman-Light
 /Bookman-LightItalic /Helvetica-Narrow /Helvetica-Narrow-Bold /Helvetica-Narrow-BoldOblique /Helvetica-Narrow-Oblique /NewCenturySchlbk-Roman /NewCenturySchlbk-Bold /NewCenturySchlbk-BoldItalic /NewCenturySchlbk-Italic /Palatino-Bold
 /Palatino-BoldItalic /Palatino-Italic /Palatino-Roman ] {ISOLatin1Encoding reEncode } forall
%%EndProlog
%%BeginSetup
%%EndSetup
newpath  gsave  .25 .25 scale  gsave  0 0 t black[  ] 0 sd 3 lw 1 1 1 c 2268 1171 0 0 bf black 1 1 1 c 1814 936 227 117 bf black 1814 936 227 117 bl 1 1 1 c 1814 936 227 117 bf black 1814 936 227 117 bl 0 0 0.6 c 1 1 1 c black 0 0 0.6 c 227 1006 m -2
 Y 1 Y -1 Y 2 Y -2 Y 3 Y 1 X -4 Y 3 Y -2 Y 2 Y -4 Y 3 Y -1 Y 4 Y -7 Y 5 Y 1 X -2 Y 1 Y -2 Y 3 Y -3 Y 2 Y -3 Y 2 Y -2 Y 3 Y -2 Y 1 X 3 Y -1 Y 1 Y -2 Y 2 Y -2 Y 2 Y -2 Y 2 Y -2 Y 2 Y -3 Y 1 Y -1 Y 1 X 2 Y -1 Y 2 Y -2 Y 2 Y -1 Y 1 Y -2 Y 2 Y -2 Y 2 Y -3
 Y 1 X 3 Y -2 Y 2 Y -2 Y 2 Y -1 Y 1 Y -2 Y 4 Y -5 Y 1 Y 1 X 1 Y -2 Y 1 Y -2 Y 4 Y -1 Y 2 Y -2 Y 1 Y -2 Y 3 Y -1 Y 1 X -2 Y 2 Y -3 Y 2 Y -1 Y 1 Y -1 Y 3 Y -2 Y 2 Y -3 Y 3 Y 1 X -4 Y 3 Y -3 Y 3 Y -2 Y 1 Y -1 Y 1 Y -1 Y 2 Y -3 Y 1 Y 1 X 2 Y -2 Y 2 Y -3
 Y 3 Y -2 Y 3 Y -3 Y 1 X 2 Y -2 Y 1 Y -2 Y 3 Y -2 Y 2 Y -3 Y 2 Y -1 Y 2 Y -3 Y 3 Y 1 X -1 Y 1 Y -1 Y 1 Y -2 Y 3 Y -2 Y 2 Y -1 Y 1 X -2 Y 2 Y -2 Y 2 Y -2 Y 2 Y -2 Y 2 Y 1 X -2 Y 1 Y -3 Y 4 Y -1 Y 1 Y -1 Y 1 Y -1 Y 1 Y -1 Y 1 X 1 Y -4 Y 4 Y -1 Y 1 Y -2
 Y 1 Y -1 Y 1 Y 1 X 2 Y -3 Y 1 Y -1 Y 2 Y -3 Y 3 Y -3 Y 3 Y -1 Y 1 Y 1 X -4 Y 3 Y -4 Y 4 Y -2 Y 3 Y -2 Y 1 Y -2 Y 1 X 3 Y -1 Y 1 Y -1 Y 1 Y -3 Y 3 Y -2 Y 1 Y -1 Y 2 Y -1 Y 1 Y 1 X -1 Y 1 Y -2 Y 2 Y -2 Y 2 Y -2 Y 2 Y -1 Y 1 Y 1 X -2 Y 2 Y -2 Y 1 Y -3
 Y 5 Y -2 Y 1 Y -4 Y 4 Y 1 X -2 Y 3 Y -2 Y 1 Y -2 Y 2 Y -3 Y 3 Y -1 Y 1 X 1 Y -2 Y 3 Y -3 Y 3 Y -4 Y 3 Y 1 X -3 Y 2 Y -1 Y 1 Y -1 Y 2 Y -2 Y 2 Y -2 Y 2 Y -2 Y 3 Y 1 X -1 Y 1 Y -2 Y 1 Y -2 Y 2 Y -2 Y 2 Y -3 Y 2 Y 1 X 1 Y -1 Y 1 Y -1 Y 1 Y -1 Y 1 Y -1
 Y 1 Y -3 Y 1 X 3 Y -2 Y 1 Y -1 Y 2 Y -1 Y 1 Y 1 X -2 Y 2 Y -2 Y 2 Y -2 Y 2 Y -2 Y 1 Y 1 X 1 Y -2 Y 1 Y -1 Y 1 Y -1 Y 3 Y -4 Y 3 Y -3 Y 2 Y 1 X -1 Y 3 Y -4 Y 3 Y -2 Y 2 Y -2 Y 2 Y -3 Y 3 Y -2 Y 2 Y -2 Y 1 X 3 Y -2 Y 2 Y -3 Y 2 Y -2 Y 2 Y -1 Y 1 Y -1
 Y 1 Y 1 X 1 Y -3 Y 1 Y -2 Y 3 Y -2 Y 3 Y -3 Y 2 Y -2 Y 1 Y -1 Y 2 Y -2 Y 1 X 1 Y -1 Y 2 Y -3 Y 3 Y -3 Y 4 Y -2 Y 1 Y 1 X -1 Y 1 Y -3 Y 3 Y -2 Y 1 Y -1 Y 2 Y -1 Y 1 Y -4 Y 4 Y -1 Y 1 X 1 Y -2 Y 4 Y -5 Y 4 Y -2 Y 2 Y -2 Y 2 Y -3 Y 1 Y 1 X -3 Y 4 Y -2
 Y 2 Y -1 Y 1 Y -3 Y 2 Y 1 X -1 Y 2 Y -1 Y 1 Y -2 Y 2 Y -3 Y 1 X 1 Y -1 Y 2 Y -1 Y 3 Y -3 Y 2 Y -2 Y 2 Y -3 Y 2 Y -3 Y 3 Y 1 X 2 Y -2 Y 2 Y -2 Y 1 Y -1 Y 2 Y -4 Y 3 Y -1 Y 1 X 1 Y -3 Y 3 Y -1 Y 1 Y -2 Y 2 Y -2 Y 1 Y -1 Y 1 X 2 Y -1 Y 2 Y -2 Y 1 Y -3
 Y 3 Y -2 Y 2 Y -2 Y 2 Y -1 Y 2 Y 1 X -4 Y 3 Y -2 Y 2 Y -1 Y 1 Y -1 Y 1 Y -2 Y 1 Y -1 Y 1 X -1 Y 4 Y -3 Y 2 Y -4 Y 3 Y -1 Y 2 Y -2 Y 2 Y -1 Y 1 Y -1 Y 1 Y -2 Y 4 Y 1 X -5 Y 3 Y -3 Y 3 Y -3 Y 3 Y -2 Y 1 Y -1 Y 2 Y 1 X -2 Y 1 Y -2 Y 3 Y -2 Y 2 Y -3 Y 3
 Y -2 Y 2 Y -2 Y 1 Y -1 Y 1 X 3 Y -4 Y 3 Y -3 Y 2 Y -3 Y 4 Y -2 Y 3 Y -2 Y 1 Y 1 X -2 Y 2 Y -1 Y 1 Y -2 Y 2 Y -2 Y 3 Y -2 Y 1 Y 1 X -3 Y 3 Y -2 Y 2 Y -1 Y 3 Y -4 Y 2 Y -1 Y 1 X -2 Y 4 Y -3 Y 5 Y -4 Y 1 Y -3 Y 2 Y -1 Y 1 X 1 Y -1 Y 2 Y -2 Y 2 Y -2 Y 2
 Y -2 Y 2 Y -2 Y 1 X 2 Y -3 Y 2 Y -1 Y 3 Y -3 Y 3 Y -4 Y 1 X 3 Y -2 Y 1 Y -3 Y 4 Y -2 Y 2 Y -2 Y 2 Y -2 Y 2 Y -1 Y 1 X 1 Y -2 Y 3 Y -4 Y 3 Y -2 Y 4 Y -6 Y 4 Y -2 Y 1 Y -1 Y 1 X -1 Y 3 Y -2 Y 1 Y -1 Y 3 Y -2 Y 1 Y -1 Y 1 X -1 Y 2 Y -2 Y 2 Y -3 Y 2 Y
 -4 Y 5 Y -1 Y 2 Y -4 Y 1 X 3 Y -2 Y 2 Y -2 Y 2 Y -3 Y 2 Y -1 Y 1 Y -2 Y 3 Y 1 X -1 Y 2 Y -2 Y 1 Y -2 Y 2 Y -2 Y 2 Y -3 Y 3 Y -3 Y 2 Y 1 X -2 Y 3 Y -1 Y 1 Y -1 Y 1 Y -2 Y 2 Y -2 Y 1 X 2 Y -1 Y 1 Y -2 Y 1 Y -1 Y 2 Y -4 Y 4 Y -1 Y 1 Y -2 Y 1 X 2 Y -3 Y
 3 Y -3 Y 3 Y -1 Y 2 Y -2 Y 1 X -2 Y 3 Y -1 Y 2 Y -2 Y 1 Y -1 Y 1 Y -2 Y 2 Y -2 Y 2 Y 1 X -3 Y 3 Y -3 Y 4 Y -5 Y 3 Y -1 Y 3 Y -4 Y 2 Y 1 X -1 Y 1 Y -1 Y 2 Y -2 Y 1 Y -2 Y 2 Y -3 Y 5 Y -4 Y 3 Y 1 X -2 Y 2 Y -3 Y 3 Y -2 Y 1 Y -2 Y 3 Y -1 Y 1 Y -3 Y 3 Y
 1 X -2 Y 2 Y -3 Y 4 Y -2 Y 3 Y 1 X -4 Y 2 Y -2 Y 3 Y -1 Y 2 Y -4 Y 2 Y -2 Y 3 Y 1 X -2 Y 1 Y -3 Y 2 Y -2 Y 3 Y -1 Y 2 Y -2 Y 1 Y -1 Y 1 Y -2 Y 1 X 2 Y -2 Y 1 Y -2 Y 2 Y -2 Y 2 Y -2 Y 3 Y -1 Y 1 Y -2 Y 2 Y 1 X -2 Y 1 Y -1 Y 2 Y -4 Y 3 Y -1 Y 2 Y -2 Y
 2 Y -1 Y 1 Y 1 X -3 Y 1 Y -1 Y 3 Y -1 Y 2 Y -2 Y 2 Y -3 Y 1 X 2 Y -4 Y 4 Y -2 Y 2 Y -2 Y 2 Y -4 Y 3 Y -3 Y 3 Y -1 Y 2 Y -4 Y 1 X 4 Y -2 Y 1 Y -1 Y 3 Y -2 Y 2 Y -1 Y 1 Y -4 Y 1 Y 1 X 2 Y -2 Y 2 Y -3 Y 3 Y -3 Y 2 Y -2 Y 1 Y 1 X -1 Y 1 Y -1 Y 3 Y -2 Y
 1 Y -1 Y 2 Y -2 Y 2 Y 1 X -2 Y 3 Y -3 Y 3 Y -3 Y 2 Y -2 Y 2 Y -3 Y 3 Y 1 X -3 Y 2 Y -1 Y 2 Y -3 Y 3 Y -3 Y 1 X 3 Y -4 Y 4 Y -2 Y 2 Y -4 Y 4 Y -2 Y 2 Y -2 Y 1 X 2 Y -3 Y 2 Y -1 Y 2 Y -3 Y 3 Y -3 Y 3 Y -2 Y 1 X 3 Y -2 Y 2 Y -2 Y 1 Y -3 Y 2 Y -1 Y 1 Y
 -1 Y 2 Y -1 Y 1 X 2 Y -2 Y 1 Y -4 Y 3 Y -2 Y 2 Y -2 Y 1 Y 1 X 2 Y -3 Y 3 Y -1 Y 1 Y -2 Y 2 Y -2 Y 2 Y -2 Y 3 Y -2 Y 2 Y -1 Y 1 X -2 Y 2 Y -1 Y 1 Y -2 Y 2 Y -1 Y 1 X 2 Y -2 Y 1 Y -3 Y 4 Y -3 Y 2 Y -2 Y 1 Y -2 Y 1 X 3 Y -2 Y 2 Y -2 Y 2 Y -3 Y 3 Y -1 Y
 1 Y -2 Y 2 Y 1 X -2 Y 2 Y -1 Y 2 Y -1 Y 1 Y -3 Y 2 Y -2 Y 2 Y -3 Y 1 Y -1 Y 1 Y 1 X 2 Y -1 Y 1 Y -2 Y 1 Y -1 Y 1 Y -1 Y 2 Y -4 Y 3 Y 1 X -2 Y 2 Y -1 Y 2 Y -4 Y 4 Y -3 Y 3 Y -2 Y 2 Y -1 Y 1 Y 1 X -3 Y 3 Y -2 Y 2 Y -1 Y 1 Y -2 Y 1 Y -2 Y 3 Y -2 Y 1 Y
 -1 Y 2 Y 1 X 1 Y -2 Y 1 Y -2 Y 2 Y -1 Y 1 Y -2 Y 2 Y -3 Y 3 Y 1 X -3 Y 4 Y -4 Y 1 Y -1 Y 3 Y -3 Y 3 Y -1 Y 2 Y -4 Y 3 Y 1 X -3 Y 2 Y -4 Y 4 Y -1 Y 2 Y -2 Y 1 Y -1 Y 1 Y -2 Y 3 Y 1 X -2 Y 1 Y -1 Y 2 Y -1 Y 1 Y -1 Y 2 Y -3 Y 2 Y -2 Y 1 Y 1 X -1 Y 1 Y
 -1 Y 3 Y -2 Y 1 Y -2 Y 1 Y -1 Y 2 Y -2 Y 2 Y -1 Y 1 X -2 Y 3 Y -1 Y 1 Y -2 Y 1 Y -1 Y 2 Y -3 Y 4 Y -3 Y 2 Y 1 X -1 Y 2 Y -1 Y 1 Y -2 Y 1 Y -2 Y 1 Y -1 Y 2 Y -2 Y 1 Y -3 Y 1 X 4 Y -2 Y 2 Y -1 Y 1 Y -2 Y 3 Y -5 Y 1 Y 1 X 3 Y -2 Y 2 Y -4 Y 3 Y -1 Y 2 Y
 -3 Y 3 Y 1 X -3 Y 1 Y -1 Y 4 Y -3 Y 2 Y -1 Y 1 Y -2 Y 2 Y -4 Y 3 Y 1 X -2 Y 1 Y -1 Y 3 Y -2 Y 2 Y -5 Y 4 Y -2 Y 4 Y -2 Y 2 Y -3 Y 2 Y -1 Y 1 X 1 Y -1 Y 2 Y -2 Y 1 Y -2 Y 2 Y -1 Y 1 Y -1 Y 1 Y -1 Y 1 X 1 Y -3 Y 2 Y -2 Y 2 Y -2 Y 2 Y -1 Y 2 Y -1 Y 1 Y
 1 X 1 Y -2 Y 1 Y -1 Y 2 Y -4 Y 5 Y -2 Y 1 X -2 Y 1 Y -3 Y 4 Y -2 Y 1 Y -1 Y 3 Y -2 Y 2 Y -2 Y 1 Y -2 Y 2 Y 1 X -3 Y 4 Y -3 Y 2 Y -3 Y 2 Y -2 Y 3 Y 1 X -2 Y 2 Y -1 Y 2 Y -3 Y 3 Y -2 Y 1 Y 1 X -1 Y 2 Y -3 Y 4 Y -4 Y 2 Y -1 Y 1 Y -1 Y 1 Y -2 Y 2 Y -1 Y
 1 Y 1 X -3 Y 3 Y -2 Y 2 Y -1 Y 1 Y -2 Y 3 Y -4 Y 1 X 2 Y -2 Y 4 Y -3 Y 1 Y -1 Y 2 Y -2 Y 2 Y -3 Y 3 Y -3 Y 1 X 5 Y -3 Y 1 Y -2 Y 1 Y -1 Y 2 Y -2 Y 2 Y -1 Y 1 Y -2 Y 1 X 2 Y -2 Y 3 Y -2 Y 1 Y -2 Y 2 Y -2 Y 1 Y -1 Y 1 X 2 Y -2 Y 1 Y -1 Y 2 Y -2 Y 2 Y
 -3 Y 1 Y -1 Y 1 X 3 Y -1 Y 1 Y -2 Y 1 Y -1 Y 1 Y -1 Y 2 Y -2 Y 3 Y -2 Y 1 Y -2 Y 2 Y -1 Y 1 X 1 Y -2 Y 1 Y -1 Y 1 Y -2 Y 3 Y -2 Y 2 Y -2 Y 2 Y 1 X -3 Y 1 Y -2 Y 5 Y -3 Y 2 Y -2 Y 2 Y -2 Y 1 Y 1 X 1 Y -2 Y 2 Y -2 Y 2 Y -1 Y 1 Y -2 Y 1 Y -1 Y 2 Y -3 Y
 1 Y 1 X 2 Y -1 Y 1 Y -2 Y 1 Y -2 Y 3 Y -1 Y 1 X -1 Y 1 Y -1 Y 2 Y -3 Y 2 Y -3 Y 4 Y -1 Y 2 Y -2 Y 1 Y -2 Y 1 Y 1 X 1 Y -2 Y 2 Y -2 Y 3 Y -3 Y 2 Y -2 Y 2 Y 1 X -3 Y 4 Y -3 Y 2 Y -2 Y 1 Y -1 Y 2 Y -1 Y 2 Y 1 X -2 Y 1 Y -2 Y 2 Y -1 Y 2 Y -2 Y 2 Y -2 Y
 1 Y -2 Y 1 Y 1 X -3 Y 3 Y -1 Y 2 Y -2 Y 1 Y -3 Y 4 Y -2 Y 2 Y 1 X -2 Y 2 Y -3 Y 2 Y -2 Y 3 Y -2 Y 3 Y -3 Y 1 X 1 Y -3 Y 3 Y -2 Y 2 Y -1 Y 1 Y -1 Y 2 Y -2 Y 1 Y -1 Y 2 Y -2 Y 1 X 1 Y -2 Y 3 Y -1 Y 1 Y -1 Y 1 Y -1 Y 1 Y 1 X -2 Y 1 Y -1 Y 1 Y -1 Y 3 Y
 -4 Y 2 Y -1 Y 2 Y -1 Y 1 Y -1 Y 1 X 1 Y -3 Y 3 Y -2 Y 1 Y -1 Y 3 Y -4 Y 4 Y -4 Y 2 Y 1 X 1 Y -4 Y 5 Y -4 Y 3 Y -1 Y 2 Y -2 Y 1 X 1 Y -2 Y 2 Y -3 Y 3 Y -2 Y 1 Y -1 Y 1 Y -3 Y 4 Y -3 Y 2 Y -2 Y 1 X 2 Y -1 Y 2 Y -2 Y 2 Y -1 Y 1 Y -2 Y 2 Y -3 Y 2 Y -1 Y
 2 Y 1 X -4 Y 4 Y -2 Y 2 Y -1 Y 1 Y -1 Y 2 Y -2 Y 2 Y -1 Y 1 X -1 Y 1 Y -3 Y 1 Y -2 Y 4 Y -2 Y 2 Y -3 Y 4 Y -3 Y 1 Y 1 X 2 Y -2 Y 1 Y -2 Y 3 Y -4 Y 3 Y -1 Y 1 Y -1 Y 1 Y 1 X -1 Y 1 Y -2 Y 2 Y -2 Y 3 Y -2 Y 1 Y -2 Y 2 Y -1 Y 1 X 1 Y -4 Y 5 Y -3 Y 2 Y
 -3 Y 1 Y -2 Y 4 Y -4 Y 1 X 4 Y -1 Y 1 Y -1 Y 1 Y -1 Y 1 Y -1 Y 1 Y -1 Y 1 Y -1 Y 1 X -2 Y 1 Y -1 Y 4 Y -1 Y 2 Y -5 Y 3 Y -1 Y 1 Y -3 Y 1 X 3 Y -1 Y 2 Y -2 Y 1 Y -2 Y 3 Y -3 Y 2 Y -3 Y 3 Y 1 X -2 Y 3 Y -4 Y 2 Y -4 Y 6 Y -4 Y 1 X 3 Y -2 Y 2 Y -4 Y 4 Y
 -4 Y 4 Y -2 Y 1 Y -1 Y 2 Y -1 Y 1 Y -1 Y 1 X 1 Y -1 Y 1 Y -3 Y 3 Y -2 Y 2 Y -2 Y 2 Y 1 X -1 Y 2 Y -3 Y 2 Y -1 Y 1 Y -1 Y 1 Y -2 Y 2 Y -2 Y 2 Y 1 X -2 Y 5 Y -5 Y 2 Y -2 Y 2 Y -3 Y 3 Y -2 Y 2 Y -2 Y 1 X 2 Y -1 Y 1 Y -4 Y 4 Y -3 Y 3 Y -1 Y 1 Y -1 Y 1 Y
 -2 Y 2 Y 1 X 1 Y -3 Y 1 Y -4 Y 5 Y -1 Y 1 Y -3 Y 1 Y -2 Y 3 Y -1 Y 1 X 1 Y -1 Y 2 Y -2 Y 3 Y -3 Y 2 Y -2 Y 3 Y -1 Y 1 Y -2 Y 1 X 1 Y -3 Y 2 Y -2 Y 3 Y -1 Y 2 Y -2 Y 1 Y 1 X 1 Y -4 Y 3 Y -2 Y 2 Y -4 Y 4 Y 1 X -2 Y 2 Y -2 Y 2 Y -1 Y 2 Y -2 Y 1 Y -2 Y
 2 Y 1 X -1 Y 1 Y -3 Y 2 Y -1 Y 3 Y -2 Y 1 Y -2 Y 2 Y -3 Y 3 Y 1 X -3 Y 2 Y -1 Y 2 Y -2 Y 1 Y -1 Y 1 Y -1 Y 2 Y -2 Y 1 X 2 Y -1 Y 1 Y -1 Y 2 Y -2 Y 1 Y -3 Y 3 Y 1 X 1 Y -4 Y 3 Y -2 Y 2 Y -1 Y 1 Y -2 Y 4 Y -2 Y 1 X -2 Y 2 Y -3 Y 3 Y -1 Y 2 Y -1 Y 1 Y
 -3 Y 2 Y 1 X -2 Y 1 Y -3 Y 5 Y -2 Y 2 Y -1 Y 1 Y -3 Y 2 Y -2 Y 2 Y 1 X -1 Y 1 Y -2 Y 2 Y -1 Y 2 Y -4 Y 1 Y -1 Y 4 Y 1 X -2 Y 1 Y -2 Y 1 Y -1 Y 3 Y -3 Y 1 Y -1 Y 2 Y -2 Y 1 X -1 Y 2 Y -2 Y 3 Y -3 Y 3 Y -3 Y 3 Y -1 Y 1 Y 1 X -1 Y 1 Y -3 Y 3 Y -2 Y 2 Y
 -2 Y 2 Y -2 Y 1 Y -2 Y 1 Y 1 X 2 Y -2 Y 2 Y -1 Y 2 Y -3 Y 1 Y -1 Y 1 Y -3 Y 1 X 4 Y -3 Y 2 Y -4 Y 4 Y -1 Y 3 Y -3 Y 3 Y -4 Y 3 Y -1 Y 1 X 1 Y -2 Y 2 Y -2 Y 3 Y -2 Y 1 Y -1 Y 2 Y -2 Y 1 X 2 Y -1 Y 2 Y -2 Y 1 Y -2 Y 1 Y -3 Y 2 Y -1 Y 1 X 2 Y -1 Y 1 Y
 -3 Y 3 Y -1 Y 1 Y -3 Y 5 Y -5 Y 1 X 3 Y -1 Y 1 Y -2 Y 3 Y -4 Y 2 Y -2 Y 2 Y -1 Y 1 Y -3 Y 1 X 4 Y -2 Y 2 Y -2 Y 2 Y -1 Y 1 Y -2 Y 2 Y 1 X -1 Y 2 Y -4 Y 4 Y -2 Y 2 Y -2 Y 2 Y -4 Y 3 Y 1 X -1 Y 1 Y -1 Y 1 Y -2 Y 2 Y -2 Y 1 Y -2 Y 3 Y -1 Y 1 Y -1 Y 1 Y
 -2 Y 1 X 3 Y -2 Y 1 Y -1 Y 1 Y -4 Y 3 Y -3 Y 4 Y -3 Y 2 Y 1 X 1 Y -4 Y 3 Y -1 Y 1 Y -2 Y 3 Y -4 Y 4 Y -1 Y 1 X -3 Y 4 Y -2 Y 2 Y -3 Y 2 Y -1 Y 2 Y -2 Y 2 Y -1 Y 2 Y 1 X -3 Y 2 Y -3 Y 2 Y -4 Y 5 Y -2 Y 3 Y -2 Y 1 Y 1 X -3 Y 2 Y -1 Y 2 Y -3 Y 2 Y -3 Y
 4 Y 1 X -2 Y 1 Y -3 Y 2 Y -2 Y 3 Y -1 Y 2 Y -1 Y 1 Y -3 Y 3 Y -2 Y 2 Y -2 Y 1 X 4 Y -5 Y 3 Y -1 Y 2 Y -4 Y 3 Y -3 Y 2 Y -2 Y 1 Y 1 X 2 Y -1 Y 3 Y -4 Y 1 Y -2 Y 3 Y 1 X -2 Y 1 Y -2 Y 3 Y -3 Y 3 Y -2 Y 2 Y 1 X -3 Y 3 Y -2 Y 2 Y -4 Y 5 Y -2 Y 2 Y 1 X
 -3 Y 1 Y -2 Y 2 Y -1 Y 3 Y -4 Y 1 Y -1 Y 3 Y 1 X -3 Y 3 Y -2 Y 2 Y -1 Y 1 Y -2 Y 2 Y -1 Y 1 X -2 Y 2 Y -2 Y 3 Y -2 Y 1 Y -1 Y 2 Y 1 X -3 Y 4 Y -1 Y 1 Y -2 Y 2 Y -4 Y 2 Y -1 Y 2 Y -4 Y 3 Y 1 X -1 Y 1 Y -2 Y 4 Y -4 Y 3 Y -2 Y 2 Y -3 Y 2 Y 1 X 2 Y -4 Y
 3 Y -2 Y 1 Y -3 Y 4 Y -3 Y 2 Y 1 X 1 Y -2 Y 2 Y -2 Y 2 Y -1 Y 1 Y -1 Y 2 Y -2 Y 1 X 1 Y -5 Y 6 Y -3 Y 2 Y -1 Y 1 Y -2 Y 2 Y -1 Y 1 X 2 Y -2 Y 1 Y -2 Y 2 Y -1 Y 2 Y -4 Y 3 Y -4 Y 1 X 4 Y -1 Y 1 Y -2 Y 2 Y -3 Y 3 Y -4 Y 4 Y -5 Y 4 Y -2 Y 2 Y 1 X -3 Y
 3 Y -2 Y 2 Y -2 Y 1 Y -1 Y 3 Y -1 Y 2 Y -2 Y 1 X 1 Y -3 Y 2 Y -1 Y 1 Y -1 Y 2 Y -3 Y 6 Y -4 Y 1 Y -2 Y 1 X 3 Y -4 Y 5 Y -4 Y 3 Y -1 Y 1 X -2 Y 2 Y -1 Y 1 Y -3 Y 3 Y -1 Y 1 Y 1 X -1 Y 1 Y -1 Y 1 Y -1 Y 1 Y -2 Y 2 Y -2 Y 2 Y -3 Y 3 Y -2 Y 1 X 4 Y -4 Y
 3 Y -2 Y 1 Y -1 Y 1 Y -1 Y 1 Y -1 Y 1 Y -1 Y 1 X 1 Y -1 Y 1 Y -4 Y 4 Y -1 Y 1 Y -1 Y 1 Y -1 Y 1 Y -1 Y 1 Y -2 Y 1 X -1 Y 3 Y -2 Y 2 Y -2 Y 2 Y -2 Y 2 Y -1 Y 3 Y -1 Y 1 X -4 Y 3 Y -3 Y 1 Y -1 Y 4 Y -3 Y 2 Y 1 X -2 Y 3 Y -1 Y 2 Y -3 Y 1 Y -1 Y 1 Y -2
 Y 2 Y 1 X -2 Y 1 Y -1 Y 2 Y -2 Y 1 Y -1 Y 2 Y -2 Y 2 Y -3 Y 1 Y 1 X 1 Y -1 Y 1 Y -1 Y 2 Y -3 Y 2 Y -1 Y 1 Y -3 Y 5 Y -3 Y 1 Y 1 X 1 Y -2 Y 2 Y -3 Y 4 Y -3 Y 1 X 2 Y -4 Y 4 Y -3 Y 2 Y -2 Y 3 Y -2 Y 1 Y -1 Y 1 Y 1 X -2 Y 2 Y -2 Y 2 Y -3 Y 4 Y -2 Y 2 Y
 1 X -1 Y 2 Y -2 Y 1 Y -1 Y 1 Y -2 Y 2 Y 1 X -2 Y 2 Y -2 Y 3 Y -3 Y 2 Y 1 X -1 Y 1 Y -1 Y 1 Y -1 Y 1 Y -2 Y 3 Y -3 Y 1 Y -2 Y 3 Y -1 Y 1 X 1 Y -3 Y 2 Y -2 Y 3 Y -3 Y 3 Y -1 Y 1 X 1 Y -3 Y 4 Y -5 Y 4 Y -2 Y 1 Y -1 Y 1 Y -2 Y 1 X 2 Y -2 Y 4 Y -4 Y 2 Y
 -2 Y 3 Y -1 Y 1 Y -2 Y 1 Y 1 X 1 Y -4 Y 4 Y -1 Y 1 Y -1 Y 1 Y -3 Y 1 X 5 Y -5 Y 4 Y -3 Y 2 Y -2 Y 2 Y -2 Y 4 Y -4 Y 1 X -2 Y 4 Y -2 Y 2 Y -3 Y 3 Y -1 Y 1 Y -3 Y 4 Y -2 Y 1 Y -1 Y 1 X -1 Y 2 Y -4 Y 4 Y -1 Y 1 Y -2 Y 1 X 2 Y -2 Y 2 Y -3 Y 3 Y -4 Y 3 Y
 -1 Y 1 Y -2 Y 4 Y -3 Y 1 X 2 Y -3 Y 3 Y -1 Y 1 Y -4 Y 3 Y -2 Y 4 Y -3 Y 1 Y 1 X 1 Y -3 Y 4 Y -3 Y 2 Y -2 Y 2 Y -1 Y 1 X 1 Y -2 Y 2 Y -2 Y 1 Y -3 Y 4 Y -2 Y 2 Y -1 Y 1 Y -2 Y 1 X 2 Y -2 Y 2 Y -2 Y 4 Y -4 Y 2 Y -1 Y 2 Y -2 Y 1 X -1 Y 2 Y -1 Y 1 Y -4 Y
 4 Y -2 Y 2 Y -3 Y 3 Y -1 Y 1 X -1 Y 2 Y -3 Y 3 Y -1 Y 1 Y -3 Y 2 Y -1 Y 1 X 3 Y -6 Y 5 Y -4 Y 3 Y -1 Y 2 Y -2 Y 2 Y -2 Y 3 Y 1 X -3 Y 2 Y -2 Y 1 Y -1 Y 2 Y -2 Y 2 Y -2 Y 2 Y -1 Y 1 X -1 Y 1 Y -1 Y 1 Y -2 Y 2 Y -1 Y 2 Y -2 Y 2 Y -2 Y 1 Y -1 Y 1 Y -1
 Y 1 X -1 Y 1 Y -1 Y 3 Y -3 Y 2 Y -1 Y 3 Y -3 Y 2 Y 1 X -1 Y 1 Y -3 Y 3 Y -2 Y 3 Y -3 Y 2 Y -1 Y 1 X -2 Y 3 Y -1 Y 1 Y -1 Y 3 Y -4 Y 3 Y -2 Y 1 Y -2 Y 3 Y 1 X -2 Y 2 Y -4 Y 3 Y -3 Y 1 Y -1 Y 2 Y -3 Y 1 X 4 Y -2 Y 2 Y -2 Y 2 Y -2 Y 1 Y -1 Y 2 Y -1 Y 1
 Y -2 Y 3 Y -5 Y 7 Y 1 X -5 Y 2 Y -1 Y 1 Y -3 Y 3 Y -1 Y 1 Y -2 Y 4 Y -4 Y 2 Y 1 X -3 Y 3 Y -2 Y 2 Y -1 Y 1 Y -2 Y 2 Y -1 Y 1 X 2 Y -3 Y 2 Y -1 Y 1 Y -1 Y 1 Y -2 Y 1 X 2 Y -3 Y 2 Y -1 Y 2 Y -2 Y 2 Y -2 Y 2 Y -3 Y 1 Y 1 X 2 Y -3 Y 3 Y -2 Y 1 Y -3 Y 4
 Y -2 Y 2 Y -2 Y 2 Y 1 X -1 Y 1 Y -1 Y 1 Y -1 Y 1 Y -2 Y 2 Y -3 Y 5 Y -4 Y 1 Y -1 Y 1 X 3 Y -3 Y 2 Y -2 Y 2 Y -1 Y 1 Y -1 Y 1 Y -2 Y 2 Y -2 Y 1 X 2 Y -1 Y 1 Y -1 Y 1 Y -2 Y 2 Y -1 Y 1 Y -1 Y 1 Y -1 Y 2 Y -3 Y 2 Y 1 X 1 Y -2 Y 1 Y -3 Y 4 Y -2 Y 1 Y -3
 Y 2 Y 1 X 2 Y -4 Y 3 Y -1 Y 1 Y -4 Y 4 Y -2 Y 2 Y -2 Y 1 X 1 Y -3 Y 3 Y -2 Y 3 Y -3 Y 4 Y -2 Y 2 Y -3 Y 3 Y -3 Y 1 Y 1 X -1 Y 2 Y -3 Y 3 Y -1 Y 1 Y -1 Y 1 Y -3 Y 3 Y -1 Y 1 X 1 Y -1 Y 1 Y -2 Y 2 Y -2 Y 2 Y -1 Y 1 Y -2 Y 1 Y -2 Y 2 Y -2 Y 2 Y -1 Y 1
 Y 1 X -1 Y 1 Y -3 Y 6 Y -2 Y 1 Y -2 Y 2 Y -5 Y 5 Y 1 X -4 Y 5 Y -5 Y 2 Y -1 Y 2 Y -2 Y 3 Y -2 Y 1 Y -1 Y 1 Y -2 Y 2 Y 1 X -3 Y 3 Y -1 Y 2 Y -2 Y 1 Y -1 Y 1 Y 1 X -2 Y 3 Y -3 Y 1 Y -1 Y 2 Y -1 Y 2 Y -2 Y 2 Y -2 Y 1 X 2 Y -3 Y 2 Y -3 Y 1 Y -1 Y 2 Y -1
 Y 3 Y -4 Y 1 X 2 Y -2 Y 3 Y -1 Y 1 Y -3 Y 2 Y -1 Y 3 Y -4 Y 3 Y -1 Y 1 Y -3 Y 1 X 2 Y -1 Y 2 Y -4 Y 4 Y -1 Y 1 Y -2 Y 1 Y -1 Y 2 Y 1 X -2 Y 2 Y -2 Y 1 Y -3 Y 3 Y -1 Y 2 Y -1 Y 1 Y -2 Y 1 Y -1 Y 1 Y -2 Y 2 Y 1 X 1 Y -2 Y 3 Y -4 Y 3 Y -3 Y 3 Y -3 Y 3
 Y -2 Y 2 Y -1 Y 1 X 1 Y -1 Y 2 Y -2 Y 1 Y -2 Y 3 Y -4 Y 4 Y -2 Y 1 X 1 Y -1 Y 1 Y -1 Y 1 Y -1 Y 1 Y -3 Y 2 Y -1 Y 1 X 1 Y -2 Y 3 Y -3 Y 2 Y -1 Y 2 Y -2 Y 1 X 2 Y -2 Y 1 Y -2 Y 2 Y -2 Y 2 Y -2 Y 2 Y -2 Y 2 Y -2 Y 2 Y 1 X 1 Y -1 Y 2 Y -3 Y 1 Y -1 Y 2
 Y -1 Y 2 Y -3 Y 1 Y -1 Y 1 Y 1 X -1 Y 2 Y -1 Y 1 Y -3 Y 4 Y -3 Y 2 Y -2 Y 2 Y -2 Y 1 Y 1 X 1 Y -2 Y 2 Y -1 Y 2 Y -4 Y 2 Y -1 Y 1 Y -1 Y 1 X -1 Y 2 Y -1 Y 3 Y -3 Y 2 Y -2 Y 1 Y -1 Y 3 Y -2 Y 1 Y 1 X -2 Y 4 Y -2 Y 1 Y -3 Y 2 Y -1 Y 3 Y -4 Y 1 Y -2 Y 1
 X 3 Y -2 Y 2 Y -2 Y 2 Y -2 Y 2 Y -1 Y 1 Y -1 Y 1 Y -2 Y 1 Y -1 Y 1 X 1 Y -1 Y 2 Y -2 Y 2 Y -3 Y 3 Y -2 Y 1 Y -1 Y 2 Y -2 Y 1 Y 1 X 1 Y -2 Y 1 Y -2 Y 3 Y -1 Y 2 Y -1 Y 1 Y -2 Y 2 Y -3 Y 1 Y 1 X 3 Y -2 Y 1 Y -2 Y 1 Y -3 Y 3 Y -2 Y 2 Y 1 X -3 Y 2 Y -2
 Y 4 Y -3 Y 2 Y -1 Y 2 Y -3 Y 2 Y -2 Y 1 Y -1 Y 2 Y 1 X -1 Y 1 Y -2 Y 1 Y -2 Y 4 Y -3 Y 2 Y -1 Y 2 Y -3 Y 2 Y 1 X -4 Y 4 Y -3 Y 3 Y -1 Y 1 Y -2 Y 2 Y -2 Y 1 Y -2 Y 3 Y -2 Y 1 X 3 Y -4 Y 2 Y -2 Y 3 Y -2 Y 1 Y -2 Y 2 Y -3 Y 3 Y 1 X -2 Y 2 Y -1 Y 2 Y -1
 Y 1 Y -2 Y 2 Y -1 Y 2 Y -1 Y 1 X 1 Y -4 Y 3 Y -1 Y 3 Y -4 Y 2 Y -3 Y 3 Y -1 Y 1 Y 1 X -2 Y 2 Y -2 Y 2 Y -1 Y 3 Y -4 Y 1 Y -1 Y 1 Y -2 Y 2 Y 1 X 1 Y -2 Y 2 Y -2 Y 2 Y -1 Y 1 Y -1 Y 1 Y -3 Y 3 Y -1 Y 1 X 2 Y -2 Y 1 Y -1 Y 1 Y -1 Y 1 Y -1 Y 1 Y 1 X -2
 Y 2 Y -3 Y 1 Y -1 Y 3 Y -2 Y 2 Y -2 Y 1 Y 1 X 1 Y -3 Y 2 Y -1 Y 1 Y -3 Y 4 Y -1 Y 2 Y -3 Y 1 Y -2 Y 1 X 4 Y -4 Y 3 Y -2 Y 3 Y -2 Y 1 Y -1 Y 1 Y -2 Y 1 Y 1 X -3 Y 3 Y -1 Y 1 Y -1 Y 1 Y -2 Y 4 Y -4 Y 2 Y -1 Y 1 Y 1 X -1 Y 2 Y -1 Y 2 Y -4 Y 2 Y -1 Y 2
 Y 1 X -2 Y 2 Y -3 Y 3 Y -1 Y 1 Y -1 Y 1 Y -1 Y 3 Y -2 Y 1 X -2 Y 2 Y -1 Y 1 Y -3 Y 3 Y -1 Y 3 Y -2 Y 1 X -2 Y 1 Y -2 Y 4 Y -2 Y 1 Y -4 Y 4 Y -1 Y 2 Y -2 Y 1 Y -2 Y 2 Y 1 X 1 Y -3 Y 2 Y -3 Y 3 Y -1 Y 1 Y -2 Y 2 Y -2 Y 2 Y -3 Y 3 Y -2 Y 1 Y 1 X -3 Y 4
 Y -1 Y 2 Y -3 Y 2 Y -3 Y 4 Y 1 X -2 Y 2 Y -3 Y 2 Y -2 Y 2 Y -1 Y 1 Y -1 Y 1 X 2 Y -3 Y 2 Y -2 Y 4 Y -4 Y 2 Y -2 Y 2 Y -3 Y 4 Y 1 X -4 Y 3 Y -2 Y 2 Y -3 Y 3 Y -1 Y 1 Y -1 Y 1 Y -2 Y 1 Y 1 X 1 Y -1 Y 1 Y -2 Y 2 Y -4 Y 3 Y -1 Y 2 Y -2 Y 2 Y 1 X -2 Y 3
 Y -3 Y 1 Y -1 Y 1 Y -1 Y 2 Y -2 Y 1 Y 1 X 1 Y -4 Y 3 Y -1 Y 1 Y -1 Y 1 Y -3 Y 5 Y -2 Y 1 Y -2 Y 1 Y 1 X 1 Y -2 Y 1 Y -1 Y 2 Y -1 Y 1 Y -2 Y 2 Y 1 X 1 Y -2 Y 1 Y -1 Y 1 Y -3 Y 2 Y -1 Y 2 Y -2 Y 1 X 1 Y -1 Y 2 Y -1 Y 1 Y -3 Y 3 Y -2 Y 2 Y -3 Y 4 Y -4
 Y 4 Y -2 Y 1 Y -2 Y 1 X 1 Y -1 Y 2 Y -2 Y 2 Y -1 Y 1 Y -1 Y 2 Y -4 Y 1 X 3 Y -1 Y 1 Y -2 Y 2 Y -4 Y 4 Y -2 Y 3 Y -2 Y 2 Y -1 Y 1 X -2 Y 2 Y -2 Y 2 Y -1 Y 1 Y -2 Y 2 Y -2 Y 2 Y -1 Y 1 Y 1 X -1 Y 1 Y -1 Y 1 Y -3 Y 3 Y -2 Y 2 Y -2 Y 3 Y 1 X -4 Y 3 Y -2
 Y 2 Y -2 Y 2 Y -1 Y 2 Y -3 Y 2 Y -3 Y 3 Y 1 X 2 Y -4 Y 3 Y -3 Y 2 Y -2 Y 2 Y -2 Y 2 Y -4 Y 1 X 4 Y -3 Y 3 Y -2 Y 2 Y -1 Y 1 Y -2 Y 2 Y 1 X -1 Y 1 Y -5 Y 3 Y -2 Y 4 Y -2 Y 2 Y -2 Y 1 Y -2 Y 3 Y 1 X 1 Y -2 Y 2 Y -2 Y 2 Y -2 Y 2 Y 1 X -3 Y 2 Y -3 Y 4 Y
 -3 Y 2 Y -1 Y 2 Y -2 Y 1 X 1 Y -3 Y 3 Y -3 Y 3 Y -1 Y 1 Y -1 Y 1 Y -2 Y 2 Y 1 X 1 Y -3 Y 1 Y -3 Y 3 Y -1 Y 3 Y -3 Y 2 Y -1 Y 1 Y -2 Y 1 X 1 Y -2 Y 4 Y -3 Y 2 Y -1 Y 1 Y -1 Y 1 Y -2 Y 2 Y -3 Y 3 Y 1 X -3 Y 2 Y -1 Y 2 Y -2 Y 3 Y -2 Y 1 Y -2 Y 2 Y -2 Y
 1 Y 1 X -1 Y 2 Y -2 Y 4 Y -4 Y 2 Y -1 Y 1 Y -1 Y 3 Y -4 Y 1 Y -1 Y 1 X 2 Y -1 Y 1 Y -3 Y 2 Y -2 Y 1 Y -1 Y 2 Y -2 Y 3 Y -2 Y 2 Y 1 X -2 Y 2 Y -2 Y 2 Y -4 Y 4 Y -1 Y 1 Y -3 Y 3 Y -1 Y 1 Y 1 X -1 Y 1 Y -2 Y 1 Y -2 Y 4 Y -3 Y 4 Y -4 Y 1 Y -3 Y 3 Y 1 X
 1 Y -2 Y 1 Y -1 Y 3 Y -3 Y 3 Y -2 Y 1 X 1 Y -1 Y 1 Y -2 Y 2 Y -1 Y 1 Y -1 Y 1 Y 1 X -2 Y 4 Y -5 Y 3 Y -2 Y 2 Y -3 Y 1 X 2 Y -1 Y 2 Y -2 Y 2 Y -2 Y 3 Y -4 Y 3 Y -1 Y 2 Y 1 X -3 Y 2 Y -3 Y 3 Y -2 Y 2 Y -1 Y 1 Y -2 Y 2 Y -1 Y 1 X -1 Y 1 Y -2 Y 4 Y -3 Y
 2 Y -2 Y 2 Y -1 Y 2 Y -3 Y 1 X 3 Y -4 Y 3 Y -1 Y 1 Y -2 Y 2 Y -3 Y 3 Y -2 Y 2 Y -2 Y 2 Y -1 Y 1 X 2 Y -2 Y 1 Y -1 Y 1 Y -1 Y 3 Y -3 Y 1 Y -2 Y 1 X 2 Y -2 Y 1 Y -1 Y 2 Y -3 Y 4 Y -2 Y 1 Y -3 Y 1 Y 1 X 2 Y -3 Y 3 Y -2 Y 2 Y -3 Y 3 Y -1 Y 1 Y 1 X -3 Y
 2 Y -1 Y 2 Y -3 Y 3 Y -3 Y 3 Y 1 X -1 Y 1 Y -3 Y 2 Y -1 Y 3 Y -4 Y 2 Y -1 Y 2 Y -2 Y 2 Y -4 Y 1 X 4 Y -1 Y 1 Y -1 Y 1 Y -2 Y 1 Y -1 Y 1 Y -2 Y 2 Y -2 Y 3 Y -2 Y 1 Y 1 X -2 Y 3 Y -2 Y 2 Y -2 Y 2 Y -3 Y 3 Y -1 Y 1 Y -1 Y 1 Y 1 X -2 Y 3 Y -2 Y 1 Y -2 Y
 2 Y -1 Y 1 Y -1 Y 1 Y -3 Y 3 Y -1 Y 1 X -1 Y 3 Y -5 Y 3 Y -1 Y 2 Y -1 Y 1 Y -1 Y 1 Y -2 Y 2 Y -2 Y 1 Y 1 X -2 Y 2 Y -1 Y 1 Y -1 Y 1 Y -2 Y 2 Y -1 Y 2 Y -1 Y 1 Y -1 Y 1 X 1 Y -3 Y 4 Y -2 Y 3 Y -3 Y 1 Y -3 Y 3 Y -3 Y 2 Y 1 X -1 Y 3 Y -2 Y 2 Y -1 Y 1 Y
 -4 Y 3 Y -3 Y 2 Y -2 Y 3 Y 1 X -3 Y 5 Y -3 Y 1 Y -3 Y 2 Y -3 Y 4 Y -3 Y 3 Y -2 Y 1 X 2 Y -3 Y 1 Y -1 Y 3 Y -2 Y 1 Y -2 Y 3 Y -2 Y 1 X 1 Y -2 Y 5 Y -4 Y 1 Y -1 Y 2 Y -2 Y 1 X 2 Y -2 Y 3 Y -1 Y 1 Y -4 Y 3 Y -1 Y 1 Y 1 X -2 Y 2 Y -3 Y 3 Y -2 Y 2 Y -3 Y
 3 Y -2 Y 3 Y -2 Y 1 X -1 Y 1 Y -1 Y 1 Y -2 Y 3 Y -2 Y 1 Y -2 Y 2 Y -2 Y 1 Y -2 Y 1 X 4 Y -2 Y 2 Y -1 Y 1 Y -2 Y 2 Y -2 Y 2 Y -1 Y 3 Y -4 Y 2 Y -2 Y 1 Y 1 X 1 Y -1 Y 1 Y -1 Y 1 Y -1 Y 1 Y -2 Y 2 Y -1 Y 1 Y -1 Y 1 Y -1 Y 1 Y 1 X -2 Y 2 Y -1 Y 1 Y -4 Y
 4 Y -2 Y 2 Y -1 Y 3 Y -3 Y 1 X 2 Y -1 Y 1 Y -2 Y 1 Y -2 Y 1 Y -2 Y 3 Y -2 Y 1 X 1 Y -3 Y 4 Y -1 Y 1 Y -1 Y 1 Y -4 Y 3 Y -1 Y 1 X -2 Y 3 Y -1 Y 2 Y -1 Y 1 Y -3 Y 1 Y -1 Y 3 Y -1 Y 1 Y -4 Y 1 X 3 Y -1 Y 3 Y -3 Y 2 Y -3 Y 2 Y 1 X -1 Y 3 Y -4 Y 3 Y -2 Y
 1 Y -2 Y 1 X 1 Y -1 Y 4 Y -3 Y 2 Y -2 Y 1 Y -1 Y 2 Y -2 Y 3 Y -4 Y 2 Y -2 Y 1 X 1 Y -1 Y 2 Y -1 Y 2 Y -2 Y 2 Y -1 Y 1 Y -3 Y 3 Y 1 X -3 Y 3 Y -3 Y 3 Y -1 Y 3 Y -2 Y 1 Y -4 Y 2 Y -1 Y 2 Y 1 X -1 Y 1 Y -2 Y 2 Y -1 Y 1 Y -2 Y 2 Y -1 Y 1 Y 1 X -3 Y 2 Y
 -1 Y 2 Y -2 Y 2 Y -2 Y 2 Y -1 Y 2 Y -4 Y 1 X 3 Y -2 Y 2 Y -3 Y 2 Y -1 Y 2 Y -1 Y 1 Y -1 Y 1 Y -2 Y 1 X 2 Y -3 Y 1 Y -1 Y 2 Y -2 Y 3 Y -2 Y 1 X -1 Y 2 Y -3 Y 4 Y -3 Y 2 Y -3 Y 5 Y -4 Y 2 Y 1 X -1 Y 1 Y -2 Y 2 Y -1 Y 1 Y -2 Y 2 Y -1 Y 2 Y -3 Y 4 Y -3
 Y 2 Y 1 X -3 Y 2 Y -1 Y 2 Y -3 Y 2 Y -2 Y 4 Y -3 Y 2 Y -3 Y 3 Y 1 X -1 Y 2 Y -3 Y 2 Y -2 Y 2 Y -2 Y 1 Y -1 Y 2 Y -2 Y 1 X 2 Y -2 Y 2 Y -1 Y 1 Y -1 Y 1 Y -2 Y 2 Y 1 X -3 Y 3 Y -2 Y 2 Y -2 Y 2 Y -3 Y 3 Y -3 Y 3 Y -2 Y 1 X 1 Y -4 Y 5 Y -2 Y 2 Y -1 Y 1
 Y -2 Y 2 Y -2 Y 2 Y 1 X -2 Y 1 Y -2 Y 3 Y -1 Y 1 Y -2 Y 1 Y -2 Y 3 Y -2 Y 1 Y 1 X -3 Y 4 Y -2 Y 2 Y -2 Y 2 Y -2 Y 2 Y -3 Y 1 X 3 Y -1 Y 1 Y -2 Y 4 Y -4 Y 2 Y -3 Y 3 Y -1 Y 1 Y 1 X -3 Y 2 Y -3 Y 5 Y -2 Y 1 Y -1 Y 1 X -2 Y 4 Y -3 Y 1 Y -1 Y 1 Y -1 Y 2
 Y -1 Y 2 Y -2 Y 1 Y 1 X -2 Y 1 Y -1 Y 2 Y -3 Y 4 Y -2 Y 1 X 2 Y -4 Y 3 Y -2 Y 2 Y -2 Y 1 Y -1 Y 1 X 1 Y -1 Y 2 Y -2 Y 1 Y -1 Y 2 Y -2 Y 2 Y -2 Y 3 Y 1 X -4 Y 3 Y -2 Y 2 Y -3 Y 2 Y -1 Y 1 Y -1 Y 2 Y 1 X 1 Y -4 Y 3 Y -2 Y 1 Y -2 Y 3 Y -2 Y 1 Y -1 Y 1
 X 3 Y -4 Y 3 Y -3 Y 3 Y -4 Y 4 Y -2 Y 1 X -1 Y 3 Y -3 Y 2 Y -2 Y 4 Y -4 Y 3 Y -2 Y 2 Y -3 Y 1 X 3 Y -1 Y 2 Y -4 Y 2 Y -2 Y 3 Y -3 Y 3 Y -1 Y 1 Y -3 Y 1 Y 1 X -1 Y 3 Y -2 Y 2 Y -3 Y 3 Y -3 Y 2 Y -3 Y 2 Y -1 Y 2 Y 1 X 1 Y -2 Y 2 Y -1 Y 1 Y -1 Y 1 Y -2
 Y 2 Y -2 Y 3 Y -4 Y 3 Y -1 Y 1 X -1 Y 3 Y -2 Y 2 Y -2 Y 1 Y -1 Y 1 Y -2 Y 2 Y -2 Y 2 Y 1 X -2 Y 2 Y -2 Y 1 Y -1 Y 2 Y -2 Y 2 Y -2 Y 2 Y -3 Y 3 Y 1 X 2 Y -3 Y 1 Y -1 Y 1 Y -3 Y 3 Y -3 Y 2 Y -1 Y 3 Y -2 Y 2 Y -2 Y 1 X 1 Y -2 Y 2 Y -4 Y 4 Y -2 Y 2 Y -4
 Y 5 Y -1 Y 1 X -2 Y 2 Y -2 Y 1 Y -2 Y 2 Y -2 Y 3 Y -2 Y 4 Y -2 Y 2 Y 1 X -2 Y 1 Y -6 Y 5 Y -2 Y 2 Y -2 Y 2 Y -2 Y 1 X 2 Y -1 Y 2 Y -4 Y 2 Y -2 Y 3 Y -1 Y 2 Y -2 Y 1 Y -2 Y 1 X 3 Y -3 Y 2 Y -2 Y 3 Y -3 Y 3 Y -2 Y 1 X -2 Y 3 Y -2 Y 2 Y -3 Y 3 Y -1 Y 1
 Y -2 Y 1 X 2 Y -2 Y 1 Y -1 Y 1 Y -1 Y 2 Y -3 Y 3 Y -1 Y 1 Y -2 Y 2 Y -2 Y 2 Y 1 X -3 Y 2 Y -2 Y 3 Y -2 Y 3 Y -2 Y 1 Y -2 Y 3 Y -2 Y 1 X -1 Y 3 Y -3 Y 1 Y -1 Y 2 Y -2 Y 1 Y -1 Y 1 X 2 Y -3 Y 5 Y -4 Y 1 Y -2 Y 2 Y -1 Y 2 Y -3 Y 1 X 1 Y -1 Y 1 Y -1 Y 3
 Y -1 Y 1 Y -2 Y 2 Y -3 Y 3 Y -1 Y 1 Y -1 Y 1 X -3 Y 2 Y -1 Y 3 Y -3 Y 3 Y -2 Y 3 Y -3 Y 2 Y 1 X -2 Y 2 Y -3 Y 3 Y -2 Y 2 Y -1 Y 1 Y -2 Y 2 Y 1 X -3 Y 2 Y -2 Y 3 Y -4 Y 4 Y -1 Y 1 Y -4 Y 4 Y 1 X -1 Y 1 Y -3 Y 3 Y -1 Y 2 Y -2 Y 2 Y -3 Y 1 X -1 Y 4 Y
 -3 Y 1 Y -2 Y 2 Y -1 Y 2 Y -3 Y 1 X 2 Y -3 Y 4 Y -2 Y 2 Y -2 Y 2 Y -1 Y 1 Y -2 Y 3 Y -2 Y 1 Y 1 X -1 Y 1 Y -3 Y 3 Y -3 Y 2 Y -1 Y 2 Y -3 Y 3 Y -2 Y 2 Y -2 Y 1 X 1 Y -2 Y 2 Y -2 Y 3 Y -1 Y 1 Y -1 Y 1 Y -3 Y 2 Y -2 Y 1 Y 1 X 1 Y -2 Y 1 Y -2 Y 4 Y -2 Y
 1 Y -1 Y 1 Y -2 Y 4 Y -3 Y 1 X 2 Y -2 Y 1 Y -1 Y 1 Y -2 Y 3 Y -1 Y 1 Y -2 Y 3 Y -2 Y 1 X 3 Y -3 Y 1 Y -3 Y 4 Y -2 Y 1 Y -1 Y 1 Y -2 Y 1 Y 1 X 1 Y -1 Y 1 Y -3 Y 3 Y -1 Y 2 Y -4 Y 1 X 4 Y -2 Y 1 Y -3 Y 3 Y -1 Y 1 Y -3 Y 2 Y 1 X -1 Y 2 Y -1 Y 2 Y -3 Y
 2 Y -2 Y 2 Y -2 Y 2 Y 1 X -3 Y 3 Y -1 Y 1 Y -1 Y 1 Y -3 Y 3 Y -2 Y 2 Y -1 Y 1 X -2 Y 2 Y -1 Y 1 Y -1 Y 3 Y -2 Y 1 Y -2 Y 2 Y -1 Y 1 Y -2 Y 1 X 2 Y -2 Y 2 Y -2 Y 2 Y -2 Y 2 Y -1 Y 1 Y -1 Y 1 Y -1 Y 1 X -2 Y 2 Y -1 Y 2 Y -2 Y 3 Y -3 Y 2 Y -3 Y 3 Y -3
 Y 2 Y 1 X 1 Y -2 Y 2 Y -3 Y 4 Y -2 Y 1 Y -2 Y 1 X 1 Y -1 Y 3 Y -3 Y 1 Y -2 Y 3 Y -3 Y 3 Y -3 Y 2 Y 1 X 3 Y -3 Y 1 Y -2 Y 2 Y -3 Y 1 Y -1 Y 3 Y 1 X -3 Y 5 Y -6 Y 4 Y -2 Y 2 Y -2 Y 1 Y -1 Y 2 Y 1 X -1 Y 2 Y -3 Y 2 Y -3 Y 3 Y -2 Y 3 Y -2 Y 1 X -1 Y 2 Y
 -1 Y 1 Y -2 Y 2 Y -1 Y 3 Y -3 Y 2 Y -2 Y 1 Y -3 Y 3 Y 1 X 1 Y -2 Y 1 Y -3 Y 4 Y -4 Y 3 Y -2 Y 2 Y -1 Y 1 Y 1 X -2 Y 2 Y -1 Y 2 Y -3 Y 3 Y -3 Y 3 Y -2 Y 1 X -1 Y 1 Y -1 Y 3 Y -3 Y 2 Y -2 Y 2 Y -1 Y 1 Y -2 Y 3 Y -2 Y 1 X 1 Y -2 Y 2 Y -3 Y 5 Y -3 Y 1 Y
 -2 Y 2 Y 1 X -1 Y 1 Y -2 Y 2 Y -1 Y 1 Y -1 Y 2 Y -2 Y 1 X -2 Y 2 Y -1 Y 2 Y -1 Y 2 Y -1 Y 1 Y -2 Y 1 Y -1 Y 3 Y -4 Y 2 Y 1 X 1 Y -2 Y 1 Y -2 Y 3 Y -3 Y 2 Y 1 X 2 Y -3 Y 1 Y -1 Y 2 Y -3 Y 2 Y -1 Y 1 Y -2 Y 2 Y -2 Y 2 Y -2 Y 1 X 2 Y -5 Y 4 Y -2 Y 3 Y
 -2 Y 2 Y -1 Y 1 Y -3 Y 1 Y 1 X 2 Y -3 Y 5 Y -4 Y 1 Y -1 Y 1 Y -4 Y 4 Y -1 Y 1 X 1 Y -1 Y 2 Y -1 Y 1 Y -2 Y 1 Y -1 Y 2 Y -2 Y 2 Y -4 Y 4 Y 1 X 1 Y -2 Y 1 Y -2 Y 2 Y -1 Y 1 Y -2 Y 2 Y -1 Y 2 Y -3 Y 4 Y -5 Y 1 X 3 Y -1 Y 2 Y -3 Y 1 Y -1 Y 2 Y -1 Y 1 Y
 -3 Y 1 X 3 Y -3 Y 3 Y -1 Y 2 Y -2 Y 1 Y -2 Y 2 Y -3 Y 3 Y -1 Y 2 Y 1 X -2 Y 1 Y -2 Y 3 Y -2 Y 3 Y -5 Y 3 Y -1 Y 1 X 1 Y -2 Y 3 Y -3 Y 2 Y -3 Y 2 Y -1 Y 2 Y 1 X -2 Y 4 Y -3 Y 2 Y -2 Y 2 Y -3 Y 1 Y -1 Y 1 Y -2 Y 1 X 4 Y -3 Y 4 Y -4 Y 2 Y -3 Y 2 Y -1 Y
 2 Y -3 Y 3 Y -2 Y 1 X 2 Y -2 Y 3 Y -4 Y 2 Y -2 Y 5 Y -3 Y 1 Y -2 Y 1 Y -1 Y 1 X 2 Y -3 Y 4 Y -3 Y 2 Y -3 Y 3 Y 1 X -1 Y 1 Y -1 Y 1 Y -3 Y 3 Y -2 Y 2 Y -3 Y 1 Y 1 X 2 Y -2 Y 2 Y -5 Y 5 Y -2 Y 2 Y -2 Y 2 Y -2 Y 2 Y 1 X -3 Y 2 Y -2 Y 2 Y -2 Y 2 Y -1 Y
 1 Y -1 Y 1 Y -3 Y 1 X 3 Y -1 Y 2 Y -1 Y 1 Y -2 Y 2 Y -2 Y 3 Y -4 Y 1 Y 1 X 2 Y -3 Y 4 Y -3 Y 2 Y -2 Y 1 Y -2 Y 1 X 3 Y -3 Y 2 Y -1 Y 2 Y -2 Y 2 Y -2 Y 2 Y -2 Y 1 X 1 Y -1 Y 2 Y -2 Y 1 Y -2 Y 3 Y -3 Y 4 Y -2 Y 1 Y -1 Y 1 X 1 Y -3 Y 3 Y -1 Y 1 Y -2 Y
 2 Y -2 Y 1 X -1 Y 1 Y -1 Y 3 Y -2 Y 1 Y -1 Y 2 Y -3 Y 2 Y -2 Y 1 X 4 Y -3 Y 1 Y -1 Y 2 Y -1 Y 1 Y -2 Y 1 Y 1 X 2 Y -2 Y 1 Y -3 Y 1 Y -3 Y 5 Y -2 Y 1 Y -2 Y 1 Y 1 X -1 Y 1 Y -1 Y 1 Y -1 Y 2 Y -2 Y 3 Y -1 Y 2 Y -1 Y 1 Y -3 Y 2 Y 1 X -2 Y 1 Y -1 Y 2 Y
 -2 Y 1 Y -2 Y 3 Y -3 Y 2 Y -2 Y 1 Y 1 X -1 Y 3 Y -3 Y 1 Y -1 Y 2 Y -2 Y 1 Y -1 Y 2 Y -3 Y 3 Y -1 Y 2 Y 1 X 2 Y -4 Y 2 Y -1 Y 1 Y -1 Y 2 Y -3 Y 3 Y -2 Y 2 Y -1 Y 1 Y -2 Y 1 X 2 Y -3 Y 1 Y -2 Y 3 Y -2 Y 2 Y -2 Y 2 Y -2 Y 2 Y -2 Y 1 X 2 Y -1 Y 1 Y -3 Y
 3 Y -2 Y 2 Y -2 Y 2 Y -2 Y 2 Y -4 Y 4 Y -3 Y 1 X 3 Y -2 Y 2 Y -3 Y 3 Y -3 Y 1 Y 1 X 3 Y -4 Y 3 Y -2 Y 2 Y -1 Y 1 Y -2 Y 1 Y -2 Y 1 X 3 Y -3 Y 3 Y -2 Y 2 Y -1 Y 1 Y -1 Y 1 Y -3 Y 3 Y -1 Y 2 Y 1 X -2 Y 1 Y -2 Y 1 Y -2 Y 2 Y -1 Y 2 Y -1 Y 1 Y -1 Y 1 Y
 1 X -2 Y 1 Y -2 Y 3 Y -2 Y 1 Y -1 Y 2 Y -3 Y 4 Y 1 X -2 Y 1 Y -3 Y 3 Y -1 Y 1 Y -1 Y 1 Y -1 Y 2 Y -3 Y 1 Y -2 Y 1 X 3 Y -2 Y 1 Y -1 Y 1 Y -1 Y 4 Y -5 Y 3 Y -1 Y 1 X 1 Y -1 Y 1 Y -4 Y 4 Y -2 Y 2 Y -2 Y 3 Y -3 Y 1 Y -2 Y 1 Y 1 X 2 Y -3 Y 3 Y -1 Y 1 Y
 -1 Y 1 Y -2 Y 2 Y -1 Y 2 Y -1 Y 1 X -3 Y 3 Y -1 Y 2 Y -3 Y 2 Y -1 Y 2 Y -3 Y 2 Y -2 Y 1 X 2 Y -2 Y 1 Y -2 Y 2 Y -1 Y 2 Y -2 Y 2 Y -2 Y 2 Y 1 X -1 Y 1 Y -2 Y 1 Y -1 Y 2 Y -2 Y 3 Y -6 Y 5 Y -1 Y 1 X -1 Y 1 Y -1 Y 1 Y -1 Y 1 Y -1 Y 1 Y -1 Y 1 Y -1 Y 2
 Y -1 Y 1 Y 1 X -1 Y 1 Y -2 Y 2 Y -3 Y 3 Y -3 Y 3 Y -1 Y 1 Y -2 Y 2 Y 1 X 1 Y -4 Y 3 Y -3 Y 2 Y -2 Y 3 Y -2 Y 2 Y -1 Y 1 Y 1 X -1 Y 1 Y -2 Y 2 Y -4 Y 4 Y -2 Y 2 Y -1 Y 2 Y -1 Y 1 X -1 Y 1 Y -1 Y 1 Y -3 Y 3 Y -2 Y 2 Y -1 Y 1 Y -1 Y 2 Y -1 Y 1 X -2 Y 1
 Y -1 Y 2 Y -3 Y 3 Y -4 Y 3 Y -2 Y 3 Y -2 Y 3 Y 1 X -1 Y 1 Y -2 Y 2 Y -4 Y 2 Y -2 Y 2 Y -1 Y 2 Y -3 Y 1 X 2 Y -1 Y 4 Y -3 Y 1 Y -2 Y 2 Y -1 Y 1 Y -1 Y 1 Y -2 Y 1 X 2 Y -3 Y 4 Y -2 Y 1 Y -2 Y 2 Y -2 Y 2 Y -2 Y 2 Y -2 Y 1 Y 1 X 1 Y -3 Y 5 Y -4 Y 3 Y -4
 Y 5 Y -2 Y 1 X -2 Y 2 Y -2 Y 2 Y -1 Y 1 Y -3 Y 4 Y -4 Y 4 Y -4 Y 1 X 3 Y -2 Y 2 Y -3 Y 3 Y -2 Y 1 Y -1 Y 1 X 2 Y -1 Y 1 Y -1 Y 1 Y -1 Y 1 Y -3 Y 2 Y -1 Y 1 Y -1 Y 3 Y -1 Y 1 Y -2 Y 1 X -3 Y 4 Y -1 Y 1 Y -2 Y 1 Y -1 Y 2 Y -1 Y 2 Y -4 Y 3 Y -1 Y 1 Y 1
 X -1 Y 1 Y -2 Y 2 Y -2 Y 2 Y -2 Y 1 Y -1 Y 2 Y -2 Y 2 Y 1 X -3 Y 2 Y -1 Y 3 Y -5 Y 3 Y -1 Y 2 Y -2 Y 3 Y 1 X -2 Y 1 Y -2 Y 1 Y -1 Y 2 Y -1 Y 1 Y -3 Y 1 Y -1 Y 2 Y -2 Y 2 Y 1 X -1 Y 2 Y -2 Y 2 Y -2 Y 2 Y -1 Y 2 Y -2 Y 1 X -1 Y 2 Y -3 Y 3 Y -2 Y 1 Y
 -1 Y 1 Y -2 Y 3 Y -2 Y 2 Y -2 Y 2 Y 1 X -3 Y 3 Y -2 Y 1 Y -1 Y 2 Y -4 Y 4 Y -3 Y 3 Y -2 Y 1 X 1 Y -1 Y 4 Y -5 Y 3 Y -3 Y 3 Y -2 Y 2 Y -1 Y 1 Y 1 X -3 Y 2 Y -2 Y 3 Y -2 Y 2 Y -1 Y 1 Y -3 Y 3 Y 1 X -3 Y 2 Y -2 Y 3 Y -4 Y 3 Y -1 Y 3 Y -6 Y 4 Y -2 Y 3 Y
 1 X -1 Y 1 Y -3 Y 3 Y -4 Y 6 Y -3 Y 2 Y -3 Y 3 Y 1 X -4 Y 3 Y -4 Y 3 Y -3 Y 4 Y -2 Y 3 Y -3 Y 1 X 1 Y -1 Y 2 Y -3 Y 3 Y -1 Y 1 Y -1 Y 1 Y -1 Y 3 Y -2 Y 1 Y 1 X -2 Y 2 Y -2 Y 1 Y -4 Y 4 Y -2 Y 1 X 1 Y -1 Y 2 Y -1 Y 1 Y -2 Y 1 Y 1 X 1 Y -4 Y 3 Y -1 Y
 1 Y -2 Y 2 Y -1 Y 1 Y -3 Y 3 Y -1 Y 2 Y 1 X -1 Y 1 Y -1 Y 2 Y -4 Y 1 Y -1 Y 4 Y -3 Y 2 Y -3 Y 3 Y -2 Y 2 Y 1 X -2 Y 4 Y -4 Y 1 Y -1 Y 2 Y -1 Y 2 Y -4 Y 3 Y 1 X 1 Y -4 Y 3 Y -1 Y 1 Y -2 Y 2 Y -2 Y 2 Y -3 Y 3 Y -2 Y 3 Y 1 X -2 Y 1 Y -2 Y 2 Y -3 Y 5 Y
 -4 Y 1 X -1 Y 3 Y -2 Y 2 Y -3 Y 3 Y -2 Y 1 Y -1 Y 1 X 1 Y -1 Y 2 Y -1 Y 1 Y -2 Y 2 Y -3 Y 5 Y -4 Y 2 Y -1 Y 2 Y -4 Y 1 X 3 Y -5 Y 4 Y -1 Y 1 Y -1 Y 2 Y -1 Y 2 Y -4 Y 3 Y -2 Y 2 Y 1 X -1 Y 1 Y -3 Y 4 Y -4 Y 2 Y -3 Y 4 Y -1 Y 1 Y 1 X 1 Y -2 Y 1 Y -1 Y
 1 Y -1 Y 1 Y -3 Y 1 Y 1 X -1 Y 3 Y -1 Y 1 Y -2 Y 2 Y -2 Y 1 Y -2 Y 2 Y -1 Y 3 Y -2 Y 1 X 2 Y -3 Y 2 Y -1 Y 1 Y -2 Y 1 Y -3 Y 3 Y -1 Y 1 X 1 Y -2 Y 3 Y -2 Y 1 Y -1 Y 4 Y -6 Y 3 Y 1 X -1 Y 1 Y -1 Y 2 Y -1 Y 1 Y -3 Y 2 Y -1 Y 2 Y -3 Y 2 Y 1 X -2 Y 2 Y
 -2 Y 3 Y -3 Y 2 Y -3 Y 4 Y -3 Y 2 Y 1 X -1 Y 3 Y -2 Y 1 Y -2 Y 2 Y -2 Y 1 Y -2 Y 3 Y -2 Y 1 X -1 Y 3 Y -5 Y 5 Y -2 Y 2 Y -3 Y 3 Y -3 Y 2 Y 1 X -1 Y 2 Y -3 Y 3 Y -3 Y 4 Y -2 Y 1 Y -2 Y 2 Y -2 Y 1 X -1 Y 1 Y -1 Y 2 Y -1 Y 2 Y -2 Y 2 Y -2 Y 2 Y -2 Y 3
 Y 1 X -3 Y 1 Y -1 Y 2 Y -1 Y 2 Y -3 Y 2 Y -3 Y 3 Y 1 X -1 Y 1 Y -1 Y 1 Y -2 Y 2 Y -2 Y 3 Y -2 Y 2 Y -1 Y 1 X 2 Y -5 Y 3 Y -3 Y 3 Y -2 Y 3 Y -4 Y 1 Y 1 X 1 Y -1 Y 3 Y -1 Y 1 Y -3 Y 2 Y -2 Y 2 Y -2 Y 1 X 2 Y -3 Y 3 Y -4 Y 4 Y -2 Y 2 Y -3 Y 2 Y -1 Y 1
 Y -1 Y 1 Y 1 X 1 Y -3 Y 1 Y -1 Y 2 Y -2 Y 3 Y -3 Y 2 Y -1 Y 1 Y -2 Y 1 X 3 Y -2 Y 2 Y -3 Y 2 Y -1 Y 2 Y -3 Y 1 Y -1 Y 3 Y -2 Y 1 X 1 Y -3 Y 4 Y -3 Y 3 Y -1 Y 1 Y -2 Y 1 X 2 Y -3 Y 3 Y -1 Y 2 Y -2 Y 2 Y -2 Y 1 Y -3 Y 1 Y 1 X 2 Y -3 Y 5 Y -5 Y 1 Y -2
 Y 4 Y -5 Y 3 Y 1 X 1 Y -3 Y 5 Y -4 Y 3 Y -2 Y 3 Y -3 Y 1 Y -2 Y 2 Y 1 X -3 Y 5 Y -2 Y 1 Y -2 Y 1 Y -3 Y 3 Y -2 Y 1 Y 1 X -1 Y 1 Y -1 Y 2 Y -3 Y 2 Y -2 Y 3 Y -4 Y 2 Y -1 Y 1 Y 1 X 1 Y -1 Y 2 Y -1 Y 2 Y -5 Y 4 Y -2 Y 1 Y -1 Y 3 Y -2 Y 1 X -1 Y 2 Y -3
 Y 2 Y -2 Y 3 Y -2 Y 2 Y -2 Y 2 Y -1 Y 1 Y -2 Y 1 X 3 Y -1 Y 1 Y -2 Y 2 Y -3 Y 3 Y -3 Y 3 Y -1 Y 1 X -1 Y 2 Y -3 Y 2 Y -1 Y 1 Y -2 Y 3 Y -4 Y 2 Y -2 Y 2 Y -4 Y 5 Y -4 Y 1 X 2 Y -2 Y 2 Y -3 Y 5 Y -2 Y 3 Y -3 Y 2 Y -1 Y 1 X -1 Y 1 Y -1 Y 3 Y -64 Y 1 X
 -15 Y 1 Y -2 Y 3 Y -1 Y 16 Y 1 X 9 Y -2 Y 20 Y -9 Y 1 X -194 Y 3 Y -2 Y 14 Y 1 X 102 Y 1 X 18 Y -191 Y 1 X -2 Y 106 Y 1 X 57 Y -146 Y 1 X -162 Y 75 Y 1 X 169 Y 1 X 2 Y -379 Y 16 Y 1 X 238 Y 1 X 63 Y -377 Y 1 X -23 Y 198 Y 1 X 164 Y -82 Y 1 X -281 Y
 87 Y 1 X 251 Y 1 X 19 Y -392 Y 7 Y 1 X 266 Y 1 X 103 Y -322 Y 1 X -60 Y 156 Y 1 X 219 Y -8 Y 1 X -375 Y 48 Y 1 X 275 Y 1 X 48 Y -410 Y 1 X 251 Y 1 X 139 Y -226 Y 1 X -185 Y 137 Y 1 X 266 Y 1 X -404 Y 35 Y 1 X 296 Y 1 X 73 Y -389 Y 1 X -7 Y 231 Y 1 X
 168 Y -102 Y 1 X -293 Y 95 Y 1 X 275 Y 1 X 22 Y -391 Y 8 Y 1 X 271 Y 1 X 105 Y -326 Y 1 X -58 Y 165 Y 1 X 224 Y -20 Y 1 X -388 Y 59 Y 1 X 292 Y 1 X 44 Y -396 Y 1 X 261 Y 1 X 134 Y -273 Y 1 X -119 Y 138 Y 1 X 255 Y 1 X -397 Y 27 Y 1 X 287 Y 1 X 73 Y
 -379 Y 1 X -12 Y 222 Y 1 X 170 Y -102 Y 1 X -284 Y 102 Y 1 X 268 Y 1 X 16 Y -389 Y 13 Y 1 X 279 Y 1 X 97 Y -351 Y 1 X -31 Y 184 Y 1 X 206 Y -31 Y 1 X -349 Y 65 Y 1 X 276 Y 1 X 39 Y -397 Y 1 X 261 Y 1 X 130 Y -266 Y 1 X -106 Y 141 Y 1 X 234 Y -3 Y 1
 X -401 Y 49 Y 1 X 289 Y 1 X 64 Y -400 Y 1 X -1 Y 243 Y 1 X 152 Y -158 Y 1 X -237 Y 113 Y 1 X 271 Y 1 X 18 Y -386 Y 17 Y 1 X 280 Y 1 X 94 Y -372 Y 1 X -26 Y 205 Y 1 X 187 Y -64 Y 1 X -326 Y 83 Y 1 X 279 Y 1 X 34 Y -400 Y 2 Y 1 X 274 Y 1 X 124 Y -307
 Y 1 X -105 Y 151 Y 1 X 247 Y 1 X -401 Y 46 Y 1 X 293 Y 1 X 63 Y -391 Y 1 X -5 Y 238 Y 1 X 154 Y -167 Y 1 X -225 Y 121 Y 1 X 267 Y 1 X 8 Y -389 Y 24 Y 1 X 284 Y 1 X 86 Y -365 Y 1 X -24 Y 212 Y 1 X 185 Y -65 Y 1 X -347 Y 83 Y 1 X 284 Y 1 X 38 Y -415 Y
 1 Y 1 X 277 Y 1 X 125 Y -334 Y 1 X -71 Y 171 Y 1 X 240 Y -5 Y 1 X -409 Y 63 Y 1 X 291 Y 1 X 60 Y -397 Y 1 X 250 Y 1 X 146 Y -261 Y 1 X -152 Y 136 Y 1 X 273 Y 1 X 5 Y -424 Y 27 Y 1 X 300 Y 1 X 88 Y -404 Y 1 X -21 Y 229 Y 1 X 188 Y -79 Y 1 X -333 Y 95
 Y 1 X 291 Y 1 X 27 Y -404 Y 10 Y 1 X 286 Y 1 X 117 Y -355 Y 1 X -60 Y 178 Y 1 X 236 Y -12 Y 1 X -396 Y 58 Y 1 X 294 Y 1 X 56 Y -425 Y 1 X 264 Y 1 X 155 Y -272 Y 1 X -154 Y 144 Y 1 X 275 Y 1 X 1 Y -405 Y 35 Y 1 X 297 Y 1 X 84 Y -385 Y 1 X -12 Y 226 Y
 1 X 178 Y -101 Y 1 X -292 Y 101 Y 1 X 274 Y 1 X 24 Y -380 Y 12 Y 1 X 270 Y 1 X 103 Y -347 Y 1 X -52 Y 185 Y 1 X 209 Y -16 Y 1 X -386 Y 62 Y 1 X 286 Y 1 X 48 Y -383 Y 2 Y 1 X 254 Y 1 X 137 Y -277 Y 1 X -122 Y 138 Y 1 X 256 Y 1 X 2 Y -394 Y 28 Y 1 X
 287 Y 1 X 78 Y -390 Y 1 X -10 Y 223 Y 1 X 175 Y -114 Y 1 X -279 Y 105 Y 1 X 271 Y 1 X 24 Y -415 Y 16 Y 1 X 287 Y 1 X 103 Y -365 Y 1 X -43 Y 201 Y 1 X 203 Y -26 Y 1 X -373 Y 76 Y 1 X 284 Y 1 X 43 Y -398 Y 1 X 265 Y 1 X 135 Y -307 Y 1 X -108 Y 153 Y 1
 X 257 Y 1 X -393 Y 42 Y 1 X 285 Y 1 X 68 Y -396 Y 1 X -4 Y 236 Y 1 X 158 Y -189 Y 1 X -175 Y 111 Y 1 X 259 Y 1 X 16 Y -364 Y 16 Y 1 X 265 Y 1 X 92 Y -335 Y 1 X -29 Y 186 Y 1 X 179 Y -41 Y 1 X -325 Y 71 Y 1 X 260 Y 1 X 36 Y -380 Y 4 Y 1 X 253 Y 1 X
 120 Y -304 Y 1 X -82 Y 151 Y 1 X 231 Y 1 X -376 Y 46 Y 1 X 271 Y 1 X 62 Y -356 Y 1 X -2 Y 221 Y 1 X 143 Y -113 Y 1 X -92 Y 89 Y 1 X 176 Y 1 X 11 Y -143 Y 13 Y 1 X 138 Y 1 X 47 Y -95 Y 1 X -7 Y 80 Y 1 X 68 Y -8 Y 1 X -55 Y 3 Y -1 Y 26 Y 1 X 65 Y 1 X
 10 Y -202 Y 1 X 110 Y 1 X 55 Y -228 Y 1 X -71 Y 101 Y 1 X 146 Y -8 Y 1 X -407 Y 37 Y 1 X 253 Y 1 X 50 Y -387 Y 1 X -3 Y 229 Y 1 X 137 Y -254 Y 1 X -156 Y 125 Y 1 X 258 Y 1 X 7 Y -407 Y 27 Y 1 X 284 Y 1 X 86 Y -395 Y 1 X -16 Y 220 Y 1 X 184 Y -79 Y 1
 X -340 Y 92 Y 1 X 288 Y 1 X 27 Y -414 Y 6 Y 1 X 290 Y 1 X 118 Y -347 Y 1 X -68 Y 189 Y 1 X 224 Y -3 Y 1 X -396 Y 55 Y 1 X 289 Y 1 X 57 Y -387 Y 1 X -2 Y 252 Y 1 X 148 Y -252 Y 1 X -144 Y 130 Y 1 X 259 Y 1 X 3 Y -395 Y 28 Y 1 X 283 Y 1 X 82 Y -391 Y
 1 X -13 Y 224 Y 1 X 176 Y -148 Y 1 X -242 Y 98 Y 1 X 273 Y 1 X 24 Y -405 Y 7 Y 1 X 280 Y 1 X 114 Y -333 Y 1 X -63 Y 180 Y 1 X 216 Y -10 Y 1 X -376 Y 1 Y -2 Y 57 Y 1 X 283 Y 1 X 48 Y -386 Y 1 Y 1 X 251 Y 1 X 134 Y -264 Y 1 X -127 Y 132 Y 1 X 247 Y 1
 X 3 Y -380 Y 29 Y 1 X 282 Y 1 X 75 Y -377 Y 1 X -12 Y 214 Y 1 X 170 Y -150 Y 1 X -233 Y 98 Y 1 X 268 Y 1 X 22 Y -411 Y 9 Y 1 X 285 Y 1 X 106 Y -365 Y 1 X -48 Y 197 Y 1 X 210 Y -17 Y 1 X -383 Y 70 Y 1 X 286 Y 1 X 46 Y -398 Y 1 X 264 Y 1 X 138 Y -284
 Y 1 X -107 Y 159 Y 1 X 235 Y 1 X -408 Y 38 Y 1 X 292 Y 1 X 72 Y -404 Y 1 X -9 Y 237 Y 1 X 173 Y -190 Y 1 X -220 Y 113 Y 1 X 279 Y 1 X 19 Y -413 Y 15 Y 1 X 291 Y 1 X 106 Y -369 Y 1 X -32 Y 205 Y 1 X 202 Y -31 Y 1 X -365 Y 75 Y 1 X 280 Y 1 X 43 Y -392
 Y 1 X 264 Y 1 X 129 Y -303 Y 1 X -91 Y 169 Y 1 X 228 Y 1 X -402 Y 44 Y 1 X 287 Y 1 X 70 Y -401 Y 1 X -2 Y 238 Y 1 X 159 Y -205 Y 1 X -206 Y 115 Y 1 X 275 Y 1 X 13 Y -411 Y 20 Y 1 X 293 Y 1 X 99 Y -402 Y 1 X -28 Y 220 Y 1 X 204 Y -95 Y 1 X -304 Y 86
 Y 1 X 285 Y 1 X 38 Y -411 Y 4 Y 1 X 276 Y 1 X 125 Y -327 Y 1 X -85 Y 180 Y 1 X 232 Y -4 Y 1 X -408 Y 54 Y 1 X 293 Y 1 X 62 Y -405 Y 1 X -4 Y 256 Y 1 X 152 Y -238 Y 1 X -174 Y 130 Y 1 X 272 Y 1 X 8 Y -409 Y 29 Y 1 X 293 Y 1 X 92 Y -377 Y 1 X -20 Y 1
 Y -2 Y 214 Y 1 X 188 Y -126 Y 1 X -286 Y 94 Y 1 X 280 Y 1 X 36 Y -411 Y 8 Y 1 X 276 Y 1 X 124 Y -333 Y 1 X -70 Y 179 Y 1 X 225 Y -5 Y 1 X -399 Y 57 Y 1 X 289 Y 1 X 60 Y -398 Y 1 X 257 Y 1 X 148 Y -240 Y 1 X -156 Y 145 Y 1 X 247 Y 1 X 4 Y -399 Y 27 Y
 1 X 284 Y 1 X 83 Y -381 Y 1 X -15 Y 218 Y 1 X 178 Y -153 Y 1 X -256 Y 100 Y 1 X 281 Y 1 X 28 Y -419 Y 6 Y 1 X 290 Y 1 X 116 Y -349 Y 1 X -60 Y 190 Y 1 X 220 Y -10 Y 1 X -409 Y 61 Y 1 X 295 Y 1 X 59 Y -417 Y 1 X 265 Y 1 X 150 Y -274 Y 1 X -143 Y 160
 Y 1 X 253 Y 1 X 6 Y -400 Y 34 Y 1 X 289 Y 1 X 83 Y -386 Y 1 X -10 Y 221 Y 1 X 176 Y -156 Y 1 X -244 Y 101 Y 1 X 278 Y 1 X 23 Y -410 Y 11 Y 1 X 281 Y 1 X 114 Y -362 Y 1 X -51 Y 198 Y 1 X 213 Y -49 Y 1 X -353 Y 67 Y 1 X 289 Y 1 X 49 Y -392 Y 1 X 261 Y
 1 X 135 Y -273 Y 1 X -111 Y 155 Y 1 X 234 Y 1 X 2 Y -389 Y 33 Y 1 X 277 Y 1 X 77 Y -407 Y 1 X -7 Y 233 Y 1 X 171 Y -175 Y 1 X -243 Y 108 Y 1 X 281 Y 1 X 24 Y -393 Y 13 Y 1 X 285 Y 1 X 107 Y -365 Y 1 X -41 Y 199 Y 1 X 205 Y -53 Y 1 X -336 Y 70 Y 1 X
 277 Y 1 X 44 Y -378 Y 1 X 254 Y 1 X 132 Y -271 Y 1 X -99 Y 156 Y 1 X 224 Y 1 X -224 Y 35 Y 1 X 201 Y 1 X 53 Y -146 Y 1 X 1 Y -1 Y 126 Y 1 X 89 Y -16 Y 1 X -17 Y 47 Y 1 X 56 Y 1 X 9 Y -47 Y 5 Y -1 Y 2 Y 1 X 46 Y -1 Y 8 Y 1 X 4 Y -1 Y 14 Y -171 Y 1 X
 -20 Y 78 Y 1 X 71 Y -59 Y 1 X -212 Y 40 Y 1 X 156 Y 1 X 25 Y -382 Y 1 X 212 Y 1 X 100 Y -278 Y 1 X -81 Y 144 Y 1 X 195 Y 1 X -378 Y 35 Y 1 X 258 Y 1 X 62 Y -351 Y 1 X -3 Y 216 Y 1 X 138 Y -197 Y 1 X -184 Y 125 Y 1 X 231 Y 1 X 10 Y -380 Y 2 Y -1 Y 17
 Y 1 X 268 Y 1 X 87 Y -362 Y 1 X -27 Y 201 Y 1 X 183 Y -87 Y 1 X -307 Y 79 Y 1 X 273 Y 1 X 35 Y -364 Y 5 Y 1 X 257 Y 1 X 111 Y -299 Y 1 X -73 Y 163 Y 1 X 208 Y -12 Y 1 X -355 Y 49 Y 1 X 265 Y 1 X 56 Y -384 Y 1 X -4 Y 235 Y 1 X 146 Y -233 Y 1 X -173 Y
 136 Y 1 X 252 Y 1 X 7 Y -402 Y 25 Y 1 X 288 Y 1 X 88 Y -372 Y 1 X -23 Y 211 Y 1 X 185 Y -114 Y 1 X -281 Y 84 Y 1 X 281 Y 1 X 28 Y -399 Y 7 Y 1 X 277 Y 1 X 116 Y -320 Y 1 X -70 Y 174 Y 1 X 213 Y -24 Y 1 X -386 Y 54 Y 1 X 288 Y 1 X 59 Y -382 Y 1 X -1
 Y 239 Y 1 X 147 Y -251 Y 1 X -140 Y 144 Y 1 X 242 Y 1 X 7 Y -402 Y 24 Y 1 X 286 Y 1 X 84 Y -400 Y 1 X -16 Y 223 Y 1 X 183 Y -137 Y 1 X -276 Y 111 Y 1 X 272 Y 1 X 27 Y -415 Y 8 Y 1 X 284 Y 1 X 115 Y -355 Y 1 X -55 Y 198 Y 1 X 219 Y -34 Y 1 X -368 Y
 60 Y 1 X 291 Y 1 X 51 Y -381 Y 1 X 254 Y 1 X 138 Y -263 Y 1 X -132 Y 153 Y 1 X 241 Y 1 X -400 Y 34 Y 1 X 285 Y 1 X 78 Y -388 Y 1 X -10 Y 226 Y 1 X 174 Y -149 Y 1 X -231 Y 114 Y 1 X 250 Y 1 X 23 Y -397 Y 7 Y 1 X 278 Y 1 X 106 Y -359 Y 1 X -42 Y 199 Y
 1 X 206 Y -48 Y 1 X -338 Y 70 Y 1 X 274 Y 1 X 43 Y -381 Y 1 X 255 Y 1 X 132 Y -281 Y 1 X -120 Y 153 Y 1 X 239 Y 1 X -402 Y 36 Y 1 X 287 Y 1 X 73 Y -404 Y 1 X -8 Y 237 Y 1 X 170 Y -193 Y 1 X -209 Y 128 Y 1 X 258 Y 1 X 20 Y -392 Y 14 Y 1 X 281 Y 1 X
 101 Y -353 Y 1 X -38 Y 197 Y 1 X 198 Y -64 Y 1 X -324 Y 71 Y 1 X 275 Y 1 X 39 Y -393 Y 1 X 270 Y 1 X 128 Y -293 Y 1 X -87 Y 158 Y 1 X 224 Y -7 Y 1 X -375 Y 45 Y 1 X 276 Y 1 X 66 Y -368 Y 1 X -2 Y 226 Y 1 X 147 Y -183 Y 1 X -177 Y 119 Y 1 X 237 Y 1 X
 10 Y -361 Y 16 Y 1 X 260 Y 1 X 90 Y -347 Y 1 X -28 Y 193 Y 1 X 178 Y -85 Y 1 X -288 Y 87 Y 1 X 247 Y 1 X 34 Y -397 Y 2 Y 1 X 268 Y 1 X 120 Y -308 Y 1 X -88 Y 165 Y 1 X 228 Y -10 Y 1 X -392 Y 44 Y 1 X 288 Y 1 X 62 Y -412 Y 1 X 252 Y 1 X 158 Y -236 Y
 1 X -175 Y 141 Y 1 X 257 Y 1 X 7 Y -405 Y 22 Y 1 X 290 Y 1 X 92 Y -367 Y 1 X -27 Y 213 Y 1 X 187 Y -108 Y 1 X -289 Y 103 Y 1 X 262 Y 1 X 31 Y -392 Y 4 Y 1 X 276 Y 1 X 117 Y -321 Y 1 X -64 Y 178 Y 1 X 211 Y -21 Y 1 X -382 Y 52 Y 1 X 285 Y 1 X 59 Y
 -396 Y 1 X -1 Y 246 Y 1 X 153 Y -237 Y 1 X -161 Y 137 Y 1 X 258 Y 1 X -417 Y 27 Y 1 X 293 Y 1 X 88 Y -394 Y 1 X -18 Y 222 Y 1 X 187 Y -129 Y 1 X -277 Y 111 Y 1 X 269 Y 1 X 28 Y -402 Y 5 Y 1 X 281 Y 1 X 115 Y -340 Y 1 X -62 Y 193 Y 1 X 212 Y -30 Y 1
 X -373 Y 57 Y 1 X 289 Y 1 X 57 Y -388 Y 1 Y 1 X 250 Y 1 X 143 Y -254 Y 1 X -135 Y 147 Y 1 X 242 Y 1 X -383 Y 27 Y 1 X 279 Y 1 X 81 Y -381 Y 1 X -16 Y 217 Y 1 X 174 Y -148 Y 1 X -258 Y 1 Y -1 Y 111 Y 1 X 265 Y 1 X 26 Y -407 Y 8 Y 1 X 284 Y 1 X 114 Y
 -351 Y 1 X -46 Y 193 Y 1 X 208 Y -43 Y 1 X -329 Y 77 Y 1 X 259 Y 1 X 50 Y -218 Y 1 Y -1 Y 1 X 191 Y 1 X 100 Y -95 Y 1 X -42 Y 3 Y -1 Y 85 Y 1 X 118 Y 1 X 2 Y -32 Y 1 Y -2 Y 22 Y 1 X 62 Y -1 Y 8 Y 1 X 21 Y -2 Y 1 Y -23 Y 1 X 11 Y -1 Y 34 Y 1 X 14 Y
 -2 Y 9 Y -44 Y 1 X -63 Y 2 Y -1 Y 28 Y 1 X 22 Y -1 Y 41 Y 1 X 3 Y -217 Y 4 Y 1 X 119 Y 1 X 47 Y -286 Y 1 X -43 Y 126 Y 1 X 136 Y -61 Y 1 X -342 Y 67 Y 1 X 236 Y 1 X 39 Y -408 Y 1 X 247 Y 1 X 126 Y -288 Y 1 X -112 Y 157 Y 1 X 230 Y -4 Y 1 X -393 Y 41
 Y 1 X 279 Y 1 X 67 Y -382 Y 1 X -5 Y 226 Y 1 X 157 Y -184 Y 1 X -208 Y 125 Y 1 X 257 Y 1 X 7 Y -403 Y 18 Y 1 X 278 Y 1 X 98 Y -368 Y 1 X -35 Y 202 Y 1 X 197 Y -71 Y 1 X -327 Y 90 Y 1 X 267 Y 1 X 43 Y -385 Y 1 X 261 Y 1 X 127 Y -288 Y 1 X -91 Y 161 Y
 1 X 224 Y -6 Y 1 X -372 Y 41 Y 1 X 277 Y 1 X 64 Y -374 Y 1 X -2 Y 229 Y 1 X 152 Y -205 Y 1 X -193 Y 125 Y 1 X 260 Y 1 X 2 Y -401 Y 18 Y 1 X 285 Y 1 X 95 Y -360 Y 1 X -27 Y 199 Y 1 X 189 Y -77 Y 1 X -310 Y 88 Y 1 X 260 Y 1 X 38 Y -392 Y 1 Y 1 X 266 Y
 1 X 118 Y -293 Y 1 X -81 Y 165 Y 1 X 212 Y -13 Y 1 X -361 Y 58 Y 1 X 260 Y 1 X 56 Y -405 Y 1 X -2 Y 244 Y 1 X 153 Y -229 Y 1 X -178 Y 138 Y 1 X 262 Y 1 X 4 Y -379 Y 22 Y 1 X 274 Y 1 X 85 Y -341 Y 1 X -18 Y 196 Y 1 X 177 Y -105 Y 1 X -274 Y 97 Y 1 X
 250 Y 1 X 31 Y -370 Y 4 Y 1 X 256 Y 1 X 110 Y -306 Y 1 X -70 Y 168 Y 1 X 208 Y -20 Y 1 X -354 Y 63 Y 1 X 254 Y 1 X 55 Y -401 Y 1 X 246 Y 1 X 146 Y -247 Y 1 X -164 Y 146 Y 1 X 259 Y 1 X -390 Y 21 Y 1 X 284 Y 1 X 87 Y -361 Y 1 X -16 Y 211 Y 1 X 175 Y
 -125 Y 1 X -263 Y 105 Y 1 X 262 Y 1 X 18 Y -399 Y 7 Y 1 X 276 Y 1 X 112 Y -342 Y 1 X -60 Y 184 Y 1 X 216 Y -37 Y 1 X -372 Y 75 Y 1 X 274 Y 1 X 55 Y -404 Y 1 X 258 Y 1 X 141 Y -272 Y 1 X -134 Y 155 Y 1 X 250 Y 1 X -397 Y 31 Y 1 X 288 Y 1 X 84 Y -404
 Y 1 X -13 Y 231 Y 1 X 179 Y -148 Y 1 X -266 Y 119 Y 1 X 277 Y 1 X 14 Y -402 Y 8 Y 1 X 285 Y 1 X 112 Y -350 Y 1 X -51 Y 192 Y 1 X 211 Y -46 Y 1 X -353 Y 84 Y 1 X 270 Y 1 X 50 Y -394 Y 1 X 257 Y 1 X 139 Y -271 Y 1 X -123 Y 149 Y 1 X 244 Y -1 Y 1 X
 -393 Y 49 Y 1 X 271 Y 1 X 77 Y -378 Y 1 X -8 Y 224 Y 1 X 166 Y -176 Y 1 X -213 Y 121 Y 1 X 259 Y 1 X 11 Y -379 Y 12 Y 1 X 273 Y 1 X 98 Y -347 Y 1 X -42 Y 189 Y 1 X 196 Y -53 Y 1 X -334 Y 80 Y 1 X 260 Y 1 X 48 Y -408 Y 1 Y 1 X 265 Y 1 X 134 Y -292 Y
 1 X -107 Y 161 Y 1 X 234 Y -2 Y 1 X -399 Y 50 Y 1 X 277 Y 1 X 74 Y -380 Y 1 X -1 Y 226 Y 1 X 162 Y -184 Y 1 X -208 Y 125 Y 1 X 259 Y 1 X 6 Y -380 Y 14 Y 1 X 276 Y 1 X 94 Y -357 Y 1 X -39 Y 195 Y 1 X 192 Y -75 Y 1 X -332 Y 91 Y 1 X 282 Y 1 X 32 Y
 -398 Y 3 Y 1 X 271 Y 1 X 128 Y -304 Y 1 X -98 Y 172 Y 1 X 231 Y -8 Y 1 X -377 Y 56 Y 1 X 266 Y 1 X 65 Y -379 Y 1 X -2 Y 231 Y 1 X 154 Y -194 Y 1 X -176 Y 1 Y -1 Y 124 Y 1 X 246 Y 1 X 8 Y -369 Y 17 Y 1 X 267 Y 1 X 89 Y -347 Y 1 X -24 Y 193 Y 1 X 175
 Y -90 Y 1 X -286 Y 90 Y 1 X 263 Y 1 X 23 Y -380 Y 1 Y 1 X 260 Y 1 X 116 Y -316 Y 1 X -83 Y 171 Y 1 X 217 Y -12 Y 1 X -379 Y 64 Y 1 X 270 Y 1 X 62 Y -385 Y 1 X -3 Y 240 Y 1 X 149 Y -226 Y 1 X -177 Y 140 Y 1 X 257 Y 1 X -407 Y 33 Y 1 X 276 Y 1 X 92 Y
 -369 Y 1 X -23 Y 215 Y 1 X 181 Y -107 Y 1 X -282 Y 102 Y 1 X 267 Y 1 X 22 Y -399 Y 6 Y 1 X 275 Y 1 X 118 Y -206 Y 1 X -41 Y 144 Y 1 X 170 Y -3 Y 1 X -159 Y 46 Y 1 X 148 Y 1 X 36 Y -61 Y 4 Y 1 X 83 Y 1 X 48 Y -30 Y 1 X -21 Y 1 Y -1 Y 40 Y 1 X 51 Y 1
 X -189 Y 15 Y 1 X 105 Y 1 X 34 Y -258 Y 1 X -17 Y 122 Y 1 X 103 Y -132 Y 1 X -274 Y 83 Y 1 X 233 Y 1 X 16 Y -409 Y 5 Y 1 X 258 Y 1 X 106 Y -341 Y 1 X -66 Y 174 Y 1 X 212 Y -34 Y 1 X -364 Y 70 Y 1 X 280 Y 1 X 38 Y -389 Y 1 X 247 Y 1 X 140 Y -249 Y 1
 X -143 Y 146 Y 1 X 240 Y 1 X -371 Y 40 Y 1 X 262 Y 1 X 76 Y -354 Y 1 X -8 Y 208 Y 1 X 165 Y -145 Y 1 X -231 Y 107 Y 1 X 252 Y 1 X 11 Y -373 Y 9 Y 1 X 262 Y 1 X 102 Y -315 Y 1 X -43 Y 176 Y 1 X 191 Y -36 Y 1 X -331 Y 70 Y 1 X 260 Y 1 X 33 Y -386 Y 1
 Y 1 X -1 Y 245 Y 1 X 132 Y -278 Y 1 X -126 Y 156 Y 1 X 238 Y 1 X -396 Y 47 Y 1 X 275 Y 1 X 75 Y -391 Y 1 X -5 Y 225 Y 1 X 169 Y -153 Y 1 X -212 Y 113 Y 1 X 252 Y 1 X 11 Y -355 Y 20 Y 1 X 248 Y 1 X 95 Y -298 Y 1 X -39 Y 171 Y 1 X 175 Y -51 Y 1 X -288
 Y 74 Y 1 X 238 Y 1 X 29 Y -358 Y 1 Y 1 X 232 Y 1 X 120 Y -277 Y 1 X -98 Y 150 Y 1 X 214 Y 1 X -398 Y 51 Y 1 X 266 Y 1 X 70 Y -379 Y 1 X -6 Y 223 Y 1 X 158 Y -185 Y 1 X -198 Y 118 Y 1 X 256 Y 1 X 7 Y -381 Y 27 Y 1 X 262 Y 1 X 94 Y -342 Y 1 X -35 Y
 189 Y 1 X 190 Y -76 Y 1 X -322 Y 90 Y 1 X 271 Y 1 X 30 Y -386 Y 1 X 261 Y 1 X 125 Y -293 Y 1 X -88 Y 165 Y 1 X 219 Y -8 Y 1 X -375 Y 57 Y 1 X 275 Y 1 X 52 Y -373 Y 1 X -5 Y 229 Y 1 X 150 Y -201 Y 1 X -171 Y 128 Y 1 X 246 Y 1 X 2 Y -375 Y 26 Y 1 X
 258 Y 1 X 91 Y -341 Y 1 X -25 Y 191 Y 1 X 177 Y -91 Y 1 X -281 Y 93 Y 1 X 255 Y 1 X 22 Y -377 Y 4 Y 1 X 259 Y 1 X 117 Y -298 Y 1 X -81 Y 1 Y -1 Y 161 Y 1 X 213 Y -15 Y 1 X -379 Y 62 Y 1 X 278 Y 1 X 49 Y -383 Y 1 X -5 Y 242 Y 1 X 146 Y -214 Y 1 X
 -164 Y 131 Y 1 X 247 Y 1 X 2 Y -368 Y 32 Y 1 X 257 Y 1 X 83 Y -351 Y 1 X -18 Y 199 Y 1 X 173 Y -108 Y 1 X -269 Y 98 Y 1 X 256 Y 1 X 22 Y -366 Y 12 Y 1 X 249 Y 1 X 108 Y -298 Y 1 X -60 Y 162 Y 1 X 198 Y -25 Y 1 X -349 Y 67 Y 1 X 264 Y 1 X 42 Y -371 Y
 1 X 232 Y 1 X 137 Y -230 Y 1 X -151 Y 134 Y 1 X 239 Y 1 X -384 Y 35 Y 1 X 267 Y 1 X 80 Y -388 Y 1 X -13 Y 221 Y 1 X 176 Y -135 Y 1 X -248 Y 107 Y 1 X 260 Y 1 X 21 Y -388 Y 13 Y 1 X 261 Y 1 X 108 Y -316 Y 1 X -60 Y 175 Y 1 X 201 Y -41 Y 1 X -344 Y 72
 Y 1 X 275 Y 1 X 41 Y -377 Y 1 X 244 Y 1 X 137 Y -253 Y 1 X -134 Y 145 Y 1 X 239 Y 1 X -383 Y 41 Y 1 X 275 Y 1 X 68 Y -375 Y 1 X -11 Y 213 Y 1 X 170 Y -147 Y 1 X -232 Y 111 Y 1 X 258 Y 1 X 14 Y -394 Y 16 Y 1 X 265 Y 1 X 104 Y -347 Y 1 X -46 Y 191 Y 1
 X 199 Y -46 Y 1 X -348 Y 79 Y 1 X 280 Y 1 X 37 Y -390 Y 1 X 257 Y 1 X 133 Y -282 Y 1 X -115 Y 154 Y 1 X 238 Y 1 X -389 Y 49 Y 1 X 280 Y 1 X 62 Y -382 Y 1 X -10 Y 223 Y 1 X 165 Y -177 Y 1 X -219 Y 122 Y 1 X 264 Y 1 X 11 Y -374 Y 23 Y 1 X 260 Y 1 X 98
 Y -350 Y 1 X -36 Y 194 Y 1 X 194 Y -67 Y 1 X -326 Y 86 Y 1 X 272 Y 1 X 30 Y -397 Y 4 Y 1 X 260 Y 1 X 132 Y -298 Y 1 X -107 Y 161 Y 1 X 239 Y -8 Y 1 X -390 Y 58 Y 1 X 281 Y 1 X 60 Y -377 Y 1 X -6 Y 232 Y 1 X 155 Y -186 Y 1 X -183 Y 122 Y 1 X 253 Y 1
 X 2 Y -373 Y 25 Y 1 X 259 Y 1 X 92 Y -320 Y 1 X -26 Y 186 Y 1 X 178 Y -38 Y 1 X -165 Y 68 Y 1 X 181 Y 1 X 21 Y -131 Y 9 Y 1 X 124 Y 1 X 71 Y -18 Y 1 X -1 Y 3 Y -1 Y 49 Y 1 X 32 Y -2 Y 16 Y -2 Y 1 X -48 Y 2 Y -3 Y 15 Y 1 X 47 Y 1 X 11 Y -248 Y 1 X -5
 Y 1 Y -1 Y 106 Y 1 X 74 Y -192 Y 1 X -183 Y 93 Y 1 X 202 Y 1 X 3 Y -379 Y 18 Y 1 X 250 Y 1 X 70 Y -334 Y 1 X -28 Y 178 Y 1 X 170 Y -83 Y 1 X -288 Y 84 Y 1 X 250 Y 1 X 23 Y -371 Y 7 Y 1 X 245 Y 1 X 113 Y -295 Y 1 X -69 Y 157 Y 1 X 204 Y -13 Y 1 X
 -325 Y 59 Y 1 X 244 Y 1 X 46 Y -343 Y 1 X -1 Y 211 Y 1 X 133 Y -205 Y 1 X -153 Y 122 Y 1 X 226 Y 1 X -377 Y 30 Y 1 X 267 Y 1 X 71 Y -358 Y 1 X -22 Y 201 Y 1 X 174 Y -114 Y 1 X -272 Y 100 Y 1 X 260 Y 1 X 24 Y -374 Y 12 Y 1 X 257 Y 1 X 109 Y -317 Y 1
 X -64 Y 172 Y 1 X 206 Y -17 Y 1 X -348 Y 60 Y 1 X 262 Y 1 X 44 Y -365 Y 2 Y 1 X 231 Y 1 X 139 Y -252 Y 1 X -147 Y 136 Y 1 X 248 Y 1 X -389 Y 38 Y 1 X 279 Y 1 X 68 Y -369 Y 1 X -14 Y 208 Y 1 X 169 Y -134 Y 1 X -260 Y 108 Y 1 X 265 Y 1 X 15 Y -370 Y
 14 Y 1 X 257 Y 1 X 105 Y -322 Y 1 X -52 Y 177 Y 1 X 199 Y -31 Y 1 X -335 Y 69 Y 1 X 264 Y 1 X 35 Y -363 Y 3 Y 1 X 235 Y 1 X 131 Y -248 Y 1 X -125 Y 143 Y 1 X 230 Y 1 X -368 Y 41 Y 1 X 264 Y 1 X 64 Y -366 Y 1 X -14 Y 209 Y 1 X 165 Y -144 Y 1 X -229 Y
 108 Y 1 X 254 Y 1 X 12 Y -366 Y 18 Y 1 X 265 Y 1 X 86 Y -321 Y 1 X -38 Y 178 Y 1 X 187 Y -37 Y 1 X -322 Y 73 Y 1 X 252 Y 1 X 34 Y -329 Y 3 Y 1 X 224 Y 1 X 116 Y -255 Y 1 X -107 Y 140 Y 1 X 214 Y -1 Y 1 X -349 Y 45 Y 1 X 253 Y 1 X 54 Y -350 Y 1 X -8
 Y 205 Y 1 X 153 Y -158 Y 1 X -204 Y 108 Y 1 X 242 Y 1 X 8 Y -368 Y 18 Y 1 X 263 Y 1 X 84 Y -335 Y 1 X -40 Y 180 Y 1 X 188 Y -61 Y 1 X -316 Y 83 Y 1 X 259 Y 1 X 29 Y -382 Y 7 Y 1 X 249 Y 1 X 127 Y -273 Y 1 X -93 Y 153 Y 1 X 218 Y -7 Y 1 X -382 Y 47 Y
 1 X 275 Y 1 X 57 Y -389 Y 1 X 232 Y 1 X 158 Y -196 Y 1 X -193 Y 127 Y 1 X 251 Y 1 X 9 Y -369 Y 22 Y 1 X 271 Y 1 X 77 Y -340 Y 1 X -31 Y 193 Y 1 X 183 Y -86 Y 1 X -286 Y 90 Y 1 X 260 Y 1 X 26 Y -369 Y 6 Y 1 X 243 Y 1 X 119 Y -282 Y 1 X -83 Y 155 Y 1
 X 213 Y -7 Y 1 X -368 Y 53 Y 1 X 266 Y 1 X 52 Y -371 Y 1 X 226 Y 1 X 144 Y -207 Y 1 X -160 Y 127 Y 1 X 241 Y 1 X 5 Y -363 Y 28 Y 1 X 262 Y 1 X 76 Y -341 Y 1 X -20 Y 192 Y 1 X 169 Y -98 Y 1 X -256 Y 91 Y 1 X 245 Y 1 X 20 Y -372 Y 11 Y 1 X 257 Y 1 X
 100 Y -305 Y 1 X -71 Y 164 Y 1 X 209 Y -11 Y 1 X -369 Y 57 Y 1 X 268 Y 1 X 45 Y -369 Y 1 X 231 Y 1 X 143 Y -225 Y 1 X -153 Y 132 Y 1 X 243 Y 1 X 1 Y -365 Y 34 Y 1 X 265 Y 1 X 71 Y -356 Y 1 X -19 Y 193 Y 1 X 177 Y -105 Y 1 X -271 Y 98 Y 1 X 257 Y 1 X
 21 Y -383 Y 7 Y 1 X 271 Y 1 X 105 Y -308 Y 1 X -73 Y 168 Y 1 X 209 Y -29 Y 1 X -350 Y 71 Y 1 X 270 Y 1 X 35 Y -367 Y 1 X 239 Y 1 X 138 Y -218 Y 1 X -147 Y 131 Y 1 X 233 Y 1 X -369 Y 33 Y 1 X 267 Y 1 X 67 Y -358 Y 1 X -7 Y 206 Y 1 X 164 Y -126 Y 1 X
 -230 Y 98 Y 1 X 248 Y 1 X 13 Y -369 Y 13 Y 1 X 262 Y 1 X 94 Y -315 Y 1 X -59 Y 169 Y 1 X 201 Y -31 Y 1 X -333 Y 68 Y 1 X 259 Y 1 X 35 Y -381 Y 1 X 243 Y 1 X 131 Y -256 Y 1 X -126 Y 146 Y 1 X 235 Y 1 X -359 Y 44 Y 1 X 263 Y 1 X 65 Y -356 Y 1 X -2 Y
 205 Y 1 X 156 Y -118 Y 1 X -197 Y 97 Y 1 X 227 Y 1 X 13 Y -181 Y 14 Y 1 X 175 Y 1 X 69 Y -17 Y 1 Y 1 X 70 Y 1 X 7 Y -1 Y 53 Y 1 X 33 Y 1 X 12 Y -2 Y 5 Y -1 Y 4 Y 1 X 15 Y -3 Y 10 Y 1 X 7 Y -1 Y 2 Y -1 Y 5 Y -3 Y 1 Y -1 Y 1 Y -2 Y 2 Y 1 X 3 Y -5 Y 5
 Y -3 Y 6 Y -2 Y 6 Y -2 Y 3 Y -1 Y 1 X 8 Y -1 Y 5 Y -1 Y 2 Y -1 Y 1 X -1 Y 3 Y -4 Y 3 Y -4 Y 6 Y -3 Y 2 Y -2 Y 4 Y -1 Y 1 X 3 Y -2 Y 5 Y -2 Y 2 Y -1 Y 3 Y -2 Y 4 Y -4 Y 4 Y 1 X 4 Y -5 Y 3 Y -2 Y 1 Y -1 Y 2 Y -3 Y 2 Y -2 Y 2 Y 1 X -2 Y 4 Y -3 Y 2 Y -1
 Y 4 Y -1 Y 4 Y -1 Y 4 Y -1 Y 1 X 1 Y -1 Y 3 Y -1 Y 3 Y -1 Y 3 Y -3 Y 1 Y -2 Y 1 X -3 Y 1 Y -2 Y 3 Y -1 Y 2 Y -1 Y 1 Y -2 Y 4 Y -2 Y 4 Y 1 X -1 Y 3 Y -1 Y 2 Y -1 Y 4 Y -3 Y 5 Y -2 Y 2 Y 1 X -3 Y 2 Y -2 Y 1 Y -5 Y 2 Y -1 Y 1 Y -1 Y 1 Y -1 Y 2 Y -3 Y 3
 Y 1 X 1 Y -1 Y 6 Y -2 Y 4 Y -2 Y 2 Y -1 Y 1 Y 1 X -3 Y 5 Y -4 Y 6 Y -5 Y 1 Y -4 Y 4 Y -4 Y 3 Y -2 Y 1 X -1 Y 1 Y -1 Y 2 Y -2 Y 3 Y -2 Y 3 Y -3 Y 4 Y -2 Y 2 Y 1 X 1 Y -1 Y 3 Y -3 Y 5 Y -2 Y 2 Y -2 Y 1 Y -1 Y 1 X -2 Y 2 Y -1 Y 1 Y -4 Y 2 Y -2 Y 4 Y -4
 Y 4 Y -3 Y 3 Y 1 X -1 Y 3 Y -2 Y 2 Y -1 Y 5 Y -3 Y 1 Y -1 Y 3 Y -3 Y 2 Y 1 X -1 Y 4 Y -3 Y 1 Y -2 Y 1 Y -3 Y 1 Y -3 Y 1 Y -1 Y 1 Y -1 Y 1 X 5 Y -2 Y 1 Y -1 Y 1 Y -1 Y 5 Y -2 Y 1 Y 1 X 1 Y -3 Y 4 Y -3 Y 5 Y -4 Y 2 Y -3 Y 2 Y -2 Y 1 Y 1 X -4 Y 5 Y -5
 Y 3 Y -2 Y 4 Y -1 Y 2 Y -2 Y 1 Y 1 X 4 Y -2 Y 1 Y -1 Y 3 Y -2 Y 2 Y -1 Y 1 Y 1 X 1 Y -4 Y 1 Y -2 Y 1 Y -2 Y 1 Y -2 Y 5 Y -3 Y 1 Y -3 Y 1 X 4 Y -2 Y 3 Y -2 Y 2 Y -1 Y 2 Y -1 Y 2 Y -2 Y 2 Y 1 X 1 Y -1 Y 2 Y -1 Y 2 Y -5 Y 2 Y -4 Y 2 Y 1 X 1 Y -1 Y 2 Y
 -3 Y 4 Y -1 Y 1 Y -1 Y 2 Y -1 Y 1 X 2 Y -2 Y 4 Y -5 Y 3 Y -1 Y 4 Y -5 Y 1 X -2 Y 1 Y -1 Y 1 Y -2 Y 2 Y -2 Y 4 Y -4 Y 3 Y -1 Y 1 Y -1 Y 1 X 1 Y -3 Y 4 Y -1 Y 4 Y -2 Y 2 Y -3 Y 3 Y -1 Y 3 Y -2 Y 2 Y -1 Y 1 X 3 Y -3 Y 1 Y -1 Y 1 Y -4 Y 1 Y -3 Y 3 Y -3
 Y 2 Y -1 Y 1 X -1 Y 2 Y -1 Y 2 Y -3 Y 5 Y -1 Y 2 Y -2 Y 4 Y -3 Y 1 X -1 Y 4 Y -3 Y 5 Y -2 Y 1 Y -2 Y 1 Y -1 Y 1 Y -5 Y 2 Y -1 Y 1 X -1 Y 2 Y -2 Y 1 Y -1 Y 3 Y -2 Y 2 Y -1 Y 3 Y -3 Y 3 Y 1 X 1 Y -2 Y 3 Y -2 Y 1 Y -1 Y 1 Y -1 Y 5 Y -3 Y 1 Y 1 X -6 Y 3
 Y -2 Y 2 Y -2 Y 3 Y -2 Y 1 X 1 Y -1 Y 4 Y -1 Y 2 Y -3 Y 3 Y -2 Y 3 Y 1 X 1 Y -4 Y 3 Y -2 Y 1 Y -4 Y 3 Y -1 Y 1 Y -2 Y 2 Y 1 X -2 Y 3 Y -2 Y 2 Y -3 Y 7 Y -4 Y 4 Y 1 X -5 Y 5 Y -2 Y 1 Y -1 Y 2 Y -4 Y 1 Y -1 Y 2 Y 1 X -4 Y 4 Y -1 Y 1 Y -1 Y 2 Y -2 Y 3
 Y -1 Y 1 Y 1 X -2 Y 3 Y -2 Y 2 Y -1 Y 1 Y -2 Y 3 Y -2 Y 1 X -1 Y 3 Y -2 Y 1 Y -1 Y 1 Y -2 Y 1 Y -1 Y 2 Y -1 Y 1 X 2 Y -1 Y 1 Y -1 Y 1 Y -1 Y 1 Y -2 Y 2 Y -1 Y 2 Y -2 Y 2 Y -3 Y 2 Y 1 X -1 Y 1 Y -2 Y 3 Y -1 Y 2 Y -3 Y 2 Y -2 Y 2 Y -2 Y 1 X 2 Y -2 Y 2
 Y -2 Y 1 Y -1 Y 1 Y -1 Y 1 Y -1 Y 1 Y -2 Y 2 Y -2 Y 1 X 2 Y -2 Y 3 Y -3 Y 3 Y -3 Y 3 Y -2 Y 2 Y -2 Y 2 Y 1 X -2 Y 2 Y -2 Y 1 Y -2 Y 1 Y -1 Y 3 Y -3 Y 1 Y -1 Y 3 Y 1 X -3 Y 2 Y -1 Y 1 Y -2 Y 2 Y -3 Y 2 Y -2 Y 1 Y 1 X -1 Y 4 Y -3 Y 1 Y -1 Y 2 Y -2 Y 2
 Y -3 Y 1 Y 1 X 2 Y -4 Y 3 Y -1 Y 2 Y -2 Y 1 Y -2 Y 3 Y 1 X 1 Y -3 Y 2 Y -2 Y 3 Y -3 Y 2 Y -2 Y 2 Y -4 Y 2 Y 1 X 2 Y -2 Y 3 Y -3 Y 2 Y -2 Y 2 Y -2 Y 1 Y -1 Y 1 X -1 Y 2 Y -2 Y 4 Y -5 Y 4 Y -2 Y 1 Y 1 X -1 Y 1 Y -2 Y 1 Y -2 Y 3 Y -2 Y 2 Y -2 Y 1 Y -2
 Y 1 X 5 Y -4 Y 1 Y -1 Y 1 Y -3 Y 3 Y -2 Y 3 Y -2 Y 1 X -1 Y 2 Y -1 Y 2 Y -1 Y 1 Y -3 Y 2 Y -2 Y 2 Y -2 Y 3 Y -1 Y 1 X -1 Y 2 Y -1 Y 1 Y -3 Y 2 Y -3 Y 1 X -1 Y 3 Y -2 Y 1 Y -1 Y 3 Y -3 Y 2 Y -2 Y 3 Y -3 Y 1 X 2 Y -1 Y 3 Y -4 Y 2 Y -2 Y 3 Y -3 Y 3 Y 1
 X -5 Y 4 Y -2 Y 2 Y -2 Y 1 Y -2 Y 6 Y -4 Y 1 Y -1 Y 1 Y -3 Y 1 X 3 Y -2 Y 3 Y -2 Y 2 Y -3 Y 2 Y -3 Y 1 Y -1 Y 3 Y -3 Y 1 X 2 Y -2 Y 2 Y -3 Y 5 Y -5 Y 3 Y -1 Y 4 Y -3 Y 1 Y -1 Y 4 Y 1 X -5 Y 2 Y -2 Y 3 Y -2 Y 1 Y -1 Y 2 Y -3 Y 1 Y 1 X -2 Y 3 Y -3 Y 3
 Y -1 Y 1 Y -3 Y 3 Y -1 Y 3 Y -5 Y 3 Y -2 Y 1 X -1 Y 4 Y -4 Y 4 Y -4 Y 4 Y -3 Y 3 Y -2 Y 1 Y -3 Y 3 Y -2 Y 1 X 2 Y -3 Y 2 Y -3 Y 3 Y -1 Y 2 Y -2 Y 2 Y -2 Y 1 X 2 Y -1 Y 2 Y -3 Y 2 Y -2 Y 1 Y -2 Y 2 Y 1 X -3 Y 2 Y -1 Y 1 Y -2 Y 4 Y -2 Y 2 Y -3 Y 3 Y 1
 X -2 Y 2 Y -2 Y 2 Y -3 Y 3 Y -4 Y 5 Y -4 Y 3 Y -1 Y 1 X 1 Y -1 Y 2 Y -1 Y 2 Y -4 Y 1 Y -3 Y 2 Y -1 Y 3 Y -1 Y 1 X -1 Y 2 Y -2 Y 2 Y -2 Y 3 Y -3 Y 1 Y -1 Y 1 Y -2 Y 2 Y -2 Y 4 Y -1 Y 1 X 1 Y -4 Y 4 Y -2 Y 1 Y -3 Y 4 Y -4 Y 3 Y -2 Y 2 Y -1 Y 2 Y 1 X
 -2 Y 1 Y -3 Y 3 Y -3 Y 3 Y -2 Y 3 Y -2 Y 2 Y -3 Y 1 Y -1 Y 2 Y -1 Y 1 Y 1 X 1 Y -3 Y 2 Y -3 Y 4 Y -3 Y 2 Y -2 Y 1 Y -1 Y 1 Y 1 X 1 Y -3 Y 3 Y -3 Y 1 Y -1 Y 2 Y -2 Y 3 Y -2 Y 1 X -1 Y 2 Y -2 Y 3 Y -4 Y 2 Y -1 Y 2 Y -2 Y 1 Y 1 X 2 Y -5 Y 4 Y -2 Y 1 Y
 -2 Y 4 Y -3 Y 1 Y -2 Y 6 Y -4 Y 2 Y -3 Y 1 X 5 Y -4 Y 1 Y -1 Y 3 Y -4 Y 3 Y -1 Y 1 Y -3 Y 3 Y -2 Y 1 Y -3 Y 1 X 2 Y -1 Y 4 Y -5 Y 4 Y -4 Y 2 Y -1 Y 1 Y -2 Y 2 Y -3 Y 3 Y 1 X 2 Y -3 Y 1 Y -1 Y 2 Y -1 Y 1 Y -4 Y 4 Y -4 Y 3 Y -1 Y 1 Y -1 Y 1 X -1 Y 3 Y
 -2 Y 3 Y -3 Y 3 Y -2 Y 1 Y -3 Y 1 Y -1 Y 3 Y -1 Y 1 X 3 Y -3 Y 1 Y -3 Y 3 Y -2 Y 1 Y 1 X 1 Y -1 Y 1 Y -3 Y 3 Y -2 Y 2 Y -2 Y 3 Y -4 Y 5 Y -3 Y 3 Y -4 Y 2 Y -1 Y 1 X -3 Y 2 Y -1 Y 3 Y -4 Y 4 Y -1 Y 2 Y -3 Y 3 Y -3 Y 1 Y 1 X 1 Y -2 Y 1 Y -2 Y 3 Y -2 Y
 1 Y -2 Y 3 Y -1 Y 1 Y -4 Y 2 Y -1 Y 2 Y 1 X -3 Y 2 Y -1 Y 3 Y -3 Y 3 Y -3 Y 1 Y -1 Y 2 Y 1 X -3 Y 3 Y -2 Y 3 Y -3 Y 3 Y -2 Y 1 Y -2 Y 4 Y -3 Y 1 X 4 Y -3 Y 3 Y -5 Y 2 Y -1 Y 1 Y -1 Y 1 Y -2 Y 3 Y -1 Y 1 X -1 Y 3 Y -3 Y 2 Y -1 Y 3 Y -4 Y 2 Y -2 Y 1 Y
 -1 Y 1 Y -1 Y 1 X 4 Y -4 Y 4 Y -4 Y 2 Y -3 Y 4 Y -2 Y 1 X -1 Y 2 Y -2 Y 2 Y -1 Y 2 Y -3 Y 2 Y -2 Y 1 X 3 Y -3 Y 3 Y -2 Y 1 Y -3 Y 4 Y -4 Y 1 X 3 Y -1 Y 2 Y -2 Y 3 Y -3 Y 2 Y -3 Y 3 Y -2 Y 1 Y 1 X -3 Y 3 Y -3 Y 5 Y -4 Y 1 Y -1 Y 3 Y -2 Y 1 Y 1 X -3 Y
 2 Y -2 Y 4 Y -3 Y 2 Y -1 Y 1 X 1 Y -2 Y 2 Y -2 Y 1 Y -2 Y 3 Y -1 Y 2 Y -3 Y 2 Y -3 Y 1 X 3 Y -5 Y 6 Y -2 Y s black 227 117 m 1814 X s
 gsave  2268 1171 0 0 C 2013.51 41.3817 t 0 r /Helvetica findfont 37.8347 sf 0 0 m (s]) show NC gr 
 gsave  2268 1171 0 0 C 1991.05 41.3817 t 0 r /Symbol findfont 37.8347 sf 0 0 m (m) show NC gr 
 gsave  2268 1171 0 0 C 1960.31 41.3817 t 0 r /Helvetica findfont 37.8347 sf 0 0 m (t [) show NC gr  343 145 m -28 Y s 406 131 m -14 Y s 469 131 m -14 Y s 532 131 m -14 Y s 595 145 m -28 Y s 658 131 m -14 Y s 721 131 m -14 Y s 784 131 m -14 Y s 847
 145 m -28 Y s 910 131 m -14 Y s 973 131 m -14 Y s 1036 131 m -14 Y s 1099 145 m -28 Y s 1162 131 m -14 Y s 1225 131 m -14 Y s 1288 131 m -14 Y s 1351 145 m -28 Y s 1414 131 m -14 Y s 1477 131 m -14 Y s 1540 131 m -14 Y s 1603 145 m -28 Y s 1666 131
 m -14 Y s 1729 131 m -14 Y s 1792 131 m -14 Y s 1855 145 m -28 Y s 343 145 m -28 Y s 280 131 m -14 Y s 1855 145 m -28 Y s 1917 131 m -14 Y s 1980 131 m -14 Y s
 gsave  2268 1171 0 0 C 341.695 79.2164 t 0 r /Helvetica findfont 37.8347 sf 0 0 m (2) show NC gr 
 gsave  2268 1171 0 0 C 320.413 79.2164 t 0 r /Symbol findfont 37.8347 sf 0 0 m (-) show NC gr 
 gsave  2268 1171 0 0 C 582.891 79.2164 t 0 r /Helvetica findfont 37.8347 sf 0 0 m (0) show NC gr 
 gsave  2268 1171 0 0 C 835.91 79.2164 t 0 r /Helvetica findfont 37.8347 sf 0 0 m (2) show NC gr 
 gsave  2268 1171 0 0 C 1087.75 79.2164 t 0 r /Helvetica findfont 37.8347 sf 0 0 m (4) show NC gr 
 gsave  2268 1171 0 0 C 1339.58 79.2164 t 0 r /Helvetica findfont 37.8347 sf 0 0 m (6) show NC gr 
 gsave  2268 1171 0 0 C 1591.42 79.2164 t 0 r /Helvetica findfont 37.8347 sf 0 0 m (8) show NC gr 
 gsave  2268 1171 0 0 C 1832.62 79.2164 t 0 r /Helvetica findfont 37.8347 sf 0 0 m (10) show NC gr  227 117 m 936 Y s
 gsave  2268 1171 0 0 C 109.957 839.457 t 90 r /Helvetica findfont 37.8347 sf 0 0 m (Voltage [mV]) show NC gr  281 167 m -54 X s 254 191 m -27 X s 254 215 m -27 X s 254 239 m -27 X s 254 263 m -27 X s 281 287 m -54 X s 254 311 m -27 X s 254 335 m -27
 X s 254 359 m -27 X s 254 383 m -27 X s 281 406 m -54 X s 254 430 m -27 X s 254 454 m -27 X s 254 478 m -27 X s 254 502 m -27 X s 281 526 m -54 X s 254 550 m -27 X s 254 574 m -27 X s 254 598 m -27 X s 254 622 m -27 X s 281 646 m -54 X s 254 670 m
 -27 X s 254 694 m -27 X s 254 718 m -27 X s 254 742 m -27 X s 281 766 m -54 X s 254 790 m -27 X s 254 814 m -27 X s 254 838 m -27 X s 254 862 m -27 X s 281 886 m -54 X s 254 909 m -27 X s 254 933 m -27 X s 254 957 m -27 X s 254 981 m -27 X s 281
 1005 m -54 X s 281 167 m -54 X s 254 143 m -27 X s 254 119 m -27 X s 281 1005 m -54 X s 254 1029 m -27 X s 254 1053 m -27 X s
 gsave  2268 1171 0 0 C 153.703 153.703 t 0 r /Helvetica findfont 37.8347 sf 0 0 m (350) show NC gr 
 gsave  2268 1171 0 0 C 132.421 153.703 t 0 r /Symbol findfont 37.8347 sf 0 0 m (-) show NC gr 
 gsave  2268 1171 0 0 C 153.703 273.119 t 0 r /Helvetica findfont 37.8347 sf 0 0 m (300) show NC gr 
 gsave  2268 1171 0 0 C 132.421 273.119 t 0 r /Symbol findfont 37.8347 sf 0 0 m (-) show NC gr 
 gsave  2268 1171 0 0 C 153.703 392.535 t 0 r /Helvetica findfont 37.8347 sf 0 0 m (250) show NC gr 
 gsave  2268 1171 0 0 C 132.421 392.535 t 0 r /Symbol findfont 37.8347 sf 0 0 m (-) show NC gr 
 gsave  2268 1171 0 0 C 153.703 513.133 t 0 r /Helvetica findfont 37.8347 sf 0 0 m (200) show NC gr 
 gsave  2268 1171 0 0 C 132.421 513.133 t 0 r /Symbol findfont 37.8347 sf 0 0 m (-) show NC gr 
 gsave  2268 1171 0 0 C 153.703 632.549 t 0 r /Helvetica findfont 37.8347 sf 0 0 m (150) show NC gr 
 gsave  2268 1171 0 0 C 132.421 632.549 t 0 r /Symbol findfont 37.8347 sf 0 0 m (-) show NC gr 
 gsave  2268 1171 0 0 C 153.703 751.964 t 0 r /Helvetica findfont 37.8347 sf 0 0 m (100) show NC gr 
 gsave  2268 1171 0 0 C 132.421 751.964 t 0 r /Symbol findfont 37.8347 sf 0 0 m (-) show NC gr 
 gsave  2268 1171 0 0 C 173.803 871.38 t 0 r /Helvetica findfont 37.8347 sf 0 0 m (50) show NC gr 
 gsave  2268 1171 0 0 C 152.521 871.38 t 0 r /Symbol findfont 37.8347 sf 0 0 m (-) show NC gr 
 gsave  2268 1171 0 0 C 195.085 991.978 t 0 r /Helvetica findfont 37.8347 sf 0 0 m (0) show NC gr  1 1 1 c black
 gsave  2268 1171 0 0 C 803.987 1113.76 t 0 r /Helvetica findfont 56.752 sf 0 0 m (Silicon Signal on Nov 15th) show NC gr 
 gr  gr showpage
end
%%EOF
